CookerStat, GenerateAssetRegistry=0.050530, Initialize=0.225000, RunGuid=RunIDC763ACCA491B7F75AD2B16846C8CA68C
SavePackageTransactionId8E1157864931884B567CCA9D8AA6B953_0, Filename=../../../../../../Users/tomokazu/Documents/KCG/tokkan/tokkan/projectfile/tokkan/Content/TopDownBP/Blueprints/HUD.uasset, AutoPackageBackupDelegate=12.614686, FlushAsyncLoading=0.014212, FlushStreamingFunc=0.070658, BlockTillAllRequestsFinished=0.010658, ResetLoadersForSaveUnMarkAllObjects=0.196580, TagPackageExports=2.070014, BeginCacheForCookedPlatformData=0.005525, SerializeImports=3.245547, GatherLocalizableTextData=10.639410, MarkNames=0.050526, SerializeSummary=0.022896, SerializeNames=0.177633, SerializeGatherableTextData=0.164606, BuildExportMap=0.142109, SortExportsNonSeekfree=0.297632, SortExportsSeekfreeConstructor=0.079736, SortExportsSeekfreeInner=4.430555, SortExportsSeekfree=0.007898, BuildDependencyMap=0.080921, SerializeImportMap=0.016972, SerializeExportMap=0.031184, SerializeDependencyMap=0.018157, SerializeStringAssetReferenceMap=0.005130, SaveThumbNailsAssetRegistryDataWorldLevelInfo=1.006983, SerializeExports=5.238980, SerializeBulkData=0.022896, MoveFile=5.957011, UnaccountedTime=2.827913, RunGuid=RunIDC763ACCA491B7F75AD2B16846C8CA68C
SavePackageTransactionId8E1157864931884B567CCA9D8AA6B953_1, Filename=../../../../../../Users/tomokazu/Documents/KCG/tokkan/tokkan/projectfile/tokkan/Content/TopDownBP/Blueprints/HUD.uasset, AutoPackageBackupDelegate=12.662448, FlushAsyncLoading=0.013422, FlushStreamingFunc=0.079736, BlockTillAllRequestsFinished=0.009868, ResetLoadersForSaveUnMarkAllObjects=0.163425, TagPackageExports=5.142272, BeginCacheForCookedPlatformData=0.007894, SerializeImports=5.793590, GatherLocalizableTextData=15.638783, MarkNames=0.051711, SerializeSummary=0.018552, SerializeNames=0.313818, SerializeGatherableTextData=0.067502, BuildExportMap=0.162631, SortExportsNonSeekfree=0.431452, SortExportsSeekfreeConstructor=0.069868, SortExportsSeekfreeInner=6.105039, SortExportsSeekfree=0.005919, BuildDependencyMap=0.062764, SerializeImportMap=0.024870, SerializeExportMap=0.057235, SerializeDependencyMap=0.007898, SerializeStringAssetReferenceMap=0.002366, SaveThumbNailsAssetRegistryDataWorldLevelInfo=0.948560, SerializeExports=8.280054, SerializeBulkData=0.010263, MoveFile=3.127918, UnaccountedTime=2.626199, RunGuid=RunIDC763ACCA491B7F75AD2B16846C8CA68C
SavePackageTransactionId8E1157864931884B567CCA9D8AA6B953_2, Filename=../../../../../../Users/tomokazu/Documents/KCG/tokkan/tokkan/projectfile/tokkan/Content/TopDownBP/Blueprints/TopDownController.uasset, AutoPackageBackupDelegate=15.876025, FlushAsyncLoading=0.014607, FlushStreamingFunc=0.076182, BlockTillAllRequestsFinished=0.009868, ResetLoadersForSaveUnMarkAllObjects=0.166975, TagPackageExports=38.741302, BeginCacheForCookedPlatformData=0.007894, SerializeImports=38.071037, GatherLocalizableTextData=30.266644, MarkNames=0.170525, SerializeSummary=0.018556, SerializeNames=0.463028, SerializeGatherableTextData=0.180397, BuildExportMap=0.425134, SortExportsNonSeekfree=5.751353, SortExportsSeekfreeConstructor=0.021711, SortExportsSeekfreeInner=37.875637, SortExportsSeekfree=0.009473, BuildDependencyMap=1.348827, SerializeImportMap=0.030395, SerializeExportMap=0.148818, SerializeDependencyMap=0.051316, SerializeStringAssetReferenceMap=0.007499, SaveThumbNailsAssetRegistryDataWorldLevelInfo=4.042525, SerializeExports=42.083561, SerializeBulkData=0.012238, MoveFile=5.445823, UnaccountedTime=2.547648, RunGuid=RunIDC763ACCA491B7F75AD2B16846C8CA68C
SavePackageTransactionId8E1157864931884B567CCA9D8AA6B953_3, Filename=../../../../../../Users/tomokazu/Documents/KCG/tokkan/tokkan/projectfile/tokkan/Saved/Autosaves/Game/TopDownBP/Blueprints/HUD_Auto1.uasset, AutoPackageBackupDelegate=5.893461, FlushAsyncLoading=0.006709, FlushStreamingFunc=0.066318, BlockTillAllRequestsFinished=0.007894, ResetLoadersForSaveUnMarkAllObjects=0.119209, TagPackageExports=3.337521, BeginCacheForCookedPlatformData=0.003550, SerializeImports=6.096355, GatherLocalizableTextData=10.878622, MarkNames=0.048161, SerializeSummary=0.018157, SerializeNames=0.339869, SerializeGatherableTextData=0.065923, BuildExportMap=0.148028, SortExportsNonSeekfree=0.382107, SortExportsSeekfreeConstructor=0.068683, SortExportsSeekfreeInner=5.892277, SortExportsSeekfree=0.005525, BuildDependencyMap=0.056449, SerializeImportMap=0.014607, SerializeExportMap=0.034735, SerializeDependencyMap=0.007503, SerializeStringAssetReferenceMap=0.002366, SaveThumbNailsAssetRegistryDataWorldLevelInfo=0.748035, SerializeExports=5.979117, SerializeBulkData=0.006709, MoveFile=6.338332, UnaccountedTime=0.363555, RunGuid=RunIDC763ACCA491B7F75AD2B16846C8CA68C
SavePackageTransactionId8E1157864931884B567CCA9D8AA6B953_4, Filename=../../../../../../Users/tomokazu/Documents/KCG/tokkan/tokkan/projectfile/tokkan/Content/TopDownBP/Blueprints/HUD.uasset, AutoPackageBackupDelegate=12.411788, FlushAsyncLoading=0.015397, FlushStreamingFunc=0.134211, BlockTillAllRequestsFinished=0.011448, ResetLoadersForSaveUnMarkAllObjects=0.179213, TagPackageExports=5.193587, BeginCacheForCookedPlatformData=0.005525, SerializeImports=7.005837, GatherLocalizableTextData=19.583021, MarkNames=0.088029, SerializeSummary=0.024471, SerializeNames=0.486318, SerializeGatherableTextData=0.097502, BuildExportMap=0.195790, SortExportsNonSeekfree=0.455923, SortExportsSeekfreeConstructor=0.072237, SortExportsSeekfreeInner=9.058088, SortExportsSeekfree=0.009868, BuildDependencyMap=0.104211, SerializeImportMap=0.020131, SerializeExportMap=0.043027, SerializeDependencyMap=0.013817, SerializeStringAssetReferenceMap=0.004735, SaveThumbNailsAssetRegistryDataWorldLevelInfo=0.986453, SerializeExports=11.582445, SerializeBulkData=0.010658, MoveFile=6.485172, UnaccountedTime=6.007146, RunGuid=RunIDC763ACCA491B7F75AD2B16846C8CA68C
SavePackageTransactionId8E1157864931884B567CCA9D8AA6B953_5, Filename=../../../../../../Users/tomokazu/Documents/KCG/tokkan/tokkan/projectfile/tokkan/Content/TopDownBP/Blueprints/HUD.uasset, AutoPackageBackupDelegate=7.749129, FlushAsyncLoading=0.006314, FlushStreamingFunc=0.144869, BlockTillAllRequestsFinished=0.008292, ResetLoadersForSaveUnMarkAllObjects=0.126708, TagPackageExports=3.522258, BeginCacheForCookedPlatformData=0.003159, SerializeImports=4.613712, GatherLocalizableTextData=16.822611, MarkNames=0.087235, SerializeSummary=0.023291, SerializeNames=0.468161, SerializeGatherableTextData=0.097897, BuildExportMap=0.252631, SortExportsNonSeekfree=0.625663, SortExportsSeekfreeConstructor=0.106975, SortExportsSeekfreeInner=6.603990, SortExportsSeekfree=0.006314, BuildDependencyMap=0.058819, SerializeImportMap=0.017762, SerializeExportMap=0.036713, SerializeDependencyMap=0.015002, SerializeStringAssetReferenceMap=0.002764, SaveThumbNailsAssetRegistryDataWorldLevelInfo=0.665136, SerializeExports=6.189119, SerializeBulkData=0.007894, MoveFile=5.649507, UnaccountedTime=2.649889, RunGuid=RunIDC763ACCA491B7F75AD2B16846C8CA68C
SavePackageTransactionId8E1157864931884B567CCA9D8AA6B953_6, Filename=../../../../../../Users/tomokazu/Documents/KCG/tokkan/tokkan/projectfile/tokkan/Content/TopDownBP/Blueprints/HUD.uasset, AutoPackageBackupDelegate=5.747408, FlushAsyncLoading=0.004735, FlushStreamingFunc=0.095133, BlockTillAllRequestsFinished=0.007104, ResetLoadersForSaveUnMarkAllObjects=0.113290, TagPackageExports=3.635548, BeginCacheForCookedPlatformData=0.003949, SerializeImports=4.469633, GatherLocalizableTextData=11.880077, MarkNames=0.048157, SerializeSummary=0.016186, SerializeNames=0.348948, SerializeGatherableTextData=0.061974, BuildExportMap=0.138555, SortExportsNonSeekfree=0.378557, SortExportsSeekfreeConstructor=0.065524, SortExportsSeekfreeInner=6.168593, SortExportsSeekfree=0.005923, BuildDependencyMap=0.063550, SerializeImportMap=0.014998, SerializeExportMap=0.032764, SerializeDependencyMap=0.071842, SerializeStringAssetReferenceMap=0.003945, SaveThumbNailsAssetRegistryDataWorldLevelInfo=0.690401, SerializeExports=5.922273, SerializeBulkData=0.006713, MoveFile=7.018466, UnaccountedTime=2.495147, RunGuid=RunIDC763ACCA491B7F75AD2B16846C8CA68C
SavePackageTransactionId8E1157864931884B567CCA9D8AA6B953_7, Filename=../../../../../../Users/tomokazu/Documents/KCG/tokkan/tokkan/projectfile/tokkan/Content/TopDownBP/Blueprints/HUD.uasset, AutoPackageBackupDelegate=12.707054, FlushAsyncLoading=0.015397, FlushStreamingFunc=0.077762, BlockTillAllRequestsFinished=0.010263, ResetLoadersForSaveUnMarkAllObjects=0.160266, TagPackageExports=3.831737, BeginCacheForCookedPlatformData=0.006709, SerializeImports=7.427812, GatherLocalizableTextData=14.591936, MarkNames=0.051316, SerializeSummary=0.018157, SerializeNames=0.325266, SerializeGatherableTextData=0.061579, BuildExportMap=0.145659, SortExportsNonSeekfree=0.390399, SortExportsSeekfreeConstructor=0.070658, SortExportsSeekfreeInner=8.002158, SortExportsSeekfree=0.006314, BuildDependencyMap=0.064343, SerializeImportMap=0.020131, SerializeExportMap=0.040263, SerializeDependencyMap=0.007894, SerializeStringAssetReferenceMap=0.002369, SaveThumbNailsAssetRegistryDataWorldLevelInfo=0.789873, SerializeExports=8.942425, SerializeBulkData=0.009473, MoveFile=5.676750, UnaccountedTime=2.717383, RunGuid=RunIDC763ACCA491B7F75AD2B16846C8CA68C
SavePackageTransactionId8E1157864931884B567CCA9D8AA6B953_8, Filename=../../../../../../Users/tomokazu/Documents/KCG/tokkan/tokkan/projectfile/tokkan/Content/TopDownBP/Blueprints/HUD.uasset, AutoPackageBackupDelegate=5.897012, FlushAsyncLoading=0.005130, FlushStreamingFunc=0.125922, BlockTillAllRequestsFinished=0.006713, ResetLoadersForSaveUnMarkAllObjects=0.105787, TagPackageExports=4.349239, BeginCacheForCookedPlatformData=0.004344, SerializeImports=5.474638, GatherLocalizableTextData=15.626155, MarkNames=0.060394, SerializeSummary=0.018947, SerializeNames=0.401847, SerializeGatherableTextData=0.082500, BuildExportMap=0.165001, SortExportsNonSeekfree=0.506449, SortExportsSeekfreeConstructor=0.084080, SortExportsSeekfreeInner=6.662414, SortExportsSeekfree=0.005525, BuildDependencyMap=0.068292, SerializeImportMap=0.015788, SerializeExportMap=0.039868, SerializeDependencyMap=0.032369, SerializeStringAssetReferenceMap=0.003159, SaveThumbNailsAssetRegistryDataWorldLevelInfo=0.823427, SerializeExports=7.397413, SerializeBulkData=0.007108, MoveFile=6.778862, UnaccountedTime=2.548438, RunGuid=RunIDC763ACCA491B7F75AD2B16846C8CA68C
SavePackageTransactionId8E1157864931884B567CCA9D8AA6B953_9, Filename=../../../../../../Users/tomokazu/Documents/KCG/tokkan/tokkan/projectfile/tokkan/Content/TopDownBP/Blueprints/HUD.uasset, AutoPackageBackupDelegate=6.232936, FlushAsyncLoading=0.016972, FlushStreamingFunc=0.113290, BlockTillAllRequestsFinished=0.007503, ResetLoadersForSaveUnMarkAllObjects=0.122368, TagPackageExports=3.489889, BeginCacheForCookedPlatformData=0.003554, SerializeImports=4.406475, GatherLocalizableTextData=16.812347, MarkNames=0.052501, SerializeSummary=0.016578, SerializeNames=0.342239, SerializeGatherableTextData=0.072237, BuildExportMap=0.155922, SortExportsNonSeekfree=0.382110, SortExportsSeekfreeConstructor=0.068683, SortExportsSeekfreeInner=5.567405, SortExportsSeekfree=0.005130, BuildDependencyMap=0.061579, SerializeImportMap=0.016581, SerializeExportMap=0.034735, SerializeDependencyMap=0.009079, SerializeStringAssetReferenceMap=0.002369, SaveThumbNailsAssetRegistryDataWorldLevelInfo=0.749610, SerializeExports=6.183591, SerializeBulkData=0.006709, MoveFile=6.244779, UnaccountedTime=2.387386, RunGuid=RunIDC763ACCA491B7F75AD2B16846C8CA68C
SavePackageTransactionId8E1157864931884B567CCA9D8AA6B953_10, Filename=../../../../../../Users/tomokazu/Documents/KCG/tokkan/tokkan/projectfile/tokkan/Content/TopDownBP/Blueprints/HUD.uasset, AutoPackageBackupDelegate=5.756877, FlushAsyncLoading=0.005133, FlushStreamingFunc=0.120789, BlockTillAllRequestsFinished=0.006318, ResetLoadersForSaveUnMarkAllObjects=0.113685, TagPackageExports=3.361996, BeginCacheForCookedPlatformData=0.003945, SerializeImports=4.485819, GatherLocalizableTextData=12.015079, MarkNames=0.049736, SerializeSummary=0.016976, SerializeNames=0.328816, SerializeGatherableTextData=0.081316, BuildExportMap=0.138160, SortExportsNonSeekfree=0.363555, SortExportsSeekfreeConstructor=0.066318, SortExportsSeekfreeInner=5.657800, SortExportsSeekfree=0.005525, BuildDependencyMap=0.057630, SerializeImportMap=0.016186, SerializeExportMap=0.037499, SerializeDependencyMap=0.015397, SerializeStringAssetReferenceMap=0.002760, SaveThumbNailsAssetRegistryDataWorldLevelInfo=0.703033, SerializeExports=5.885959, SerializeBulkData=0.008289, MoveFile=6.208856, UnaccountedTime=2.585936, RunGuid=RunIDC763ACCA491B7F75AD2B16846C8CA68C
SavePackageTransactionId8E1157864931884B567CCA9D8AA6B953_11, Filename=../../../../../../Users/tomokazu/Documents/KCG/tokkan/tokkan/projectfile/tokkan/Content/TopDownBP/Blueprints/HUD.uasset, AutoPackageBackupDelegate=5.948328, FlushAsyncLoading=0.005528, FlushStreamingFunc=0.108946, BlockTillAllRequestsFinished=0.005923, ResetLoadersForSaveUnMarkAllObjects=0.140920, TagPackageExports=3.431864, BeginCacheForCookedPlatformData=0.003550, SerializeImports=4.633848, GatherLocalizableTextData=12.461528, MarkNames=0.050921, SerializeSummary=0.017762, SerializeNames=0.333555, SerializeGatherableTextData=0.070658, BuildExportMap=0.154343, SortExportsNonSeekfree=0.391584, SortExportsSeekfreeConstructor=0.092369, SortExportsSeekfreeInner=5.737141, SortExportsSeekfree=0.005528, BuildDependencyMap=0.057235, SerializeImportMap=0.015397, SerializeExportMap=0.035919, SerializeDependencyMap=0.056051, SerializeStringAssetReferenceMap=0.003554, SaveThumbNailsAssetRegistryDataWorldLevelInfo=0.677373, SerializeExports=6.041881, SerializeBulkData=0.006314, MoveFile=6.041490, UnaccountedTime=2.407119, RunGuid=RunIDC763ACCA491B7F75AD2B16846C8CA68C
SavePackageTransactionId8E1157864931884B567CCA9D8AA6B953_12, Filename=../../../../../../Users/tomokazu/Documents/KCG/tokkan/tokkan/projectfile/tokkan/Content/TopDownBP/Blueprints/TopDownController.uasset, AutoPackageBackupDelegate=13.003111, FlushAsyncLoading=0.015393, FlushStreamingFunc=0.083290, BlockTillAllRequestsFinished=0.011053, ResetLoadersForSaveUnMarkAllObjects=0.206448, TagPackageExports=29.014137, BeginCacheForCookedPlatformData=0.007104, SerializeImports=27.401228, GatherLocalizableTextData=19.866444, MarkNames=0.157502, SerializeSummary=0.025660, SerializeNames=0.466187, SerializeGatherableTextData=0.155922, BuildExportMap=0.369079, SortExportsNonSeekfree=5.351089, SortExportsSeekfreeConstructor=0.087630, SortExportsSeekfreeInner=32.048103, SortExportsSeekfree=0.008684, BuildDependencyMap=0.240792, SerializeImportMap=0.035528, SerializeExportMap=0.146050, SerializeDependencyMap=0.046182, SerializeStringAssetReferenceMap=0.003949, SaveThumbNailsAssetRegistryDataWorldLevelInfo=3.439363, SerializeExports=37.036423, SerializeBulkData=0.015002, MoveFile=5.945172, UnaccountedTime=2.699621, RunGuid=RunIDC763ACCA491B7F75AD2B16846C8CA68C
SavePackageTransactionId8E1157864931884B567CCA9D8AA6B953_13, Filename=../../../../../../Users/tomokazu/Documents/KCG/tokkan/tokkan/projectfile/tokkan/Content/TopDownBP/Blueprints/TopDownController.uasset, AutoPackageBackupDelegate=6.114908, FlushAsyncLoading=0.006314, FlushStreamingFunc=0.136975, BlockTillAllRequestsFinished=0.007499, ResetLoadersForSaveUnMarkAllObjects=0.128686, TagPackageExports=26.301485, BeginCacheForCookedPlatformData=0.007104, SerializeImports=29.703743, GatherLocalizableTextData=20.331844, MarkNames=0.133816, SerializeSummary=0.018552, SerializeNames=0.491057, SerializeGatherableTextData=0.158291, BuildExportMap=0.382502, SortExportsNonSeekfree=6.099906, SortExportsSeekfreeConstructor=0.092369, SortExportsSeekfreeInner=36.436420, SortExportsSeekfree=0.009473, BuildDependencyMap=0.241186, SerializeImportMap=0.030790, SerializeExportMap=0.156317, SerializeDependencyMap=0.033554, SerializeStringAssetReferenceMap=0.002760, SaveThumbNailsAssetRegistryDataWorldLevelInfo=3.690422, SerializeExports=39.516174, SerializeBulkData=0.011843, MoveFile=7.178336, UnaccountedTime=2.732385, RunGuid=RunIDC763ACCA491B7F75AD2B16846C8CA68C
SavePackageTransactionId8E1157864931884B567CCA9D8AA6B953_14, Filename=../../../../../../Users/tomokazu/Documents/KCG/tokkan/tokkan/projectfile/tokkan/Content/TopDownBP/Blueprints/HUD.uasset, AutoPackageBackupDelegate=11.677574, FlushAsyncLoading=0.015397, FlushStreamingFunc=0.076182, BlockTillAllRequestsFinished=0.010263, ResetLoadersForSaveUnMarkAllObjects=0.160661, TagPackageExports=3.703050, BeginCacheForCookedPlatformData=0.005133, SerializeImports=5.122926, GatherLocalizableTextData=18.517225, MarkNames=0.053290, SerializeSummary=0.018947, SerializeNames=0.331581, SerializeGatherableTextData=0.119999, BuildExportMap=0.149608, SortExportsNonSeekfree=0.389215, SortExportsSeekfreeConstructor=0.075392, SortExportsSeekfreeInner=5.846880, SortExportsSeekfree=0.005923, BuildDependencyMap=0.061579, SerializeImportMap=0.016578, SerializeExportMap=0.036713, SerializeDependencyMap=0.009473, SerializeStringAssetReferenceMap=0.002369, SaveThumbNailsAssetRegistryDataWorldLevelInfo=0.678163, SerializeExports=6.259382, SerializeBulkData=0.009079, MoveFile=6.268065, UnaccountedTime=2.720941, RunGuid=RunIDC763ACCA491B7F75AD2B16846C8CA68C
SavePackageTransactionId8E1157864931884B567CCA9D8AA6B953_15, Filename=../../../../../../Users/tomokazu/Documents/KCG/tokkan/tokkan/projectfile/tokkan/Content/TopDownBP/Blueprints/TopDownController.uasset, AutoPackageBackupDelegate=9.793881, FlushAsyncLoading=0.008684, FlushStreamingFunc=0.075791, BlockTillAllRequestsFinished=0.008684, ResetLoadersForSaveUnMarkAllObjects=0.159867, TagPackageExports=33.769165, BeginCacheForCookedPlatformData=0.007108, SerializeImports=30.070848, GatherLocalizableTextData=22.888176, MarkNames=0.148028, SerializeSummary=0.018947, SerializeNames=0.460658, SerializeGatherableTextData=0.157107, BuildExportMap=0.392374, SortExportsNonSeekfree=5.238585, SortExportsSeekfreeConstructor=0.013027, SortExportsSeekfreeInner=34.347061, SortExportsSeekfree=0.009079, BuildDependencyMap=0.247110, SerializeImportMap=0.032760, SerializeExportMap=0.151977, SerializeDependencyMap=0.031184, SerializeStringAssetReferenceMap=0.002369, SaveThumbNailsAssetRegistryDataWorldLevelInfo=3.503311, SerializeExports=38.951305, SerializeBulkData=0.012238, MoveFile=5.623851, UnaccountedTime=2.722122, RunGuid=RunIDC763ACCA491B7F75AD2B16846C8CA68C
SavePackageTransactionId8E1157864931884B567CCA9D8AA6B953_16, Filename=../../../../../../Users/tomokazu/Documents/KCG/tokkan/tokkan/projectfile/tokkan/Content/TopDownBP/Blueprints/HUD.uasset, AutoPackageBackupDelegate=7.721104, FlushAsyncLoading=0.005919, FlushStreamingFunc=0.138160, BlockTillAllRequestsFinished=0.007499, ResetLoadersForSaveUnMarkAllObjects=0.117633, TagPackageExports=3.964763, BeginCacheForCookedPlatformData=0.003550, SerializeImports=6.832942, GatherLocalizableTextData=13.941798, MarkNames=0.048552, SerializeSummary=0.017766, SerializeNames=0.366315, SerializeGatherableTextData=0.073027, BuildExportMap=0.151187, SortExportsNonSeekfree=0.470530, SortExportsSeekfreeConstructor=0.067104, SortExportsSeekfreeInner=6.477278, SortExportsSeekfree=0.004739, BuildDependencyMap=0.063553, SerializeImportMap=0.015792, SerializeExportMap=0.037894, SerializeDependencyMap=0.009079, SerializeStringAssetReferenceMap=0.002369, SaveThumbNailsAssetRegistryDataWorldLevelInfo=0.744481, SerializeExports=7.123072, SerializeBulkData=0.007104, MoveFile=5.616352, UnaccountedTime=2.596594, RunGuid=RunIDC763ACCA491B7F75AD2B16846C8CA68C
SavePackageTransactionId8E1157864931884B567CCA9D8AA6B953_17, Filename=../../../../../../Users/tomokazu/Documents/KCG/tokkan/tokkan/projectfile/tokkan/Content/TopDownBP/Blueprints/HUD.uasset, AutoPackageBackupDelegate=5.847271, FlushAsyncLoading=0.005528, FlushStreamingFunc=0.067104, BlockTillAllRequestsFinished=0.008292, ResetLoadersForSaveUnMarkAllObjects=0.173684, TagPackageExports=3.673051, BeginCacheForCookedPlatformData=0.016183, SerializeImports=4.948452, GatherLocalizableTextData=12.780086, MarkNames=0.047762, SerializeSummary=0.017762, SerializeNames=0.339478, SerializeGatherableTextData=0.067893, BuildExportMap=0.139739, SortExportsNonSeekfree=0.391580, SortExportsSeekfreeConstructor=0.068292, SortExportsSeekfreeInner=5.670033, SortExportsSeekfree=0.005528, BuildDependencyMap=0.061974, SerializeImportMap=0.015788, SerializeExportMap=0.050131, SerializeDependencyMap=0.009079, SerializeStringAssetReferenceMap=0.001974, SaveThumbNailsAssetRegistryDataWorldLevelInfo=0.682503, SerializeExports=6.165434, SerializeBulkData=0.007108, MoveFile=6.333988, UnaccountedTime=2.482519, RunGuid=RunIDC763ACCA491B7F75AD2B16846C8CA68C
SavePackageTransactionId8E1157864931884B567CCA9D8AA6B953_18, Filename=../../../../../../Users/tomokazu/Documents/KCG/tokkan/tokkan/projectfile/tokkan/Content/TopDownBP/Blueprints/HUD.uasset, AutoPackageBackupDelegate=6.316621, FlushAsyncLoading=0.017762, FlushStreamingFunc=0.187501, BlockTillAllRequestsFinished=0.018947, ResetLoadersForSaveUnMarkAllObjects=0.200924, TagPackageExports=3.330417, BeginCacheForCookedPlatformData=0.003554, SerializeImports=4.840687, GatherLocalizableTextData=13.389956, MarkNames=0.051711, SerializeSummary=0.016972, SerializeNames=0.360791, SerializeGatherableTextData=0.082899, BuildExportMap=0.139341, SortExportsNonSeekfree=0.373423, SortExportsSeekfreeConstructor=0.068292, SortExportsSeekfreeInner=5.789247, SortExportsSeekfree=0.005528, BuildDependencyMap=0.056446, SerializeImportMap=0.015002, SerializeExportMap=0.033949, SerializeDependencyMap=0.007894, SerializeStringAssetReferenceMap=0.002369, SaveThumbNailsAssetRegistryDataWorldLevelInfo=0.733819, SerializeExports=6.117277, SerializeBulkData=0.007104, MoveFile=7.095836, UnaccountedTime=2.450146, RunGuid=RunIDC763ACCA491B7F75AD2B16846C8CA68C
SavePackageTransactionId8E1157864931884B567CCA9D8AA6B953_19, Filename=../../../../../../Users/tomokazu/Documents/KCG/tokkan/tokkan/projectfile/tokkan/Content/TopDownBP/Blueprints/TopDownController.uasset, AutoPackageBackupDelegate=11.425730, FlushAsyncLoading=0.014212, FlushStreamingFunc=0.080921, BlockTillAllRequestsFinished=0.010263, ResetLoadersForSaveUnMarkAllObjects=0.177633, TagPackageExports=31.577967, BeginCacheForCookedPlatformData=0.007104, SerializeImports=29.727428, GatherLocalizableTextData=20.708424, MarkNames=0.139341, SerializeSummary=0.018161, SerializeNames=0.474080, SerializeGatherableTextData=0.168160, BuildExportMap=0.434607, SortExportsNonSeekfree=5.197138, SortExportsSeekfreeConstructor=0.117239, SortExportsSeekfreeInner=36.178261, SortExportsSeekfree=0.009079, BuildDependencyMap=0.231709, SerializeImportMap=0.032764, SerializeExportMap=0.151187, SerializeDependencyMap=0.028025, SerializeStringAssetReferenceMap=0.002369, SaveThumbNailsAssetRegistryDataWorldLevelInfo=3.675416, SerializeExports=40.083420, SerializeBulkData=0.013418, MoveFile=7.673338, UnaccountedTime=2.679884, RunGuid=RunIDC763ACCA491B7F75AD2B16846C8CA68C
SavePackageTransactionId8E1157864931884B567CCA9D8AA6B953_20, Filename=../../../../../../Users/tomokazu/Documents/KCG/tokkan/tokkan/projectfile/tokkan/Content/TopDownBP/Blueprints/HUD.uasset, AutoPackageBackupDelegate=11.656259, FlushAsyncLoading=0.014607, FlushStreamingFunc=0.077371, BlockTillAllRequestsFinished=0.009868, ResetLoadersForSaveUnMarkAllObjects=0.172894, TagPackageExports=2.380278, BeginCacheForCookedPlatformData=0.004735, SerializeImports=3.451604, GatherLocalizableTextData=11.218886, MarkNames=0.047367, SerializeSummary=0.017371, SerializeNames=0.171315, SerializeGatherableTextData=0.183556, BuildExportMap=0.138156, SortExportsNonSeekfree=0.294872, SortExportsSeekfreeConstructor=0.067104, SortExportsSeekfreeInner=4.091475, SortExportsSeekfree=0.005133, BuildDependencyMap=0.062369, SerializeImportMap=0.013817, SerializeExportMap=0.029605, SerializeDependencyMap=0.007499, SerializeStringAssetReferenceMap=0.001974, SaveThumbNailsAssetRegistryDataWorldLevelInfo=0.541188, SerializeExports=4.073709, SerializeBulkData=0.007104, MoveFile=5.912803, UnaccountedTime=2.638437, RunGuid=RunIDC763ACCA491B7F75AD2B16846C8CA68C
SavePackageTransactionId8E1157864931884B567CCA9D8AA6B953_21, Filename=../../../../../../Users/tomokazu/Documents/KCG/tokkan/tokkan/projectfile/tokkan/Content/TopDownBP/Blueprints/TopDownController.uasset, AutoPackageBackupDelegate=6.356884, FlushAsyncLoading=0.006314, FlushStreamingFunc=0.172503, BlockTillAllRequestsFinished=0.007499, ResetLoadersForSaveUnMarkAllObjects=0.131842, TagPackageExports=27.829126, BeginCacheForCookedPlatformData=0.016972, SerializeImports=30.143089, GatherLocalizableTextData=21.140665, MarkNames=0.130262, SerializeSummary=0.017762, SerializeNames=0.481978, SerializeGatherableTextData=0.182763, BuildExportMap=0.417240, SortExportsNonSeekfree=5.207799, SortExportsSeekfreeConstructor=0.070658, SortExportsSeekfreeInner=36.297470, SortExportsSeekfree=0.009079, BuildDependencyMap=0.245135, SerializeImportMap=0.034738, SerializeExportMap=0.151183, SerializeDependencyMap=0.030000, SerializeStringAssetReferenceMap=0.002764, SaveThumbNailsAssetRegistryDataWorldLevelInfo=3.849499, SerializeExports=41.513165, SerializeBulkData=0.013024, MoveFile=5.744248, UnaccountedTime=3.095154, RunGuid=RunIDC763ACCA491B7F75AD2B16846C8CA68C
SavePackageTransactionId8E1157864931884B567CCA9D8AA6B953_22, Filename=../../../../../../Users/tomokazu/Documents/KCG/tokkan/tokkan/projectfile/tokkan/Saved/Autosaves/Game/TopDownBP/Blueprints/HUD_Auto2.uasset, AutoPackageBackupDelegate=12.974690, FlushAsyncLoading=0.014208, FlushStreamingFunc=0.076186, BlockTillAllRequestsFinished=0.010658, ResetLoadersForSaveUnMarkAllObjects=0.186317, TagPackageExports=3.659234, BeginCacheForCookedPlatformData=0.008684, SerializeImports=5.432405, GatherLocalizableTextData=22.233694, MarkNames=0.079740, SerializeSummary=0.023682, SerializeNames=0.275530, SerializeGatherableTextData=0.379737, BuildExportMap=0.207633, SortExportsNonSeekfree=12.657713, SortExportsSeekfreeConstructor=0.232503, SortExportsSeekfreeInner=7.507153, SortExportsSeekfree=0.007108, BuildDependencyMap=0.058815, SerializeImportMap=0.016578, SerializeExportMap=0.030395, SerializeDependencyMap=0.009079, SerializeStringAssetReferenceMap=0.003159, SaveThumbNailsAssetRegistryDataWorldLevelInfo=0.685267, SerializeExports=4.790559, SerializeBulkData=0.009868, MoveFile=6.133854, UnaccountedTime=0.273556, RunGuid=RunIDC763ACCA491B7F75AD2B16846C8CA68C
SavePackageTransactionId8E1157864931884B567CCA9D8AA6B953_23, Filename=../../../../../../Users/tomokazu/Documents/KCG/tokkan/tokkan/projectfile/tokkan/Content/TopDownBP/Blueprints/HUD.uasset, AutoPackageBackupDelegate=6.519910, FlushAsyncLoading=0.005923, FlushStreamingFunc=0.154737, BlockTillAllRequestsFinished=0.007894, ResetLoadersForSaveUnMarkAllObjects=0.118028, TagPackageExports=2.529096, BeginCacheForCookedPlatformData=0.003550, SerializeImports=3.598448, GatherLocalizableTextData=12.059286, MarkNames=0.048157, SerializeSummary=0.017371, SerializeNames=0.327632, SerializeGatherableTextData=0.067897, BuildExportMap=0.134606, SortExportsNonSeekfree=0.365924, SortExportsSeekfreeConstructor=0.066314, SortExportsSeekfreeInner=4.725031, SortExportsSeekfree=0.005130, BuildDependencyMap=0.066712, SerializeImportMap=0.012632, SerializeExportMap=0.031579, SerializeDependencyMap=0.050526, SerializeStringAssetReferenceMap=0.004344, SaveThumbNailsAssetRegistryDataWorldLevelInfo=0.672635, SerializeExports=5.131218, SerializeBulkData=0.006314, MoveFile=6.000433, UnaccountedTime=2.429228, RunGuid=RunIDC763ACCA491B7F75AD2B16846C8CA68C
