CookerStat, GenerateAssetRegistry=0.038683, Initialize=0.209212, RunGuid=RunID684E7456405D5868806055B77737D193
SavePackageTransactionId34A0F9B44D6CBCAB8AFDF68343845AF9_0, Filename=../../../../../../Users/tomokazu/Documents/KCG/tokkan/tokkan/projectfile/tokkan/Content/TopDownBP/Maps/TopDownExampleMap.umap, AutoPackageBackupDelegate=22.566174, FlushAsyncLoading=0.016972, FlushStreamingFunc=0.058819, BlockTillAllRequestsFinished=0.007894, ResetLoadersForSaveUnMarkAllObjects=62.688072, TagPackageExports=2.255946, BeginCacheForCookedPlatformData=0.003949, SerializeImports=4.133336, GatherLocalizableTextData=21.826427, MarkNames=1.068566, SerializeSummary=0.061184, SerializeNames=0.841193, SerializeGatherableTextData=0.078555, BuildExportMap=0.570007, SortExportsNonSeekfree=1.068957, SortExportsSeekfreeConstructor=0.096712, SortExportsSeekfreeInner=30.238363, SortExportsSeekfree=0.009079, BuildDependencyMap=0.190660, SerializeImportMap=0.076186, SerializeExportMap=0.065133, SerializeDependencyMap=0.054475, SerializeStringAssetReferenceMap=0.003550, SaveThumbNailsAssetRegistryDataWorldLevelInfo=1.657125, SerializeExports=9.487607, SerializeBulkData=379.259094, MoveFile=6.228227, UnaccountedTime=5.312428, RunGuid=RunID684E7456405D5868806055B77737D193
SavePackageTransactionId34A0F9B44D6CBCAB8AFDF68343845AF9_1, Filename=../../../../../../Users/tomokazu/Documents/KCG/tokkan/tokkan/projectfile/tokkan/Content/TopDownBP/Blueprints/enemy2.uasset, AutoPackageBackupDelegate=12.730405, FlushAsyncLoading=0.013422, FlushStreamingFunc=0.061974, BlockTillAllRequestsFinished=0.009079, ResetLoadersForSaveUnMarkAllObjects=0.164609, TagPackageExports=10.035898, BeginCacheForCookedPlatformData=0.006318, SerializeImports=10.986440, GatherLocalizableTextData=8.526806, MarkNames=0.080921, SerializeSummary=0.017762, SerializeNames=0.388425, SerializeGatherableTextData=0.070266, BuildExportMap=0.264082, SortExportsNonSeekfree=1.247775, SortExportsSeekfreeConstructor=0.073422, SortExportsSeekfreeInner=21.938931, SortExportsSeekfree=0.011053, BuildDependencyMap=0.175659, SerializeImportMap=0.039477, SerializeExportMap=0.086840, SerializeDependencyMap=0.024866, SerializeStringAssetReferenceMap=0.005133, SaveThumbNailsAssetRegistryDataWorldLevelInfo=9.545631, SerializeExports=15.646755, SerializeBulkData=0.014998, MoveFile=8.241411, UnaccountedTime=3.483590, RunGuid=RunID684E7456405D5868806055B77737D193
SavePackageTransactionId34A0F9B44D6CBCAB8AFDF68343845AF9_2, Filename=../../../../../../Users/tomokazu/Documents/KCG/tokkan/tokkan/projectfile/tokkan/Content/TopDownBP/Blueprints/enemy2.uasset, AutoPackageBackupDelegate=5.611643, FlushAsyncLoading=0.005525, FlushStreamingFunc=0.084870, BlockTillAllRequestsFinished=0.016186, ResetLoadersForSaveUnMarkAllObjects=0.139736, TagPackageExports=9.735901, BeginCacheForCookedPlatformData=0.007104, SerializeImports=11.349205, GatherLocalizableTextData=8.657862, MarkNames=0.076581, SerializeSummary=0.016183, SerializeNames=0.416059, SerializeGatherableTextData=0.078946, BuildExportMap=0.332769, SortExportsNonSeekfree=1.218170, SortExportsSeekfreeConstructor=0.067502, SortExportsSeekfreeInner=21.290369, SortExportsSeekfree=0.007499, BuildDependencyMap=0.101052, SerializeImportMap=0.028420, SerializeExportMap=0.060398, SerializeDependencyMap=0.019342, SerializeStringAssetReferenceMap=0.002764, SaveThumbNailsAssetRegistryDataWorldLevelInfo=9.360105, SerializeExports=15.677937, SerializeBulkData=0.012238, MoveFile=6.947443, UnaccountedTime=2.674770, RunGuid=RunID684E7456405D5868806055B77737D193
SavePackageTransactionId34A0F9B44D6CBCAB8AFDF68343845AF9_3, Filename=../../../../../../Users/tomokazu/Documents/KCG/tokkan/tokkan/projectfile/tokkan/Content/TopDownBP/Blueprints/enemy2.uasset, AutoPackageBackupDelegate=5.895857, FlushAsyncLoading=0.005923, FlushStreamingFunc=0.071842, BlockTillAllRequestsFinished=0.007104, ResetLoadersForSaveUnMarkAllObjects=0.151187, TagPackageExports=9.762738, BeginCacheForCookedPlatformData=0.007108, SerializeImports=11.223678, GatherLocalizableTextData=8.694965, MarkNames=0.083290, SerializeSummary=0.018157, SerializeNames=0.422768, SerializeGatherableTextData=0.075001, BuildExportMap=0.282634, SortExportsNonSeekfree=1.254093, SortExportsSeekfreeConstructor=0.074212, SortExportsSeekfreeInner=21.658268, SortExportsSeekfree=0.008687, BuildDependencyMap=0.165790, SerializeImportMap=0.027236, SerializeExportMap=0.059210, SerializeDependencyMap=0.011053, SerializeStringAssetReferenceMap=0.002366, SaveThumbNailsAssetRegistryDataWorldLevelInfo=8.864309, SerializeExports=13.371862, SerializeBulkData=0.012632, MoveFile=7.301137, UnaccountedTime=2.510156, RunGuid=RunID684E7456405D5868806055B77737D193
SavePackageTransactionId34A0F9B44D6CBCAB8AFDF68343845AF9_4, Filename=../../../../../../Users/tomokazu/Documents/KCG/tokkan/tokkan/projectfile/tokkan/Content/TopDownBP/Blueprints/enemy2.uasset, AutoPackageBackupDelegate=5.611248, FlushAsyncLoading=0.005525, FlushStreamingFunc=0.036318, BlockTillAllRequestsFinished=0.004735, ResetLoadersForSaveUnMarkAllObjects=0.112504, TagPackageExports=10.874726, BeginCacheForCookedPlatformData=0.008289, SerializeImports=13.675813, GatherLocalizableTextData=8.870624, MarkNames=0.076976, SerializeSummary=0.018157, SerializeNames=0.437375, SerializeGatherableTextData=0.077367, BuildExportMap=0.293296, SortExportsNonSeekfree=1.254093, SortExportsSeekfreeConstructor=0.070263, SortExportsSeekfreeInner=21.571819, SortExportsSeekfree=0.007108, BuildDependencyMap=0.144474, SerializeImportMap=0.028815, SerializeExportMap=0.060789, SerializeDependencyMap=0.011843, SerializeStringAssetReferenceMap=0.001971, SaveThumbNailsAssetRegistryDataWorldLevelInfo=8.966550, SerializeExports=13.817523, SerializeBulkData=0.011843, MoveFile=7.496137, UnaccountedTime=2.480950, RunGuid=RunID684E7456405D5868806055B77737D193
SavePackageTransactionId34A0F9B44D6CBCAB8AFDF68343845AF9_5, Filename=../../../../../../Users/tomokazu/Documents/KCG/tokkan/tokkan/projectfile/tokkan/Content/TopDownBP/Blueprints/enemy2.uasset, AutoPackageBackupDelegate=5.436770, FlushAsyncLoading=0.004739, FlushStreamingFunc=0.071447, BlockTillAllRequestsFinished=0.007499, ResetLoadersForSaveUnMarkAllObjects=0.121582, TagPackageExports=9.830244, BeginCacheForCookedPlatformData=0.007104, SerializeImports=11.723421, GatherLocalizableTextData=8.364171, MarkNames=0.075001, SerializeSummary=0.018552, SerializeNames=0.406586, SerializeGatherableTextData=0.071842, BuildExportMap=0.258554, SortExportsNonSeekfree=1.289226, SortExportsSeekfreeConstructor=0.072237, SortExportsSeekfreeInner=20.364702, SortExportsSeekfree=0.008684, BuildDependencyMap=0.105791, SerializeImportMap=0.029605, SerializeExportMap=0.065919, SerializeDependencyMap=0.014603, SerializeStringAssetReferenceMap=0.002369, SaveThumbNailsAssetRegistryDataWorldLevelInfo=48.139091, SerializeExports=13.820287, SerializeBulkData=0.013027, MoveFile=6.724022, UnaccountedTime=2.745822, RunGuid=RunID684E7456405D5868806055B77737D193
SavePackageTransactionId34A0F9B44D6CBCAB8AFDF68343845AF9_6, Filename=../../../../../../Users/tomokazu/Documents/KCG/tokkan/tokkan/projectfile/tokkan/Content/TopDownBP/Blueprints/enemy2.uasset, AutoPackageBackupDelegate=13.659231, FlushAsyncLoading=0.013817, FlushStreamingFunc=0.106581, BlockTillAllRequestsFinished=0.008289, ResetLoadersForSaveUnMarkAllObjects=0.166185, TagPackageExports=9.778924, BeginCacheForCookedPlatformData=0.006709, SerializeImports=11.523683, GatherLocalizableTextData=8.689836, MarkNames=0.099868, SerializeSummary=0.021316, SerializeNames=0.400662, SerializeGatherableTextData=0.103027, BuildExportMap=0.263292, SortExportsNonSeekfree=1.274228, SortExportsSeekfreeConstructor=0.087630, SortExportsSeekfreeInner=21.813009, SortExportsSeekfree=0.026446, BuildDependencyMap=0.123557, SerializeImportMap=0.029605, SerializeExportMap=0.061184, SerializeDependencyMap=0.015788, SerializeStringAssetReferenceMap=0.003159, SaveThumbNailsAssetRegistryDataWorldLevelInfo=9.094838, SerializeExports=13.927262, SerializeBulkData=0.013422, MoveFile=8.155354, UnaccountedTime=2.677530, RunGuid=RunID684E7456405D5868806055B77737D193
SavePackageTransactionId34A0F9B44D6CBCAB8AFDF68343845AF9_7, Filename=../../../../../../Users/tomokazu/Documents/KCG/tokkan/tokkan/projectfile/tokkan/Content/TopDownBP/Blueprints/SpawnEnemy.uasset, AutoPackageBackupDelegate=11.343677, FlushAsyncLoading=0.014607, FlushStreamingFunc=0.072632, BlockTillAllRequestsFinished=0.009868, ResetLoadersForSaveUnMarkAllObjects=0.785142, TagPackageExports=2.625816, BeginCacheForCookedPlatformData=0.005133, SerializeImports=3.924519, GatherLocalizableTextData=3.255036, MarkNames=0.058815, SerializeSummary=0.021316, SerializeNames=0.199344, SerializeGatherableTextData=0.129476, BuildExportMap=0.120793, SortExportsNonSeekfree=0.263683, SortExportsSeekfreeConstructor=0.076186, SortExportsSeekfreeInner=5.089793, SortExportsSeekfree=0.007503, BuildDependencyMap=0.036314, SerializeImportMap=0.024866, SerializeExportMap=0.022106, SerializeDependencyMap=0.004735, SerializeStringAssetReferenceMap=0.002369, SaveThumbNailsAssetRegistryDataWorldLevelInfo=0.575926, SerializeExports=3.414512, SerializeBulkData=0.007503, MoveFile=5.994540, UnaccountedTime=2.587136, RunGuid=RunID684E7456405D5868806055B77737D193
SavePackageTransactionId34A0F9B44D6CBCAB8AFDF68343845AF9_8, Filename=../../../../../../Users/tomokazu/Documents/KCG/tokkan/tokkan/projectfile/tokkan/Saved/Autosaves/Game/TopDownBP/Maps/TopDownExampleMap_Auto1.umap, AutoPackageBackupDelegate=61.655823, FlushAsyncLoading=0.014208, FlushStreamingFunc=0.065133, BlockTillAllRequestsFinished=0.008684, ResetLoadersForSaveUnMarkAllObjects=68.462349, TagPackageExports=2.251208, BeginCacheForCookedPlatformData=0.003554, SerializeImports=4.186232, GatherLocalizableTextData=22.576437, MarkNames=0.109736, SerializeSummary=0.020135, SerializeNames=0.643034, SerializeGatherableTextData=0.074603, BuildExportMap=0.431851, SortExportsNonSeekfree=1.016062, SortExportsSeekfreeConstructor=0.089608, SortExportsSeekfreeInner=30.898766, SortExportsSeekfree=0.007894, BuildDependencyMap=0.200529, SerializeImportMap=0.072636, SerializeExportMap=0.082500, SerializeDependencyMap=0.020526, SerializeStringAssetReferenceMap=0.002369, SaveThumbNailsAssetRegistryDataWorldLevelInfo=1.594361, SerializeExports=10.162611, SerializeBulkData=388.072113, MoveFile=6.592177, UnaccountedTime=0.348952, RunGuid=RunID684E7456405D5868806055B77737D193
SavePackageTransactionId34A0F9B44D6CBCAB8AFDF68343845AF9_9, Filename=../../../../../../Users/tomokazu/Documents/KCG/tokkan/tokkan/projectfile/tokkan/Content/TopDownBP/Maps/TopDownExampleMap.umap, AutoPackageBackupDelegate=24.446323, FlushAsyncLoading=0.015002, FlushStreamingFunc=0.069473, BlockTillAllRequestsFinished=0.009868, ResetLoadersForSaveUnMarkAllObjects=71.119347, TagPackageExports=2.330553, BeginCacheForCookedPlatformData=0.003554, SerializeImports=4.089125, GatherLocalizableTextData=21.888401, MarkNames=0.113688, SerializeSummary=0.022892, SerializeNames=0.621323, SerializeGatherableTextData=0.067897, BuildExportMap=0.438161, SortExportsNonSeekfree=0.998698, SortExportsSeekfreeConstructor=0.076182, SortExportsSeekfreeInner=31.062584, SortExportsSeekfree=0.007108, BuildDependencyMap=0.154343, SerializeImportMap=0.071052, SerializeExportMap=0.066712, SerializeDependencyMap=0.019342, SerializeStringAssetReferenceMap=0.002764, SaveThumbNailsAssetRegistryDataWorldLevelInfo=1.733307, SerializeExports=46.039463, SerializeBulkData=383.101929, MoveFile=6.235726, UnaccountedTime=2.696872, RunGuid=RunID684E7456405D5868806055B77737D193
