CookerStat, GenerateAssetRegistry=0.049736, Initialize=0.264477, RunGuid=RunIDDEB2D4AD4830358B428CF9B3FCEBA7B1
SavePackageTransactionIdA75A897F41D58E90233868A7D68571C3_0, Filename=../../../../../../Users/tomokazu/Documents/KCG/tokkan/tokkan/projectfile/tokkan/Content/TopDownBP/Blueprints/TopDownController.uasset, AutoPackageBackupDelegate=16.650106, FlushAsyncLoading=0.016186, FlushStreamingFunc=0.078157, BlockTillAllRequestsFinished=0.009868, ResetLoadersForSaveUnMarkAllObjects=0.196584, TagPackageExports=51.574673, BeginCacheForCookedPlatformData=0.007104, SerializeImports=52.451000, GatherLocalizableTextData=34.803776, MarkNames=1.329090, SerializeSummary=0.065524, SerializeNames=0.691190, SerializeGatherableTextData=0.309475, BuildExportMap=0.670269, SortExportsNonSeekfree=8.992557, SortExportsSeekfreeConstructor=0.101052, SortExportsSeekfreeInner=58.234322, SortExportsSeekfree=0.009868, BuildDependencyMap=0.381716, SerializeImportMap=0.048947, SerializeExportMap=0.229739, SerializeDependencyMap=0.048950, SerializeStringAssetReferenceMap=0.003155, SaveThumbNailsAssetRegistryDataWorldLevelInfo=5.869381, SerializeExports=72.681389, SerializeBulkData=0.046581, MoveFile=6.501358, UnaccountedTime=2.988569, RunGuid=RunIDDEB2D4AD4830358B428CF9B3FCEBA7B1
SavePackageTransactionIdA75A897F41D58E90233868A7D68571C3_1, Filename=../../../../../../Users/tomokazu/Documents/KCG/tokkan/tokkan/projectfile/tokkan/Content/TopDownBP/Blueprints/TopDownController.uasset, AutoPackageBackupDelegate=7.062677, FlushAsyncLoading=0.006314, FlushStreamingFunc=0.064738, BlockTillAllRequestsFinished=0.007104, ResetLoadersForSaveUnMarkAllObjects=0.142895, TagPackageExports=49.843346, BeginCacheForCookedPlatformData=0.006713, SerializeImports=54.119164, GatherLocalizableTextData=36.282471, MarkNames=1.008559, SerializeSummary=0.035133, SerializeNames=0.588160, SerializeGatherableTextData=0.327632, BuildExportMap=0.565268, SortExportsNonSeekfree=8.507423, SortExportsSeekfreeConstructor=0.078555, SortExportsSeekfreeInner=57.131817, SortExportsSeekfree=0.008289, BuildDependencyMap=0.371449, SerializeImportMap=0.036318, SerializeExportMap=0.251841, SerializeDependencyMap=0.048157, SerializeStringAssetReferenceMap=0.002369, SaveThumbNailsAssetRegistryDataWorldLevelInfo=6.191093, SerializeExports=69.587029, SerializeBulkData=0.011843, MoveFile=5.363721, UnaccountedTime=2.719753, RunGuid=RunIDDEB2D4AD4830358B428CF9B3FCEBA7B1
SavePackageTransactionIdA75A897F41D58E90233868A7D68571C3_2, Filename=../../../../../../Users/tomokazu/Documents/KCG/tokkan/tokkan/projectfile/tokkan/Content/TopDownBP/Blueprints/TopDownController.uasset, AutoPackageBackupDelegate=7.233992, FlushAsyncLoading=0.005923, FlushStreamingFunc=0.067893, BlockTillAllRequestsFinished=0.006318, ResetLoadersForSaveUnMarkAllObjects=0.128288, TagPackageExports=52.398891, BeginCacheForCookedPlatformData=0.008684, SerializeImports=53.392056, GatherLocalizableTextData=36.546154, MarkNames=0.895664, SerializeSummary=0.023291, SerializeNames=0.551056, SerializeGatherableTextData=0.339080, BuildExportMap=0.556979, SortExportsNonSeekfree=8.803475, SortExportsSeekfreeConstructor=0.084870, SortExportsSeekfreeInner=59.735123, SortExportsSeekfree=0.009079, BuildDependencyMap=0.397108, SerializeImportMap=0.035528, SerializeExportMap=0.248685, SerializeDependencyMap=0.047766, SerializeStringAssetReferenceMap=0.002764, SaveThumbNailsAssetRegistryDataWorldLevelInfo=25.091608, SerializeExports=68.381104, SerializeBulkData=0.013024, MoveFile=6.179646, UnaccountedTime=2.633702, RunGuid=RunIDDEB2D4AD4830358B428CF9B3FCEBA7B1
SavePackageTransactionIdA75A897F41D58E90233868A7D68571C3_3, Filename=../../../../../../Users/tomokazu/Documents/KCG/tokkan/tokkan/projectfile/tokkan/Content/TopDownBP/Blueprints/TopDownController.uasset, AutoPackageBackupDelegate=7.044517, FlushAsyncLoading=0.005923, FlushStreamingFunc=0.127498, BlockTillAllRequestsFinished=0.006318, ResetLoadersForSaveUnMarkAllObjects=0.123158, TagPackageExports=51.816254, BeginCacheForCookedPlatformData=0.007499, SerializeImports=51.484280, GatherLocalizableTextData=36.035362, MarkNames=0.946980, SerializeSummary=0.026055, SerializeNames=0.573557, SerializeGatherableTextData=0.289343, BuildExportMap=0.571188, SortExportsNonSeekfree=9.546772, SortExportsSeekfreeConstructor=0.080921, SortExportsSeekfreeInner=57.815113, SortExportsSeekfree=0.008684, BuildDependencyMap=0.410527, SerializeImportMap=0.035919, SerializeExportMap=0.247896, SerializeDependencyMap=0.045396, SerializeStringAssetReferenceMap=0.003159, SaveThumbNailsAssetRegistryDataWorldLevelInfo=5.748589, SerializeExports=68.178200, SerializeBulkData=0.012632, MoveFile=5.887933, UnaccountedTime=2.679493, RunGuid=RunIDDEB2D4AD4830358B428CF9B3FCEBA7B1
SavePackageTransactionIdA75A897F41D58E90233868A7D68571C3_4, Filename=../../../../../../Users/tomokazu/Documents/KCG/tokkan/tokkan/projectfile/tokkan/Content/TopDownBP/Blueprints/TopDownController.uasset, AutoPackageBackupDelegate=8.157681, FlushAsyncLoading=0.006318, FlushStreamingFunc=0.123158, BlockTillAllRequestsFinished=0.016578, ResetLoadersForSaveUnMarkAllObjects=0.122372, TagPackageExports=50.854671, BeginCacheForCookedPlatformData=0.007499, SerializeImports=51.353622, GatherLocalizableTextData=35.889309, MarkNames=0.971451, SerializeSummary=0.024475, SerializeNames=0.602767, SerializeGatherableTextData=0.321712, BuildExportMap=0.565663, SortExportsNonSeekfree=8.510977, SortExportsSeekfreeConstructor=0.144079, SortExportsSeekfreeInner=55.013248, SortExportsSeekfree=0.008687, BuildDependencyMap=0.365525, SerializeImportMap=0.041842, SerializeExportMap=0.249475, SerializeDependencyMap=0.046186, SerializeStringAssetReferenceMap=0.002760, SaveThumbNailsAssetRegistryDataWorldLevelInfo=5.599774, SerializeExports=67.734520, SerializeBulkData=0.013813, MoveFile=6.342281, UnaccountedTime=2.590671, RunGuid=RunIDDEB2D4AD4830358B428CF9B3FCEBA7B1
SavePackageTransactionIdA75A897F41D58E90233868A7D68571C3_5, Filename=../../../../../../Users/tomokazu/Documents/KCG/tokkan/tokkan/projectfile/tokkan/Content/TopDownBP/Blueprints/TopDownController.uasset, AutoPackageBackupDelegate=8.191630, FlushAsyncLoading=0.005923, FlushStreamingFunc=0.092369, BlockTillAllRequestsFinished=0.007104, ResetLoadersForSaveUnMarkAllObjects=0.129476, TagPackageExports=47.740177, BeginCacheForCookedPlatformData=0.007499, SerializeImports=50.808487, GatherLocalizableTextData=36.922344, MarkNames=1.075666, SerializeSummary=0.024080, SerializeNames=0.534870, SerializeGatherableTextData=0.306714, BuildExportMap=0.551056, SortExportsNonSeekfree=8.737556, SortExportsSeekfreeConstructor=0.085261, SortExportsSeekfreeInner=58.875778, SortExportsSeekfree=0.010263, BuildDependencyMap=0.366714, SerializeImportMap=0.036709, SerializeExportMap=0.241581, SerializeDependencyMap=0.048157, SerializeStringAssetReferenceMap=0.003159, SaveThumbNailsAssetRegistryDataWorldLevelInfo=5.889118, SerializeExports=72.363625, SerializeBulkData=0.012632, MoveFile=6.380569, UnaccountedTime=2.777386, RunGuid=RunIDDEB2D4AD4830358B428CF9B3FCEBA7B1
SavePackageTransactionIdA75A897F41D58E90233868A7D68571C3_6, Filename=../../../../../../Users/tomokazu/Documents/KCG/tokkan/tokkan/projectfile/tokkan/Content/TopDownBP/Blueprints/TopDownController.uasset, AutoPackageBackupDelegate=14.171143, FlushAsyncLoading=0.014607, FlushStreamingFunc=0.073027, BlockTillAllRequestsFinished=0.008684, ResetLoadersForSaveUnMarkAllObjects=0.170920, TagPackageExports=50.969536, BeginCacheForCookedPlatformData=0.007503, SerializeImports=52.891918, GatherLocalizableTextData=36.878136, MarkNames=0.918951, SerializeSummary=0.025265, SerializeNames=0.539608, SerializeGatherableTextData=0.290923, BuildExportMap=0.553030, SortExportsNonSeekfree=9.667955, SortExportsSeekfreeConstructor=0.090789, SortExportsSeekfreeInner=58.800777, SortExportsSeekfree=0.008289, BuildDependencyMap=0.372238, SerializeImportMap=0.037104, SerializeExportMap=0.242766, SerializeDependencyMap=0.044607, SerializeStringAssetReferenceMap=0.002369, SaveThumbNailsAssetRegistryDataWorldLevelInfo=6.246355, SerializeExports=69.568871, SerializeBulkData=0.012632, MoveFile=5.849250, UnaccountedTime=2.781332, RunGuid=RunIDDEB2D4AD4830358B428CF9B3FCEBA7B1
SavePackageTransactionIdA75A897F41D58E90233868A7D68571C3_7, Filename=../../../../../../Users/tomokazu/Documents/KCG/tokkan/tokkan/projectfile/tokkan/Content/TopDownBP/Blueprints/TopDownController.uasset, AutoPackageBackupDelegate=9.200193, FlushAsyncLoading=0.005525, FlushStreamingFunc=0.118818, BlockTillAllRequestsFinished=0.006709, ResetLoadersForSaveUnMarkAllObjects=0.119608, TagPackageExports=50.658482, BeginCacheForCookedPlatformData=0.007108, SerializeImports=52.985077, GatherLocalizableTextData=39.407230, MarkNames=0.999086, SerializeSummary=0.024077, SerializeNames=0.546716, SerializeGatherableTextData=0.305921, BuildExportMap=0.556979, SortExportsNonSeekfree=9.181242, SortExportsSeekfreeConstructor=0.078157, SortExportsSeekfreeInner=60.009865, SortExportsSeekfree=0.008289, BuildDependencyMap=0.406977, SerializeImportMap=0.037499, SerializeExportMap=0.254609, SerializeDependencyMap=0.085264, SerializeStringAssetReferenceMap=0.003554, SaveThumbNailsAssetRegistryDataWorldLevelInfo=6.022144, SerializeExports=73.210732, SerializeBulkData=0.012632, MoveFile=6.543990, UnaccountedTime=2.784491, RunGuid=RunIDDEB2D4AD4830358B428CF9B3FCEBA7B1
