CookerStat, GenerateAssetRegistry=0.061579, Initialize=0.494212, RunGuid=RunID0AB9CE5448F5415031239BA2EC4434DA
SavePackageTransactionId6FDCB9E246DACD92BA4ADAAF11EE1A7A_0, Filename=../../../../../../Users/tomokazu/Documents/KCG/tokkan/tokkan/projectfile/tokkan/Saved/Autosaves/Game/TopDownBP/Maps/TopDownExampleMap_Auto1.umap, AutoPackageBackupDelegate=26.501957, FlushAsyncLoading=0.016976, FlushStreamingFunc=0.122368, BlockTillAllRequestsFinished=0.011053, ResetLoadersForSaveUnMarkAllObjects=68.413330, TagPackageExports=2.509747, BeginCacheForCookedPlatformData=0.003949, SerializeImports=4.098568, GatherLocalizableTextData=15.143357, MarkNames=0.105396, SerializeSummary=0.024870, SerializeNames=0.644606, SerializeGatherableTextData=0.039477, BuildExportMap=0.402633, SortExportsNonSeekfree=0.864476, SortExportsSeekfreeConstructor=0.075791, SortExportsSeekfreeInner=27.672756, SortExportsSeekfree=0.008684, BuildDependencyMap=1.287635, SerializeImportMap=0.073817, SerializeExportMap=0.058420, SerializeDependencyMap=0.061974, SerializeStringAssetReferenceMap=0.007499, SaveThumbNailsAssetRegistryDataWorldLevelInfo=1.953956, SerializeExports=9.738993, SerializeBulkData=376.532074, MoveFile=5.528316, UnaccountedTime=0.296842, RunGuid=RunID0AB9CE5448F5415031239BA2EC4434DA
SavePackageTransactionId6FDCB9E246DACD92BA4ADAAF11EE1A7A_1, Filename=../../../../../../Users/tomokazu/Documents/KCG/tokkan/tokkan/projectfile/tokkan/Saved/Autosaves/Game/TopDownBP/Blueprints/TopDownController_Auto2.uasset, AutoPackageBackupDelegate=22.481152, FlushAsyncLoading=0.014212, FlushStreamingFunc=0.065133, BlockTillAllRequestsFinished=0.007499, ResetLoadersForSaveUnMarkAllObjects=0.252239, TagPackageExports=14.402829, BeginCacheForCookedPlatformData=0.007499, SerializeImports=11.974398, GatherLocalizableTextData=23.315235, MarkNames=0.138946, SerializeSummary=0.027239, SerializeNames=0.521842, SerializeGatherableTextData=0.104606, BuildExportMap=0.412896, SortExportsNonSeekfree=3.473699, SortExportsSeekfreeConstructor=0.343423, SortExportsSeekfreeInner=20.577330, SortExportsSeekfree=0.007894, BuildDependencyMap=0.098288, SerializeImportMap=0.036713, SerializeExportMap=0.091579, SerializeDependencyMap=0.015393, SerializeStringAssetReferenceMap=0.003949, SaveThumbNailsAssetRegistryDataWorldLevelInfo=4.881337, SerializeExports=20.564302, SerializeBulkData=0.037104, MoveFile=10.549389, UnaccountedTime=0.347763, RunGuid=RunID0AB9CE5448F5415031239BA2EC4434DA
SavePackageTransactionId6FDCB9E246DACD92BA4ADAAF11EE1A7A_2, Filename=../../../../../../Users/tomokazu/Documents/KCG/tokkan/tokkan/projectfile/tokkan/Content/TopDownBP/Maps/TopDownExampleMap.umap, AutoPackageBackupDelegate=15.304804, FlushAsyncLoading=0.014607, FlushStreamingFunc=0.067499, BlockTillAllRequestsFinished=0.009473, ResetLoadersForSaveUnMarkAllObjects=72.305061, TagPackageExports=2.841331, BeginCacheForCookedPlatformData=0.005919, SerializeImports=4.125018, GatherLocalizableTextData=15.317436, MarkNames=0.786714, SerializeSummary=0.025660, SerializeNames=0.738159, SerializeGatherableTextData=0.041842, BuildExportMap=0.414871, SortExportsNonSeekfree=0.947770, SortExportsSeekfreeConstructor=0.107761, SortExportsSeekfreeInner=33.289886, SortExportsSeekfree=0.007499, BuildDependencyMap=0.213161, SerializeImportMap=0.065133, SerializeExportMap=0.056840, SerializeDependencyMap=0.017371, SerializeStringAssetReferenceMap=0.002760, SaveThumbNailsAssetRegistryDataWorldLevelInfo=1.458559, SerializeExports=9.242412, SerializeBulkData=372.561005, MoveFile=5.961739, UnaccountedTime=4.875023, RunGuid=RunID0AB9CE5448F5415031239BA2EC4434DA
SavePackageTransactionId6FDCB9E246DACD92BA4ADAAF11EE1A7A_3, Filename=../../../../../../Users/tomokazu/Documents/KCG/tokkan/tokkan/projectfile/tokkan/Content/TopDownBP/Blueprints/TopDownController.uasset, AutoPackageBackupDelegate=9.649779, FlushAsyncLoading=0.013422, FlushStreamingFunc=0.076972, BlockTillAllRequestsFinished=0.008292, ResetLoadersForSaveUnMarkAllObjects=1.530007, TagPackageExports=16.025599, BeginCacheForCookedPlatformData=0.007499, SerializeImports=18.770218, GatherLocalizableTextData=13.087955, MarkNames=0.142895, SerializeSummary=0.023287, SerializeNames=0.492636, SerializeGatherableTextData=0.102237, BuildExportMap=0.352107, SortExportsNonSeekfree=2.270535, SortExportsSeekfreeConstructor=0.024475, SortExportsSeekfreeInner=20.608910, SortExportsSeekfree=0.009079, BuildDependencyMap=0.109736, SerializeImportMap=0.033945, SerializeExportMap=0.091184, SerializeDependencyMap=0.021316, SerializeStringAssetReferenceMap=0.004739, SaveThumbNailsAssetRegistryDataWorldLevelInfo=1.970138, SerializeExports=16.698629, SerializeBulkData=0.014212, MoveFile=6.562926, UnaccountedTime=2.433564, RunGuid=RunID0AB9CE5448F5415031239BA2EC4434DA
SavePackageTransactionId6FDCB9E246DACD92BA4ADAAF11EE1A7A_4, Filename=../../../../../../Users/tomokazu/Documents/KCG/tokkan/tokkan/projectfile/tokkan/Content/TopDownBP/Maps/TopDownExampleMap.umap, AutoPackageBackupDelegate=14.643617, FlushAsyncLoading=0.014607, FlushStreamingFunc=0.063159, BlockTillAllRequestsFinished=0.008289, ResetLoadersForSaveUnMarkAllObjects=73.380325, TagPackageExports=4.172783, BeginCacheForCookedPlatformData=0.004340, SerializeImports=6.282661, GatherLocalizableTextData=16.243099, MarkNames=1.096584, SerializeSummary=0.038289, SerializeNames=0.956059, SerializeGatherableTextData=0.067893, BuildExportMap=0.580266, SortExportsNonSeekfree=1.304217, SortExportsSeekfreeConstructor=0.079341, SortExportsSeekfreeInner=30.238953, SortExportsSeekfree=0.007499, BuildDependencyMap=0.161447, SerializeImportMap=0.069473, SerializeExportMap=0.069477, SerializeDependencyMap=0.033554, SerializeStringAssetReferenceMap=0.003155, SaveThumbNailsAssetRegistryDataWorldLevelInfo=1.953561, SerializeExports=11.480581, SerializeBulkData=356.547241, MoveFile=6.128710, UnaccountedTime=2.280802, RunGuid=RunID0AB9CE5448F5415031239BA2EC4434DA
SavePackageTransactionId6FDCB9E246DACD92BA4ADAAF11EE1A7A_5, Filename=../../../../../../Users/tomokazu/Documents/KCG/tokkan/tokkan/projectfile/tokkan/Content/TopDownBP/Maps/TopDownExampleMap.umap, AutoPackageBackupDelegate=15.462700, FlushAsyncLoading=0.015002, FlushStreamingFunc=0.066318, BlockTillAllRequestsFinished=0.009868, ResetLoadersForSaveUnMarkAllObjects=84.620903, TagPackageExports=4.242648, BeginCacheForCookedPlatformData=0.004739, SerializeImports=6.788321, GatherLocalizableTextData=18.862583, MarkNames=0.124343, SerializeSummary=0.020921, SerializeNames=0.694346, SerializeGatherableTextData=0.061579, BuildExportMap=0.447635, SortExportsNonSeekfree=1.242638, SortExportsSeekfreeConstructor=0.071447, SortExportsSeekfreeInner=30.619871, SortExportsSeekfree=0.008687, BuildDependencyMap=0.188287, SerializeImportMap=0.068687, SerializeExportMap=0.065133, SerializeDependencyMap=0.013817, SerializeStringAssetReferenceMap=0.001974, SaveThumbNailsAssetRegistryDataWorldLevelInfo=1.753427, SerializeExports=12.609530, SerializeBulkData=362.247681, MoveFile=6.279893, UnaccountedTime=2.807777, RunGuid=RunID0AB9CE5448F5415031239BA2EC4434DA
SavePackageTransactionId6FDCB9E246DACD92BA4ADAAF11EE1A7A_6, Filename=../../../../../../Users/tomokazu/Documents/KCG/tokkan/tokkan/projectfile/tokkan/Content/TopDownBP/Maps/TopDownExampleMap.umap, AutoPackageBackupDelegate=16.586918, FlushAsyncLoading=0.014603, FlushStreamingFunc=0.060003, BlockTillAllRequestsFinished=0.007499, ResetLoadersForSaveUnMarkAllObjects=68.198593, TagPackageExports=1.658693, BeginCacheForCookedPlatformData=0.002764, SerializeImports=3.246725, GatherLocalizableTextData=16.259678, MarkNames=0.821847, SerializeSummary=0.024866, SerializeNames=0.656057, SerializeGatherableTextData=0.055261, BuildExportMap=0.398293, SortExportsNonSeekfree=0.780396, SortExportsSeekfreeConstructor=0.075791, SortExportsSeekfreeInner=25.978933, SortExportsSeekfree=0.007894, BuildDependencyMap=0.154343, SerializeImportMap=0.057634, SerializeExportMap=0.056840, SerializeDependencyMap=0.015002, SerializeStringAssetReferenceMap=0.002764, SaveThumbNailsAssetRegistryDataWorldLevelInfo=1.280531, SerializeExports=8.375957, SerializeBulkData=356.984222, MoveFile=5.910818, UnaccountedTime=2.238166, RunGuid=RunID0AB9CE5448F5415031239BA2EC4434DA
SavePackageTransactionId6FDCB9E246DACD92BA4ADAAF11EE1A7A_7, Filename=../../../../../../Users/tomokazu/Documents/KCG/tokkan/tokkan/projectfile/tokkan/Content/TopDownBP/Blueprints/TopDownController.uasset, AutoPackageBackupDelegate=7.937006, FlushAsyncLoading=0.014607, FlushStreamingFunc=0.069473, BlockTillAllRequestsFinished=0.007108, ResetLoadersForSaveUnMarkAllObjects=0.170130, TagPackageExports=13.821770, BeginCacheForCookedPlatformData=0.008687, SerializeImports=16.537178, GatherLocalizableTextData=9.918596, MarkNames=0.103027, SerializeSummary=0.019737, SerializeNames=0.354476, SerializeGatherableTextData=0.083685, BuildExportMap=0.221446, SortExportsNonSeekfree=1.482245, SortExportsSeekfreeConstructor=0.013422, SortExportsSeekfreeInner=14.580064, SortExportsSeekfree=0.009079, BuildDependencyMap=0.112895, SerializeImportMap=0.031184, SerializeExportMap=0.086449, SerializeDependencyMap=0.012238, SerializeStringAssetReferenceMap=0.001974, SaveThumbNailsAssetRegistryDataWorldLevelInfo=1.538295, SerializeExports=12.469396, SerializeBulkData=0.013027, MoveFile=6.017789, UnaccountedTime=2.418168, RunGuid=RunID0AB9CE5448F5415031239BA2EC4434DA
SavePackageTransactionId6FDCB9E246DACD92BA4ADAAF11EE1A7A_8, Filename=../../../../../../Users/tomokazu/Documents/KCG/tokkan/tokkan/projectfile/tokkan/Content/TopDownBP/Blueprints/TopDownController.uasset, AutoPackageBackupDelegate=7.618454, FlushAsyncLoading=0.015792, FlushStreamingFunc=0.068683, BlockTillAllRequestsFinished=0.008684, ResetLoadersForSaveUnMarkAllObjects=0.167370, TagPackageExports=8.200694, BeginCacheForCookedPlatformData=0.008687, SerializeImports=9.147275, GatherLocalizableTextData=9.652544, MarkNames=0.125922, SerializeSummary=0.024866, SerializeNames=0.363555, SerializeGatherableTextData=0.121973, BuildExportMap=0.225794, SortExportsNonSeekfree=1.080792, SortExportsSeekfreeConstructor=0.078160, SortExportsSeekfreeInner=14.474668, SortExportsSeekfree=0.007503, BuildDependencyMap=0.091579, SerializeImportMap=0.022106, SerializeExportMap=0.050131, SerializeDependencyMap=0.009868, SerializeStringAssetReferenceMap=0.002369, SaveThumbNailsAssetRegistryDataWorldLevelInfo=1.471586, SerializeExports=10.275833, SerializeBulkData=0.013422, MoveFile=5.169496, UnaccountedTime=3.311463, RunGuid=RunID0AB9CE5448F5415031239BA2EC4434DA
SavePackageTransactionId6FDCB9E246DACD92BA4ADAAF11EE1A7A_9, Filename=../../../../../../Users/tomokazu/Documents/KCG/tokkan/tokkan/projectfile/tokkan/Content/TopDownBP/Blueprints/TopDownController.uasset, AutoPackageBackupDelegate=2.673168, FlushAsyncLoading=0.005923, FlushStreamingFunc=0.087235, BlockTillAllRequestsFinished=0.015397, ResetLoadersForSaveUnMarkAllObjects=0.114474, TagPackageExports=5.578842, BeginCacheForCookedPlatformData=0.006318, SerializeImports=6.982528, GatherLocalizableTextData=7.116743, MarkNames=0.050530, SerializeSummary=0.017367, SerializeNames=0.351712, SerializeGatherableTextData=0.102237, BuildExportMap=0.197370, SortExportsNonSeekfree=0.888951, SortExportsSeekfreeConstructor=0.087239, SortExportsSeekfreeInner=10.146756, SortExportsSeekfree=0.005919, BuildDependencyMap=0.069473, SerializeImportMap=0.018556, SerializeExportMap=0.042628, SerializeDependencyMap=0.011053, SerializeStringAssetReferenceMap=0.002366, SaveThumbNailsAssetRegistryDataWorldLevelInfo=1.057506, SerializeExports=8.470301, SerializeBulkData=0.009473, MoveFile=5.914766, UnaccountedTime=2.433166, RunGuid=RunID0AB9CE5448F5415031239BA2EC4434DA
