CookerStat, GenerateAssetRegistry=0.026844, Initialize=0.150397, RunGuid=RunID1FDBAEB140BE570E68324E9E88EC8AC0
SavePackageTransactionIdD34C70FA48E340DE4E9F79B4A3C25C82_0, Filename=../../../../../../Users/tomokazu/Documents/KCG/tokkan/tokkan/projectfile/tokkan/Content/TopDownBP/Blueprints/TopDownController.uasset, AutoPackageBackupDelegate=170.497833, FlushAsyncLoading=0.016581, FlushStreamingFunc=0.065524, BlockTillAllRequestsFinished=0.007898, ResetLoadersForSaveUnMarkAllObjects=0.176448, TagPackageExports=13.402652, BeginCacheForCookedPlatformData=0.007894, SerializeImports=17.221376, GatherLocalizableTextData=13.211596, MarkNames=0.130262, SerializeSummary=0.028815, SerializeNames=0.503298, SerializeGatherableTextData=0.142105, BuildExportMap=0.318162, SortExportsNonSeekfree=1.812257, SortExportsSeekfreeConstructor=0.133421, SortExportsSeekfreeInner=21.318794, SortExportsSeekfree=0.011448, BuildDependencyMap=0.150789, SerializeImportMap=0.040263, SerializeExportMap=0.080526, SerializeDependencyMap=0.015397, SerializeStringAssetReferenceMap=0.004344, SaveThumbNailsAssetRegistryDataWorldLevelInfo=2.094101, SerializeExports=16.142942, SerializeBulkData=0.038292, MoveFile=6.294545, UnaccountedTime=2.585556, RunGuid=RunID1FDBAEB140BE570E68324E9E88EC8AC0
SavePackageTransactionIdD34C70FA48E340DE4E9F79B4A3C25C82_1, Filename=../../../../../../Users/tomokazu/Documents/KCG/tokkan/tokkan/projectfile/tokkan/Content/TopDownBP/Blueprints/stone.uasset, AutoPackageBackupDelegate=13.521861, FlushAsyncLoading=0.020131, FlushStreamingFunc=0.057630, BlockTillAllRequestsFinished=0.007898, ResetLoadersForSaveUnMarkAllObjects=0.161842, TagPackageExports=2.150550, BeginCacheForCookedPlatformData=0.005130, SerializeImports=3.399119, GatherLocalizableTextData=2.448183, MarkNames=0.041842, SerializeSummary=0.020921, SerializeNames=0.151977, SerializeGatherableTextData=0.012238, BuildExportMap=0.102632, SortExportsNonSeekfree=0.118423, SortExportsSeekfreeConstructor=0.015393, SortExportsSeekfreeInner=9.036418, SortExportsSeekfree=0.009473, BuildDependencyMap=0.039473, SerializeImportMap=0.018947, SerializeExportMap=0.019737, SerializeDependencyMap=0.004344, SerializeStringAssetReferenceMap=0.003945, SaveThumbNailsAssetRegistryDataWorldLevelInfo=10.622095, SerializeExports=3.407799, SerializeBulkData=0.013422, MoveFile=7.674560, UnaccountedTime=2.685029, RunGuid=RunID1FDBAEB140BE570E68324E9E88EC8AC0
SavePackageTransactionIdD34C70FA48E340DE4E9F79B4A3C25C82_2, Filename=../../../../../../Users/tomokazu/Documents/KCG/tokkan/tokkan/projectfile/tokkan/Content/TopDownBP/Blueprints/TopDownController.uasset, AutoPackageBackupDelegate=4.680842, FlushAsyncLoading=0.006314, FlushStreamingFunc=0.063948, BlockTillAllRequestsFinished=0.006709, ResetLoadersForSaveUnMarkAllObjects=0.134606, TagPackageExports=8.239433, BeginCacheForCookedPlatformData=0.006318, SerializeImports=9.876427, GatherLocalizableTextData=7.344555, MarkNames=0.067897, SerializeSummary=0.018157, SerializeNames=0.399083, SerializeGatherableTextData=0.082895, BuildExportMap=0.201318, SortExportsNonSeekfree=1.635019, SortExportsSeekfreeConstructor=0.084475, SortExportsSeekfreeInner=14.198053, SortExportsSeekfree=0.006709, BuildDependencyMap=0.080924, SerializeImportMap=0.022896, SerializeExportMap=0.054870, SerializeDependencyMap=0.009868, SerializeStringAssetReferenceMap=0.002366, SaveThumbNailsAssetRegistryDataWorldLevelInfo=1.312122, SerializeExports=12.645141, SerializeBulkData=0.012632, MoveFile=6.788365, UnaccountedTime=2.766345, RunGuid=RunID1FDBAEB140BE570E68324E9E88EC8AC0
SavePackageTransactionIdD34C70FA48E340DE4E9F79B4A3C25C82_3, Filename=../../../../../../Users/tomokazu/Documents/KCG/tokkan/tokkan/projectfile/tokkan/Content/TopDownBP/Blueprints/TopDownController.uasset, AutoPackageBackupDelegate=4.250575, FlushAsyncLoading=0.005133, FlushStreamingFunc=0.185922, BlockTillAllRequestsFinished=0.005919, ResetLoadersForSaveUnMarkAllObjects=0.146847, TagPackageExports=8.583650, BeginCacheForCookedPlatformData=0.006709, SerializeImports=9.363659, GatherLocalizableTextData=7.170476, MarkNames=0.058815, SerializeSummary=0.015397, SerializeNames=0.368688, SerializeGatherableTextData=0.076972, BuildExportMap=0.210002, SortExportsNonSeekfree=1.678441, SortExportsSeekfreeConstructor=0.071842, SortExportsSeekfreeInner=12.682248, SortExportsSeekfree=0.007499, BuildDependencyMap=0.139344, SerializeImportMap=0.022106, SerializeExportMap=0.054870, SerializeDependencyMap=0.010263, SerializeStringAssetReferenceMap=0.002369, SaveThumbNailsAssetRegistryDataWorldLevelInfo=1.402911, SerializeExports=12.230266, SerializeBulkData=0.011843, MoveFile=6.896525, UnaccountedTime=2.366472, RunGuid=RunID1FDBAEB140BE570E68324E9E88EC8AC0
SavePackageTransactionIdD34C70FA48E340DE4E9F79B4A3C25C82_4, Filename=../../../../../../Users/tomokazu/Documents/KCG/tokkan/tokkan/projectfile/tokkan/Content/TopDownBP/Blueprints/enemy2.uasset, AutoPackageBackupDelegate=9.392079, FlushAsyncLoading=0.015002, FlushStreamingFunc=0.055265, BlockTillAllRequestsFinished=0.007499, ResetLoadersForSaveUnMarkAllObjects=0.398293, TagPackageExports=4.340574, BeginCacheForCookedPlatformData=0.005525, SerializeImports=5.570985, GatherLocalizableTextData=5.888354, MarkNames=0.052106, SerializeSummary=0.018552, SerializeNames=0.308294, SerializeGatherableTextData=0.024870, BuildExportMap=0.195000, SortExportsNonSeekfree=0.409741, SortExportsSeekfreeConstructor=0.075001, SortExportsSeekfreeInner=17.200455, SortExportsSeekfree=0.009872, BuildDependencyMap=0.090789, SerializeImportMap=0.027239, SerializeExportMap=0.040263, SerializeDependencyMap=0.009868, SerializeStringAssetReferenceMap=0.003159, SaveThumbNailsAssetRegistryDataWorldLevelInfo=8.183774, SerializeExports=7.162582, SerializeBulkData=0.015393, MoveFile=7.166132, UnaccountedTime=2.711084, RunGuid=RunID1FDBAEB140BE570E68324E9E88EC8AC0
SavePackageTransactionIdD34C70FA48E340DE4E9F79B4A3C25C82_5, Filename=../../../../../../Users/tomokazu/Documents/KCG/tokkan/tokkan/projectfile/tokkan/Content/TopDownBP/Blueprints/TopDownController.uasset, AutoPackageBackupDelegate=6.134674, FlushAsyncLoading=0.009079, FlushStreamingFunc=0.063553, BlockTillAllRequestsFinished=0.005923, ResetLoadersForSaveUnMarkAllObjects=0.120394, TagPackageExports=12.501060, BeginCacheForCookedPlatformData=0.008292, SerializeImports=10.963145, GatherLocalizableTextData=13.349756, MarkNames=0.065133, SerializeSummary=0.016183, SerializeNames=0.305925, SerializeGatherableTextData=0.105001, BuildExportMap=0.194609, SortExportsNonSeekfree=1.725413, SortExportsSeekfreeConstructor=0.028025, SortExportsSeekfreeInner=16.775322, SortExportsSeekfree=0.008684, BuildDependencyMap=0.078950, SerializeImportMap=0.028815, SerializeExportMap=0.066318, SerializeDependencyMap=0.013817, SerializeStringAssetReferenceMap=0.003550, SaveThumbNailsAssetRegistryDataWorldLevelInfo=1.481071, SerializeExports=15.901361, SerializeBulkData=0.013817, MoveFile=7.381663, UnaccountedTime=3.109377, RunGuid=RunID1FDBAEB140BE570E68324E9E88EC8AC0
SavePackageTransactionIdD34C70FA48E340DE4E9F79B4A3C25C82_6, Filename=../../../../../../Users/tomokazu/Documents/KCG/tokkan/tokkan/projectfile/tokkan/Content/TopDownBP/Blueprints/stone.uasset, AutoPackageBackupDelegate=5.051505, FlushAsyncLoading=0.007104, FlushStreamingFunc=0.055660, BlockTillAllRequestsFinished=0.006709, ResetLoadersForSaveUnMarkAllObjects=0.138160, TagPackageExports=1.564357, BeginCacheForCookedPlatformData=0.005528, SerializeImports=2.289105, GatherLocalizableTextData=1.745544, MarkNames=0.022106, SerializeSummary=0.014607, SerializeNames=0.097498, SerializeGatherableTextData=0.007898, BuildExportMap=0.063945, SortExportsNonSeekfree=0.090003, SortExportsSeekfreeConstructor=0.014998, SortExportsSeekfreeInner=6.069940, SortExportsSeekfree=0.010263, BuildDependencyMap=0.041842, SerializeImportMap=0.018947, SerializeExportMap=0.019737, SerializeDependencyMap=0.004340, SerializeStringAssetReferenceMap=0.003554, SaveThumbNailsAssetRegistryDataWorldLevelInfo=9.844847, SerializeExports=3.500566, SerializeBulkData=0.012632, MoveFile=6.016645, UnaccountedTime=2.669241, RunGuid=RunID1FDBAEB140BE570E68324E9E88EC8AC0
SavePackageTransactionIdD34C70FA48E340DE4E9F79B4A3C25C82_7, Filename=../../../../../../Users/tomokazu/Documents/KCG/tokkan/tokkan/projectfile/tokkan/Content/TopDownBP/Blueprints/TopDownController.uasset, AutoPackageBackupDelegate=8.876547, FlushAsyncLoading=0.015002, FlushStreamingFunc=0.070658, BlockTillAllRequestsFinished=0.007499, ResetLoadersForSaveUnMarkAllObjects=0.154346, TagPackageExports=9.074311, BeginCacheForCookedPlatformData=0.006314, SerializeImports=11.314470, GatherLocalizableTextData=9.062864, MarkNames=0.061184, SerializeSummary=0.016578, SerializeNames=0.278689, SerializeGatherableTextData=0.109740, BuildExportMap=0.265658, SortExportsNonSeekfree=1.331069, SortExportsSeekfreeConstructor=0.073422, SortExportsSeekfreeInner=15.399646, SortExportsSeekfree=0.008289, BuildDependencyMap=0.078160, SerializeImportMap=0.030000, SerializeExportMap=0.069868, SerializeDependencyMap=0.008289, SerializeStringAssetReferenceMap=0.001974, SaveThumbNailsAssetRegistryDataWorldLevelInfo=1.107641, SerializeExports=16.236500, SerializeBulkData=0.014212, MoveFile=7.783905, UnaccountedTime=2.609633, RunGuid=RunID1FDBAEB140BE570E68324E9E88EC8AC0
SavePackageTransactionIdD34C70FA48E340DE4E9F79B4A3C25C82_8, Filename=../../../../../../Users/tomokazu/Documents/KCG/tokkan/tokkan/projectfile/tokkan/Saved/Autosaves/Game/TopDownBP/Blueprints/TopDownController_Auto1.uasset, AutoPackageBackupDelegate=5.618352, FlushAsyncLoading=0.008289, FlushStreamingFunc=0.070658, BlockTillAllRequestsFinished=0.008289, ResetLoadersForSaveUnMarkAllObjects=0.166975, TagPackageExports=7.139687, BeginCacheForCookedPlatformData=0.007104, SerializeImports=8.478649, GatherLocalizableTextData=7.923640, MarkNames=0.121582, SerializeSummary=0.022106, SerializeNames=0.295267, SerializeGatherableTextData=0.100262, BuildExportMap=0.155922, SortExportsNonSeekfree=0.883039, SortExportsSeekfreeConstructor=0.073813, SortExportsSeekfreeInner=11.115127, SortExportsSeekfree=0.006709, BuildDependencyMap=0.064343, SerializeImportMap=0.018951, SerializeExportMap=0.044998, SerializeDependencyMap=0.013027, SerializeStringAssetReferenceMap=0.002764, SaveThumbNailsAssetRegistryDataWorldLevelInfo=1.099750, SerializeExports=9.390499, SerializeBulkData=0.013418, MoveFile=38.592670, UnaccountedTime=0.273556, RunGuid=RunID1FDBAEB140BE570E68324E9E88EC8AC0
SavePackageTransactionIdD34C70FA48E340DE4E9F79B4A3C25C82_9, Filename=../../../../../../Users/tomokazu/Documents/KCG/tokkan/tokkan/projectfile/tokkan/Content/TopDownBP/Blueprints/TopDownController.uasset, AutoPackageBackupDelegate=4.519392, FlushAsyncLoading=0.005923, FlushStreamingFunc=0.099473, BlockTillAllRequestsFinished=0.007503, ResetLoadersForSaveUnMarkAllObjects=0.144869, TagPackageExports=7.386397, BeginCacheForCookedPlatformData=0.006709, SerializeImports=9.295366, GatherLocalizableTextData=8.076802, MarkNames=0.049341, SerializeSummary=0.016186, SerializeNames=0.353292, SerializeGatherableTextData=0.084475, BuildExportMap=0.164215, SortExportsNonSeekfree=1.110010, SortExportsSeekfreeConstructor=0.069477, SortExportsSeekfreeInner=11.408810, SortExportsSeekfree=0.007898, BuildDependencyMap=0.076577, SerializeImportMap=0.020526, SerializeExportMap=0.047367, SerializeDependencyMap=0.007894, SerializeStringAssetReferenceMap=0.001580, SaveThumbNailsAssetRegistryDataWorldLevelInfo=1.003429, SerializeExports=10.218669, SerializeBulkData=0.011053, MoveFile=6.693628, UnaccountedTime=2.465949, RunGuid=RunID1FDBAEB140BE570E68324E9E88EC8AC0
SavePackageTransactionIdD34C70FA48E340DE4E9F79B4A3C25C82_10, Filename=../../../../../../Users/tomokazu/Documents/KCG/tokkan/tokkan/projectfile/tokkan/Content/TopDownBP/Blueprints/TopDownController.uasset, AutoPackageBackupDelegate=9.671163, FlushAsyncLoading=0.014208, FlushStreamingFunc=0.073817, BlockTillAllRequestsFinished=0.007108, ResetLoadersForSaveUnMarkAllObjects=0.163026, TagPackageExports=9.271681, BeginCacheForCookedPlatformData=0.008684, SerializeImports=9.184446, GatherLocalizableTextData=11.764474, MarkNames=0.096317, SerializeSummary=0.024077, SerializeNames=0.342242, SerializeGatherableTextData=0.150792, BuildExportMap=0.259344, SortExportsNonSeekfree=1.091853, SortExportsSeekfreeConstructor=0.084475, SortExportsSeekfreeInner=12.308825, SortExportsSeekfree=0.007894, BuildDependencyMap=0.063553, SerializeImportMap=0.019342, SerializeExportMap=0.039868, SerializeDependencyMap=0.008289, SerializeStringAssetReferenceMap=0.002764, SaveThumbNailsAssetRegistryDataWorldLevelInfo=0.904746, SerializeExports=10.674987, SerializeBulkData=0.013817, MoveFile=7.058762, UnaccountedTime=2.562661, RunGuid=RunID1FDBAEB140BE570E68324E9E88EC8AC0
SavePackageTransactionIdD34C70FA48E340DE4E9F79B4A3C25C82_11, Filename=../../../../../../Users/tomokazu/Documents/KCG/tokkan/tokkan/projectfile/tokkan/Content/TopDownBP/Blueprints/TopDownController.uasset, AutoPackageBackupDelegate=4.489787, FlushAsyncLoading=0.005133, FlushStreamingFunc=0.101842, BlockTillAllRequestsFinished=0.008289, ResetLoadersForSaveUnMarkAllObjects=0.146057, TagPackageExports=9.272471, BeginCacheForCookedPlatformData=0.007499, SerializeImports=10.124326, GatherLocalizableTextData=10.938279, MarkNames=0.056844, SerializeSummary=0.018157, SerializeNames=0.294477, SerializeGatherableTextData=0.167370, BuildExportMap=0.235267, SortExportsNonSeekfree=1.347646, SortExportsSeekfreeConstructor=0.077371, SortExportsSeekfreeInner=12.945146, SortExportsSeekfree=0.008289, BuildDependencyMap=0.079736, SerializeImportMap=0.019345, SerializeExportMap=0.045788, SerializeDependencyMap=0.008687, SerializeStringAssetReferenceMap=0.002366, SaveThumbNailsAssetRegistryDataWorldLevelInfo=1.246199, SerializeExports=12.400009, SerializeBulkData=0.013024, MoveFile=6.581128, UnaccountedTime=2.541345, RunGuid=RunID1FDBAEB140BE570E68324E9E88EC8AC0
SavePackageTransactionIdD34C70FA48E340DE4E9F79B4A3C25C82_12, Filename=../../../../../../Users/tomokazu/Documents/KCG/tokkan/tokkan/projectfile/tokkan/Content/TopDownBP/Blueprints/TopDownController.uasset, AutoPackageBackupDelegate=11.977237, FlushAsyncLoading=0.013422, FlushStreamingFunc=0.069868, BlockTillAllRequestsFinished=0.008684, ResetLoadersForSaveUnMarkAllObjects=0.165399, TagPackageExports=14.281347, BeginCacheForCookedPlatformData=0.008289, SerializeImports=11.381968, GatherLocalizableTextData=14.117524, MarkNames=0.066712, SerializeSummary=0.019342, SerializeNames=0.309873, SerializeGatherableTextData=0.153948, BuildExportMap=0.171319, SortExportsNonSeekfree=1.164883, SortExportsSeekfreeConstructor=0.077367, SortExportsSeekfreeInner=16.207289, SortExportsSeekfree=0.011444, BuildDependencyMap=0.127897, SerializeImportMap=0.024080, SerializeExportMap=0.046972, SerializeDependencyMap=0.011448, SerializeStringAssetReferenceMap=0.003949, SaveThumbNailsAssetRegistryDataWorldLevelInfo=1.475148, SerializeExports=16.118862, SerializeBulkData=0.016186, MoveFile=8.853652, UnaccountedTime=2.672400, RunGuid=RunID1FDBAEB140BE570E68324E9E88EC8AC0
SavePackageTransactionIdD34C70FA48E340DE4E9F79B4A3C25C82_13, Filename=../../../../../../Users/tomokazu/Documents/KCG/tokkan/tokkan/projectfile/tokkan/Content/TopDownBP/Blueprints/TopDownController.uasset, AutoPackageBackupDelegate=4.542287, FlushAsyncLoading=0.005923, FlushStreamingFunc=0.060000, BlockTillAllRequestsFinished=0.006314, ResetLoadersForSaveUnMarkAllObjects=0.147238, TagPackageExports=8.944836, BeginCacheForCookedPlatformData=0.007898, SerializeImports=13.265278, GatherLocalizableTextData=13.987262, MarkNames=0.124343, SerializeSummary=0.022501, SerializeNames=0.503689, SerializeGatherableTextData=0.148818, BuildExportMap=0.373822, SortExportsNonSeekfree=2.322655, SortExportsSeekfreeConstructor=0.099082, SortExportsSeekfreeInner=14.400162, SortExportsSeekfree=0.007894, BuildDependencyMap=0.093948, SerializeImportMap=0.031579, SerializeExportMap=0.074212, SerializeDependencyMap=0.013817, SerializeStringAssetReferenceMap=0.002764, SaveThumbNailsAssetRegistryDataWorldLevelInfo=1.636989, SerializeExports=13.156727, SerializeBulkData=0.014212, MoveFile=20.948128, UnaccountedTime=2.491213, RunGuid=RunID1FDBAEB140BE570E68324E9E88EC8AC0
SavePackageTransactionIdD34C70FA48E340DE4E9F79B4A3C25C82_14, Filename=../../../../../../Users/tomokazu/Documents/KCG/tokkan/tokkan/projectfile/tokkan/Content/TopDownBP/Blueprints/TopDownController.uasset, AutoPackageBackupDelegate=4.677683, FlushAsyncLoading=0.005528, FlushStreamingFunc=0.125133, BlockTillAllRequestsFinished=0.006709, ResetLoadersForSaveUnMarkAllObjects=0.123158, TagPackageExports=9.276420, BeginCacheForCookedPlatformData=0.007104, SerializeImports=9.529844, GatherLocalizableTextData=12.425270, MarkNames=0.078555, SerializeSummary=0.019737, SerializeNames=0.397503, SerializeGatherableTextData=0.184741, BuildExportMap=0.308294, SortExportsNonSeekfree=1.435671, SortExportsSeekfreeConstructor=0.093158, SortExportsSeekfreeInner=13.405416, SortExportsSeekfree=0.008289, BuildDependencyMap=0.093948, SerializeImportMap=0.024475, SerializeExportMap=0.056844, SerializeDependencyMap=0.014607, SerializeStringAssetReferenceMap=0.002764, SaveThumbNailsAssetRegistryDataWorldLevelInfo=1.396988, SerializeExports=12.139477, SerializeBulkData=0.011843, MoveFile=7.140078, UnaccountedTime=2.474237, RunGuid=RunID1FDBAEB140BE570E68324E9E88EC8AC0
SavePackageTransactionIdD34C70FA48E340DE4E9F79B4A3C25C82_15, Filename=../../../../../../Users/tomokazu/Documents/KCG/tokkan/tokkan/projectfile/tokkan/Saved/Autosaves/Game/TopDownBP/Maps/TopDownExampleMap_Auto2.umap, AutoPackageBackupDelegate=29.444538, FlushAsyncLoading=0.015397, FlushStreamingFunc=0.062764, BlockTillAllRequestsFinished=0.006314, ResetLoadersForSaveUnMarkAllObjects=122.196892, TagPackageExports=3.233720, BeginCacheForCookedPlatformData=0.006713, SerializeImports=5.310059, GatherLocalizableTextData=27.245436, MarkNames=0.163820, SerializeSummary=0.041448, SerializeNames=1.257643, SerializeGatherableTextData=0.072632, BuildExportMap=0.740930, SortExportsNonSeekfree=1.578569, SortExportsSeekfreeConstructor=0.129476, SortExportsSeekfreeInner=37.700554, SortExportsSeekfree=0.019342, BuildDependencyMap=0.256188, SerializeImportMap=0.073027, SerializeExportMap=0.057239, SerializeDependencyMap=0.019342, SerializeStringAssetReferenceMap=0.004344, SaveThumbNailsAssetRegistryDataWorldLevelInfo=2.060547, SerializeExports=13.174094, SerializeBulkData=382.327026, MoveFile=7.922061, UnaccountedTime=0.380136, RunGuid=RunID1FDBAEB140BE570E68324E9E88EC8AC0
SavePackageTransactionIdD34C70FA48E340DE4E9F79B4A3C25C82_16, Filename=../../../../../../Users/tomokazu/Documents/KCG/tokkan/tokkan/projectfile/tokkan/Content/TopDownBP/Maps/TopDownExampleMap.umap, AutoPackageBackupDelegate=4.367814, FlushAsyncLoading=0.003945, FlushStreamingFunc=0.077765, BlockTillAllRequestsFinished=0.006709, ResetLoadersForSaveUnMarkAllObjects=69.344986, TagPackageExports=2.224367, BeginCacheForCookedPlatformData=0.003949, SerializeImports=3.757145, GatherLocalizableTextData=20.207201, MarkNames=0.866063, SerializeSummary=0.024475, SerializeNames=0.661980, SerializeGatherableTextData=0.046182, BuildExportMap=0.460271, SortExportsNonSeekfree=0.807244, SortExportsSeekfreeConstructor=0.077765, SortExportsSeekfreeInner=29.499804, SortExportsSeekfree=0.007499, BuildDependencyMap=0.140924, SerializeImportMap=0.072632, SerializeExportMap=0.056446, SerializeDependencyMap=0.013418, SerializeStringAssetReferenceMap=0.002369, SaveThumbNailsAssetRegistryDataWorldLevelInfo=1.475938, SerializeExports=8.892734, SerializeBulkData=324.672302, MoveFile=6.140992, UnaccountedTime=2.703186, RunGuid=RunID1FDBAEB140BE570E68324E9E88EC8AC0
SavePackageTransactionIdD34C70FA48E340DE4E9F79B4A3C25C82_17, Filename=../../../../../../Users/tomokazu/Documents/KCG/tokkan/tokkan/projectfile/tokkan/Content/TopDownBP/Blueprints/stone.uasset, AutoPackageBackupDelegate=9.709057, FlushAsyncLoading=0.014603, FlushStreamingFunc=0.056844, BlockTillAllRequestsFinished=0.006709, ResetLoadersForSaveUnMarkAllObjects=0.164215, TagPackageExports=2.366472, BeginCacheForCookedPlatformData=0.007108, SerializeImports=2.927005, GatherLocalizableTextData=2.827533, MarkNames=0.044212, SerializeSummary=0.020131, SerializeNames=0.159867, SerializeGatherableTextData=0.013422, BuildExportMap=0.105001, SortExportsNonSeekfree=0.116844, SortExportsSeekfreeConstructor=0.015397, SortExportsSeekfreeInner=8.641675, SortExportsSeekfree=0.011843, BuildDependencyMap=0.039868, SerializeImportMap=0.015792, SerializeExportMap=0.017762, SerializeDependencyMap=0.004344, SerializeStringAssetReferenceMap=0.003550, SaveThumbNailsAssetRegistryDataWorldLevelInfo=10.308668, SerializeExports=2.797928, SerializeBulkData=0.009473, MoveFile=8.663386, UnaccountedTime=2.660949, RunGuid=RunID1FDBAEB140BE570E68324E9E88EC8AC0
SavePackageTransactionIdD34C70FA48E340DE4E9F79B4A3C25C82_18, Filename=../../../../../../Users/tomokazu/Documents/KCG/tokkan/tokkan/projectfile/tokkan/Content/TopDownBP/Blueprints/TopDownController.uasset, AutoPackageBackupDelegate=9.644319, FlushAsyncLoading=0.014212, FlushStreamingFunc=0.067893, BlockTillAllRequestsFinished=0.009082, ResetLoadersForSaveUnMarkAllObjects=0.164211, TagPackageExports=12.317904, BeginCacheForCookedPlatformData=0.007104, SerializeImports=12.842119, GatherLocalizableTextData=8.188117, MarkNames=0.091184, SerializeSummary=0.019737, SerializeNames=0.378557, SerializeGatherableTextData=0.085659, BuildExportMap=0.253819, SortExportsNonSeekfree=1.646861, SortExportsSeekfreeConstructor=0.074212, SortExportsSeekfreeInner=14.359899, SortExportsSeekfree=0.008684, BuildDependencyMap=0.097498, SerializeImportMap=0.036713, SerializeExportMap=0.075787, SerializeDependencyMap=0.012238, SerializeStringAssetReferenceMap=0.002760, SaveThumbNailsAssetRegistryDataWorldLevelInfo=1.607783, SerializeExports=15.613992, SerializeBulkData=0.015393, MoveFile=6.392837, UnaccountedTime=2.720952, RunGuid=RunID1FDBAEB140BE570E68324E9E88EC8AC0
SavePackageTransactionIdD34C70FA48E340DE4E9F79B4A3C25C82_19, Filename=../../../../../../Users/tomokazu/Documents/KCG/tokkan/tokkan/projectfile/tokkan/Content/TopDownBP/Maps/TopDownExampleMap.umap, AutoPackageBackupDelegate=20.988789, FlushAsyncLoading=0.015393, FlushStreamingFunc=0.067502, BlockTillAllRequestsFinished=0.009868, ResetLoadersForSaveUnMarkAllObjects=77.992188, TagPackageExports=2.455685, BeginCacheForCookedPlatformData=0.005130, SerializeImports=3.742147, GatherLocalizableTextData=22.897362, MarkNames=0.113685, SerializeSummary=0.020131, SerializeNames=0.611849, SerializeGatherableTextData=0.058025, BuildExportMap=0.516322, SortExportsNonSeekfree=0.817906, SortExportsSeekfreeConstructor=0.078157, SortExportsSeekfreeInner=29.215593, SortExportsSeekfree=0.007104, BuildDependencyMap=0.170134, SerializeImportMap=0.070266, SerializeExportMap=0.056840, SerializeDependencyMap=0.033554, SerializeStringAssetReferenceMap=0.003554, SaveThumbNailsAssetRegistryDataWorldLevelInfo=1.479093, SerializeExports=8.936941, SerializeBulkData=321.101868, MoveFile=6.421257, UnaccountedTime=2.675556, RunGuid=RunID1FDBAEB140BE570E68324E9E88EC8AC0
SavePackageTransactionIdD34C70FA48E340DE4E9F79B4A3C25C82_20, Filename=../../../../../../Users/tomokazu/Documents/KCG/tokkan/tokkan/projectfile/tokkan/Content/TopDownBP/Blueprints/TopDownController.uasset, AutoPackageBackupDelegate=7.357977, FlushAsyncLoading=0.007503, FlushStreamingFunc=0.079736, BlockTillAllRequestsFinished=0.007104, ResetLoadersForSaveUnMarkAllObjects=0.163030, TagPackageExports=10.585379, BeginCacheForCookedPlatformData=0.008289, SerializeImports=12.810934, GatherLocalizableTextData=13.588968, MarkNames=0.108946, SerializeSummary=0.022896, SerializeNames=0.443690, SerializeGatherableTextData=0.121582, BuildExportMap=0.313029, SortExportsNonSeekfree=1.537517, SortExportsSeekfreeConstructor=0.023291, SortExportsSeekfreeInner=18.582840, SortExportsSeekfree=0.010658, BuildDependencyMap=0.116449, SerializeImportMap=0.028420, SerializeExportMap=0.059213, SerializeDependencyMap=0.012632, SerializeStringAssetReferenceMap=0.004340, SaveThumbNailsAssetRegistryDataWorldLevelInfo=1.785811, SerializeExports=16.426365, SerializeBulkData=0.013817, MoveFile=8.198380, UnaccountedTime=2.736740, RunGuid=RunID1FDBAEB140BE570E68324E9E88EC8AC0
SavePackageTransactionIdD34C70FA48E340DE4E9F79B4A3C25C82_21, Filename=../../../../../../Users/tomokazu/Documents/KCG/tokkan/tokkan/projectfile/tokkan/Content/TopDownBP/Blueprints/TopDownController.uasset, AutoPackageBackupDelegate=11.086706, FlushAsyncLoading=0.015393, FlushStreamingFunc=0.074606, BlockTillAllRequestsFinished=0.007894, ResetLoadersForSaveUnMarkAllObjects=0.166185, TagPackageExports=10.334328, BeginCacheForCookedPlatformData=0.008684, SerializeImports=9.890240, GatherLocalizableTextData=7.133767, MarkNames=0.114080, SerializeSummary=0.026051, SerializeNames=0.461452, SerializeGatherableTextData=0.095528, BuildExportMap=0.276715, SortExportsNonSeekfree=1.614492, SortExportsSeekfreeConstructor=0.097897, SortExportsSeekfreeInner=16.297680, SortExportsSeekfree=0.009082, BuildDependencyMap=0.085264, SerializeImportMap=0.030000, SerializeExportMap=0.061974, SerializeDependencyMap=0.020526, SerializeStringAssetReferenceMap=0.004344, SaveThumbNailsAssetRegistryDataWorldLevelInfo=1.594357, SerializeExports=13.418835, SerializeBulkData=0.015397, MoveFile=6.309543, UnaccountedTime=5.984280, RunGuid=RunID1FDBAEB140BE570E68324E9E88EC8AC0
SavePackageTransactionIdD34C70FA48E340DE4E9F79B4A3C25C82_22, Filename=../../../../../../Users/tomokazu/Documents/KCG/tokkan/tokkan/projectfile/tokkan/Content/TopDownBP/Blueprints/TopDownController.uasset, AutoPackageBackupDelegate=11.271838, FlushAsyncLoading=0.014208, FlushStreamingFunc=0.067502, BlockTillAllRequestsFinished=0.007499, ResetLoadersForSaveUnMarkAllObjects=0.159476, TagPackageExports=12.371980, BeginCacheForCookedPlatformData=0.008684, SerializeImports=13.365544, GatherLocalizableTextData=8.714307, MarkNames=0.086449, SerializeSummary=0.020526, SerializeNames=0.356846, SerializeGatherableTextData=0.068292, BuildExportMap=0.210792, SortExportsNonSeekfree=1.980417, SortExportsSeekfreeConstructor=0.079341, SortExportsSeekfreeInner=13.461467, SortExportsSeekfree=0.008289, BuildDependencyMap=0.093948, SerializeImportMap=0.031974, SerializeExportMap=0.086054, SerializeDependencyMap=0.016578, SerializeStringAssetReferenceMap=0.003159, SaveThumbNailsAssetRegistryDataWorldLevelInfo=1.389884, SerializeExports=15.698462, SerializeBulkData=0.016186, MoveFile=6.560992, UnaccountedTime=2.671611, RunGuid=RunID1FDBAEB140BE570E68324E9E88EC8AC0
SavePackageTransactionIdD34C70FA48E340DE4E9F79B4A3C25C82_23, Filename=../../../../../../Users/tomokazu/Documents/KCG/tokkan/tokkan/projectfile/tokkan/Content/TopDownBP/Blueprints/TopDownController.uasset, AutoPackageBackupDelegate=11.391837, FlushAsyncLoading=0.014607, FlushStreamingFunc=0.066318, BlockTillAllRequestsFinished=0.007894, ResetLoadersForSaveUnMarkAllObjects=0.166185, TagPackageExports=10.685645, BeginCacheForCookedPlatformData=0.007503, SerializeImports=13.735808, GatherLocalizableTextData=10.485120, MarkNames=0.127498, SerializeSummary=0.022896, SerializeNames=0.438955, SerializeGatherableTextData=0.097498, BuildExportMap=0.320137, SortExportsNonSeekfree=1.705281, SortExportsSeekfreeConstructor=0.105396, SortExportsSeekfreeInner=15.497543, SortExportsSeekfree=0.009079, BuildDependencyMap=0.097107, SerializeImportMap=0.034735, SerializeExportMap=0.079740, SerializeDependencyMap=0.011448, SerializeStringAssetReferenceMap=0.002366, SaveThumbNailsAssetRegistryDataWorldLevelInfo=1.733705, SerializeExports=19.054159, SerializeBulkData=0.015397, MoveFile=7.633902, UnaccountedTime=3.556617, RunGuid=RunID1FDBAEB140BE570E68324E9E88EC8AC0
SavePackageTransactionIdD34C70FA48E340DE4E9F79B4A3C25C82_24, Filename=../../../../../../Users/tomokazu/Documents/KCG/tokkan/tokkan/projectfile/tokkan/Content/TopDownBP/Blueprints/TopDownController.uasset, AutoPackageBackupDelegate=4.785843, FlushAsyncLoading=0.004739, FlushStreamingFunc=0.091579, BlockTillAllRequestsFinished=0.006713, ResetLoadersForSaveUnMarkAllObjects=0.129078, TagPackageExports=6.979421, BeginCacheForCookedPlatformData=0.004739, SerializeImports=8.487332, GatherLocalizableTextData=6.019801, MarkNames=0.040267, SerializeSummary=0.015393, SerializeNames=0.148028, SerializeGatherableTextData=0.263687, BuildExportMap=0.145264, SortExportsNonSeekfree=0.911854, SortExportsSeekfreeConstructor=0.063948, SortExportsSeekfreeInner=11.276968, SortExportsSeekfree=0.007894, BuildDependencyMap=0.065528, SerializeImportMap=0.017371, SerializeExportMap=0.039868, SerializeDependencyMap=0.064339, SerializeStringAssetReferenceMap=0.002764, SaveThumbNailsAssetRegistryDataWorldLevelInfo=0.926062, SerializeExports=9.864979, SerializeBulkData=0.011053, MoveFile=5.857959, UnaccountedTime=2.683058, RunGuid=RunID1FDBAEB140BE570E68324E9E88EC8AC0
SavePackageTransactionIdD34C70FA48E340DE4E9F79B4A3C25C82_25, Filename=../../../../../../Users/tomokazu/Documents/KCG/tokkan/tokkan/projectfile/tokkan/Saved/Autosaves/Game/TopDownBP/Blueprints/TopDownController_Auto3.uasset, AutoPackageBackupDelegate=6.474942, FlushAsyncLoading=0.007104, FlushStreamingFunc=0.063553, BlockTillAllRequestsFinished=0.007104, ResetLoadersForSaveUnMarkAllObjects=0.134215, TagPackageExports=6.660074, BeginCacheForCookedPlatformData=0.007108, SerializeImports=7.562451, GatherLocalizableTextData=7.465743, MarkNames=0.069473, SerializeSummary=0.018947, SerializeNames=0.369873, SerializeGatherableTextData=0.066318, BuildExportMap=0.269607, SortExportsNonSeekfree=0.966329, SortExportsSeekfreeConstructor=0.073027, SortExportsSeekfreeInner=10.973807, SortExportsSeekfree=0.009079, BuildDependencyMap=0.092763, SerializeImportMap=0.031974, SerializeExportMap=0.058029, SerializeDependencyMap=0.013422, SerializeStringAssetReferenceMap=0.002764, SaveThumbNailsAssetRegistryDataWorldLevelInfo=1.595937, SerializeExports=15.345171, SerializeBulkData=0.014212, MoveFile=7.784691, UnaccountedTime=0.300005, RunGuid=RunID1FDBAEB140BE570E68324E9E88EC8AC0
SavePackageTransactionIdD34C70FA48E340DE4E9F79B4A3C25C82_26, Filename=../../../../../../Users/tomokazu/Documents/KCG/tokkan/tokkan/projectfile/tokkan/Content/TopDownBP/Maps/TopDownExampleMap.umap, AutoPackageBackupDelegate=65.121651, FlushAsyncLoading=0.014603, FlushStreamingFunc=0.062764, BlockTillAllRequestsFinished=0.010658, ResetLoadersForSaveUnMarkAllObjects=81.383408, TagPackageExports=3.307536, BeginCacheForCookedPlatformData=0.005130, SerializeImports=5.232297, GatherLocalizableTextData=21.373264, MarkNames=0.159081, SerializeSummary=0.022896, SerializeNames=0.675403, SerializeGatherableTextData=0.082500, BuildExportMap=0.555005, SortExportsNonSeekfree=0.926852, SortExportsSeekfreeConstructor=0.206847, SortExportsSeekfreeInner=31.586800, SortExportsSeekfree=0.007894, BuildDependencyMap=0.160661, SerializeImportMap=0.082895, SerializeExportMap=0.084475, SerializeDependencyMap=0.035528, SerializeStringAssetReferenceMap=0.003155, SaveThumbNailsAssetRegistryDataWorldLevelInfo=1.936208, SerializeExports=18.222046, SerializeBulkData=333.822815, MoveFile=6.013092, UnaccountedTime=2.557136, RunGuid=RunID1FDBAEB140BE570E68324E9E88EC8AC0
SavePackageTransactionIdD34C70FA48E340DE4E9F79B4A3C25C82_27, Filename=../../../../../../Users/tomokazu/Documents/KCG/tokkan/tokkan/projectfile/tokkan/Content/TopDownBP/Blueprints/TopDownController.uasset, AutoPackageBackupDelegate=14.105290, FlushAsyncLoading=0.014603, FlushStreamingFunc=0.072237, BlockTillAllRequestsFinished=0.007503, ResetLoadersForSaveUnMarkAllObjects=0.173289, TagPackageExports=11.061441, BeginCacheForCookedPlatformData=0.009079, SerializeImports=12.332111, GatherLocalizableTextData=15.291486, MarkNames=0.112895, SerializeSummary=0.023685, SerializeNames=0.681322, SerializeGatherableTextData=0.172898, BuildExportMap=0.304740, SortExportsNonSeekfree=1.405280, SortExportsSeekfreeConstructor=0.025656, SortExportsSeekfreeInner=18.344023, SortExportsSeekfree=0.010263, BuildDependencyMap=0.121184, SerializeImportMap=0.031974, SerializeExportMap=0.066318, SerializeDependencyMap=0.020921, SerializeStringAssetReferenceMap=0.004340, SaveThumbNailsAssetRegistryDataWorldLevelInfo=1.762521, SerializeExports=16.008732, SerializeBulkData=0.015002, MoveFile=7.537581, UnaccountedTime=3.219116, RunGuid=RunID1FDBAEB140BE570E68324E9E88EC8AC0
SavePackageTransactionIdD34C70FA48E340DE4E9F79B4A3C25C82_28, Filename=../../../../../../Users/tomokazu/Documents/KCG/tokkan/tokkan/projectfile/tokkan/Content/TopDownBP/Blueprints/stone.uasset, AutoPackageBackupDelegate=15.610043, FlushAsyncLoading=0.014603, FlushStreamingFunc=0.059608, BlockTillAllRequestsFinished=0.007499, ResetLoadersForSaveUnMarkAllObjects=0.148028, TagPackageExports=2.261475, BeginCacheForCookedPlatformData=0.006314, SerializeImports=2.615951, GatherLocalizableTextData=2.021469, MarkNames=0.031974, SerializeSummary=0.015393, SerializeNames=0.105396, SerializeGatherableTextData=0.007898, BuildExportMap=0.062764, SortExportsNonSeekfree=0.073027, SortExportsSeekfreeConstructor=0.009868, SortExportsSeekfreeInner=8.136012, SortExportsSeekfree=0.009079, BuildDependencyMap=0.028420, SerializeImportMap=0.018552, SerializeExportMap=0.020131, SerializeDependencyMap=0.004344, SerializeStringAssetReferenceMap=0.002764, SaveThumbNailsAssetRegistryDataWorldLevelInfo=9.906426, SerializeExports=3.453985, SerializeBulkData=0.013422, MoveFile=8.064960, UnaccountedTime=3.094770, RunGuid=RunID1FDBAEB140BE570E68324E9E88EC8AC0
SavePackageTransactionIdD34C70FA48E340DE4E9F79B4A3C25C82_29, Filename=../../../../../../Users/tomokazu/Documents/KCG/tokkan/tokkan/projectfile/tokkan/Content/TopDownBP/Maps/TopDownExampleMap.umap, AutoPackageBackupDelegate=4.807159, FlushAsyncLoading=0.003949, FlushStreamingFunc=0.136975, BlockTillAllRequestsFinished=0.005525, ResetLoadersForSaveUnMarkAllObjects=75.184395, TagPackageExports=3.031611, BeginCacheForCookedPlatformData=0.004739, SerializeImports=4.955977, GatherLocalizableTextData=21.330633, MarkNames=0.928037, SerializeSummary=0.026450, SerializeNames=0.706587, SerializeGatherableTextData=0.052106, BuildExportMap=0.519477, SortExportsNonSeekfree=1.029488, SortExportsSeekfreeConstructor=0.104211, SortExportsSeekfreeInner=31.601801, SortExportsSeekfree=0.007104, BuildDependencyMap=0.159081, SerializeImportMap=0.071447, SerializeExportMap=0.057634, SerializeDependencyMap=0.027236, SerializeStringAssetReferenceMap=0.002764, SaveThumbNailsAssetRegistryDataWorldLevelInfo=1.657914, SerializeExports=12.116186, SerializeBulkData=320.134369, MoveFile=6.650995, UnaccountedTime=2.513315, RunGuid=RunID1FDBAEB140BE570E68324E9E88EC8AC0
SavePackageTransactionIdD34C70FA48E340DE4E9F79B4A3C25C82_30, Filename=../../../../../../Users/tomokazu/Documents/KCG/tokkan/tokkan/projectfile/tokkan/Content/TopDownBP/Blueprints/stone.uasset, AutoPackageBackupDelegate=7.877853, FlushAsyncLoading=0.007499, FlushStreamingFunc=0.043027, BlockTillAllRequestsFinished=0.006318, ResetLoadersForSaveUnMarkAllObjects=0.140131, TagPackageExports=2.043970, BeginCacheForCookedPlatformData=0.005528, SerializeImports=3.107008, GatherLocalizableTextData=2.134364, MarkNames=0.041448, SerializeSummary=0.019740, SerializeNames=0.152368, SerializeGatherableTextData=0.011843, BuildExportMap=0.097502, SortExportsNonSeekfree=0.112895, SortExportsSeekfreeConstructor=0.014607, SortExportsSeekfreeInner=7.852588, SortExportsSeekfree=0.010263, BuildDependencyMap=0.037104, SerializeImportMap=0.018556, SerializeExportMap=0.019737, SerializeDependencyMap=0.005919, SerializeStringAssetReferenceMap=0.003159, SaveThumbNailsAssetRegistryDataWorldLevelInfo=8.667727, SerializeExports=2.525557, SerializeBulkData=0.013418, MoveFile=6.405070, UnaccountedTime=3.496617, RunGuid=RunID1FDBAEB140BE570E68324E9E88EC8AC0
SavePackageTransactionIdD34C70FA48E340DE4E9F79B4A3C25C82_31, Filename=../../../../../../Users/tomokazu/Documents/KCG/tokkan/tokkan/projectfile/tokkan/Content/TopDownBP/Maps/TopDownExampleMap.umap, AutoPackageBackupDelegate=21.549717, FlushAsyncLoading=0.014208, FlushStreamingFunc=0.058819, BlockTillAllRequestsFinished=0.009473, ResetLoadersForSaveUnMarkAllObjects=79.646545, TagPackageExports=2.686609, BeginCacheForCookedPlatformData=0.005919, SerializeImports=5.725328, GatherLocalizableTextData=23.063152, MarkNames=0.106975, SerializeSummary=0.020921, SerializeNames=0.618953, SerializeGatherableTextData=0.064343, BuildExportMap=0.456717, SortExportsNonSeekfree=0.818692, SortExportsSeekfreeConstructor=0.071447, SortExportsSeekfreeInner=30.119944, SortExportsSeekfree=0.006314, BuildDependencyMap=0.155922, SerializeImportMap=0.088818, SerializeExportMap=0.076186, SerializeDependencyMap=0.036314, SerializeStringAssetReferenceMap=0.003949, SaveThumbNailsAssetRegistryDataWorldLevelInfo=1.491725, SerializeExports=9.525109, SerializeBulkData=317.814484, MoveFile=6.463885, UnaccountedTime=3.473725, RunGuid=RunID1FDBAEB140BE570E68324E9E88EC8AC0
SavePackageTransactionIdD34C70FA48E340DE4E9F79B4A3C25C82_32, Filename=../../../../../../Users/tomokazu/Documents/KCG/tokkan/tokkan/projectfile/tokkan/Content/TopDownBP/Blueprints/TopDownController.uasset, AutoPackageBackupDelegate=13.514757, FlushAsyncLoading=0.014208, FlushStreamingFunc=0.073422, BlockTillAllRequestsFinished=0.007503, ResetLoadersForSaveUnMarkAllObjects=0.155922, TagPackageExports=9.379446, BeginCacheForCookedPlatformData=0.008289, SerializeImports=10.535646, GatherLocalizableTextData=9.667211, MarkNames=0.123557, SerializeSummary=0.021316, SerializeNames=0.475269, SerializeGatherableTextData=0.145264, BuildExportMap=0.342239, SortExportsNonSeekfree=1.361463, SortExportsSeekfreeConstructor=0.017766, SortExportsSeekfreeInner=14.888849, SortExportsSeekfree=0.011448, BuildDependencyMap=0.149608, SerializeImportMap=0.038292, SerializeExportMap=0.074606, SerializeDependencyMap=0.012629, SerializeStringAssetReferenceMap=0.003159, SaveThumbNailsAssetRegistryDataWorldLevelInfo=1.463305, SerializeExports=14.656745, SerializeBulkData=0.014998, MoveFile=7.202446, UnaccountedTime=3.734253, RunGuid=RunID1FDBAEB140BE570E68324E9E88EC8AC0
SavePackageTransactionIdD34C70FA48E340DE4E9F79B4A3C25C82_33, Filename=../../../../../../Users/tomokazu/Documents/KCG/tokkan/tokkan/projectfile/tokkan/Content/TopDownBP/Blueprints/stone.uasset, AutoPackageBackupDelegate=13.289362, FlushAsyncLoading=0.014603, FlushStreamingFunc=0.058424, BlockTillAllRequestsFinished=0.007894, ResetLoadersForSaveUnMarkAllObjects=0.155922, TagPackageExports=6.703101, BeginCacheForCookedPlatformData=0.008289, SerializeImports=5.531512, GatherLocalizableTextData=4.158992, MarkNames=0.046186, SerializeSummary=0.015393, SerializeNames=0.145659, SerializeGatherableTextData=0.124343, BuildExportMap=0.151187, SortExportsNonSeekfree=0.337899, SortExportsSeekfreeConstructor=0.010263, SortExportsSeekfreeInner=13.512388, SortExportsSeekfree=0.011053, BuildDependencyMap=0.088423, SerializeImportMap=0.031184, SerializeExportMap=0.037897, SerializeDependencyMap=0.008292, SerializeStringAssetReferenceMap=0.003550, SaveThumbNailsAssetRegistryDataWorldLevelInfo=10.745254, SerializeExports=8.559964, SerializeBulkData=0.013813, MoveFile=8.169565, UnaccountedTime=2.799898, RunGuid=RunID1FDBAEB140BE570E68324E9E88EC8AC0
SavePackageTransactionIdD34C70FA48E340DE4E9F79B4A3C25C82_34, Filename=../../../../../../Users/tomokazu/Documents/KCG/tokkan/tokkan/projectfile/tokkan/Content/TopDownBP/Maps/TopDownExampleMap.umap, AutoPackageBackupDelegate=5.227163, FlushAsyncLoading=0.005923, FlushStreamingFunc=0.057630, BlockTillAllRequestsFinished=0.006713, ResetLoadersForSaveUnMarkAllObjects=66.967850, TagPackageExports=2.045155, BeginCacheForCookedPlatformData=0.002366, SerializeImports=3.802150, GatherLocalizableTextData=20.514309, MarkNames=0.931192, SerializeSummary=0.027239, SerializeNames=0.845928, SerializeGatherableTextData=0.047371, BuildExportMap=0.534873, SortExportsNonSeekfree=0.874747, SortExportsSeekfreeConstructor=0.076186, SortExportsSeekfreeInner=32.931290, SortExportsSeekfree=0.009473, BuildDependencyMap=0.161447, SerializeImportMap=0.071052, SerializeExportMap=0.056054, SerializeDependencyMap=0.013817, SerializeStringAssetReferenceMap=0.002369, SaveThumbNailsAssetRegistryDataWorldLevelInfo=1.522515, SerializeExports=9.997219, SerializeBulkData=317.093689, MoveFile=6.035593, UnaccountedTime=2.597794, RunGuid=RunID1FDBAEB140BE570E68324E9E88EC8AC0
SavePackageTransactionIdD34C70FA48E340DE4E9F79B4A3C25C82_35, Filename=../../../../../../Users/tomokazu/Documents/KCG/tokkan/tokkan/projectfile/tokkan/Content/TopDownBP/Blueprints/stone.uasset, AutoPackageBackupDelegate=8.035749, FlushAsyncLoading=0.006709, FlushStreamingFunc=0.056844, BlockTillAllRequestsFinished=0.007894, ResetLoadersForSaveUnMarkAllObjects=0.161055, TagPackageExports=8.153382, BeginCacheForCookedPlatformData=0.008684, SerializeImports=8.484174, GatherLocalizableTextData=5.610064, MarkNames=0.070263, SerializeSummary=0.019737, SerializeNames=0.239216, SerializeGatherableTextData=0.177238, BuildExportMap=0.210397, SortExportsNonSeekfree=0.475664, SortExportsSeekfreeConstructor=0.016578, SortExportsSeekfreeInner=13.107780, SortExportsSeekfree=0.010658, BuildDependencyMap=0.082105, SerializeImportMap=0.044603, SerializeExportMap=0.052109, SerializeDependencyMap=0.026844, SerializeStringAssetReferenceMap=0.005130, SaveThumbNailsAssetRegistryDataWorldLevelInfo=9.740241, SerializeExports=11.196047, SerializeBulkData=0.014212, MoveFile=8.141141, UnaccountedTime=2.537791, RunGuid=RunID1FDBAEB140BE570E68324E9E88EC8AC0
SavePackageTransactionIdD34C70FA48E340DE4E9F79B4A3C25C82_36, Filename=../../../../../../Users/tomokazu/Documents/KCG/tokkan/tokkan/projectfile/tokkan/Content/TopDownBP/Maps/TopDownExampleMap.umap, AutoPackageBackupDelegate=22.501829, FlushAsyncLoading=0.013027, FlushStreamingFunc=0.062369, BlockTillAllRequestsFinished=0.008684, ResetLoadersForSaveUnMarkAllObjects=78.160347, TagPackageExports=2.352260, BeginCacheForCookedPlatformData=0.005528, SerializeImports=3.823463, GatherLocalizableTextData=20.750757, MarkNames=0.144083, SerializeSummary=0.030395, SerializeNames=0.581060, SerializeGatherableTextData=0.041053, BuildExportMap=0.497770, SortExportsNonSeekfree=0.830930, SortExportsSeekfreeConstructor=0.069078, SortExportsSeekfreeInner=29.434673, SortExportsSeekfree=0.007104, BuildDependencyMap=0.145264, SerializeImportMap=0.069473, SerializeExportMap=0.056449, SerializeDependencyMap=0.014603, SerializeStringAssetReferenceMap=0.002369, SaveThumbNailsAssetRegistryDataWorldLevelInfo=1.585677, SerializeExports=10.181167, SerializeBulkData=324.838898, MoveFile=46.607098, UnaccountedTime=2.624635, RunGuid=RunID1FDBAEB140BE570E68324E9E88EC8AC0
SavePackageTransactionIdD34C70FA48E340DE4E9F79B4A3C25C82_37, Filename=../../../../../../Users/tomokazu/Documents/KCG/tokkan/tokkan/projectfile/tokkan/Content/TopDownBP/Blueprints/TopDownController.uasset, AutoPackageBackupDelegate=14.664240, FlushAsyncLoading=0.014212, FlushStreamingFunc=0.066712, BlockTillAllRequestsFinished=0.006709, ResetLoadersForSaveUnMarkAllObjects=0.154343, TagPackageExports=13.533704, BeginCacheForCookedPlatformData=0.006709, SerializeImports=15.880835, GatherLocalizableTextData=13.477259, MarkNames=0.086054, SerializeSummary=0.016972, SerializeNames=0.358030, SerializeGatherableTextData=0.116844, BuildExportMap=0.354871, SortExportsNonSeekfree=2.077524, SortExportsSeekfreeConstructor=0.027239, SortExportsSeekfreeInner=25.125675, SortExportsSeekfree=0.011053, BuildDependencyMap=0.158686, SerializeImportMap=0.035133, SerializeExportMap=0.087239, SerializeDependencyMap=0.018552, SerializeStringAssetReferenceMap=0.004735, SaveThumbNailsAssetRegistryDataWorldLevelInfo=3.455568, SerializeExports=24.969753, SerializeBulkData=0.015788, MoveFile=7.029947, UnaccountedTime=2.761610, RunGuid=RunID1FDBAEB140BE570E68324E9E88EC8AC0
SavePackageTransactionIdD34C70FA48E340DE4E9F79B4A3C25C82_38, Filename=../../../../../../Users/tomokazu/Documents/KCG/tokkan/tokkan/projectfile/tokkan/Content/TopDownBP/Blueprints/stone.uasset, AutoPackageBackupDelegate=14.047656, FlushAsyncLoading=0.013027, FlushStreamingFunc=0.059605, BlockTillAllRequestsFinished=0.007898, ResetLoadersForSaveUnMarkAllObjects=0.151973, TagPackageExports=1.460541, BeginCacheForCookedPlatformData=0.006318, SerializeImports=2.890293, GatherLocalizableTextData=4.145574, MarkNames=0.034343, SerializeSummary=0.015788, SerializeNames=0.105396, SerializeGatherableTextData=0.142504, BuildExportMap=0.107765, SortExportsNonSeekfree=0.127893, SortExportsSeekfreeConstructor=0.016581, SortExportsSeekfreeInner=6.214805, SortExportsSeekfree=0.008289, BuildDependencyMap=0.035133, SerializeImportMap=0.011843, SerializeExportMap=0.014603, SerializeDependencyMap=0.003949, SerializeStringAssetReferenceMap=0.001974, SaveThumbNailsAssetRegistryDataWorldLevelInfo=7.717587, SerializeExports=2.023049, SerializeBulkData=0.009473, MoveFile=6.710209, UnaccountedTime=2.409894, RunGuid=RunID1FDBAEB140BE570E68324E9E88EC8AC0
SavePackageTransactionIdD34C70FA48E340DE4E9F79B4A3C25C82_39, Filename=../../../../../../Users/tomokazu/Documents/KCG/tokkan/tokkan/projectfile/tokkan/Content/TopDownBP/Blueprints/TopDownController.uasset, AutoPackageBackupDelegate=5.815726, FlushAsyncLoading=0.005919, FlushStreamingFunc=0.088029, BlockTillAllRequestsFinished=0.016972, ResetLoadersForSaveUnMarkAllObjects=0.118423, TagPackageExports=12.175005, BeginCacheForCookedPlatformData=0.006314, SerializeImports=11.629079, GatherLocalizableTextData=7.970616, MarkNames=0.079736, SerializeSummary=0.019342, SerializeNames=0.363559, SerializeGatherableTextData=0.076976, BuildExportMap=0.219475, SortExportsNonSeekfree=1.485411, SortExportsSeekfreeConstructor=0.070263, SortExportsSeekfreeInner=16.344265, SortExportsSeekfree=0.008289, BuildDependencyMap=0.095922, SerializeImportMap=0.036318, SerializeExportMap=0.065528, SerializeDependencyMap=0.011448, SerializeStringAssetReferenceMap=0.002764, SaveThumbNailsAssetRegistryDataWorldLevelInfo=1.410015, SerializeExports=14.615692, SerializeBulkData=0.013813, MoveFile=6.966393, UnaccountedTime=2.450552, RunGuid=RunID1FDBAEB140BE570E68324E9E88EC8AC0
SavePackageTransactionIdD34C70FA48E340DE4E9F79B4A3C25C82_40, Filename=../../../../../../Users/tomokazu/Documents/KCG/tokkan/tokkan/projectfile/tokkan/Content/TopDownBP/Blueprints/TopDownController.uasset, AutoPackageBackupDelegate=5.423747, FlushAsyncLoading=0.006314, FlushStreamingFunc=0.086844, BlockTillAllRequestsFinished=0.006709, ResetLoadersForSaveUnMarkAllObjects=0.139739, TagPackageExports=9.287864, BeginCacheForCookedPlatformData=0.006318, SerializeImports=10.188271, GatherLocalizableTextData=6.908368, MarkNames=0.075001, SerializeSummary=0.017367, SerializeNames=0.357240, SerializeGatherableTextData=0.110924, BuildExportMap=0.216316, SortExportsNonSeekfree=1.540281, SortExportsSeekfreeConstructor=0.073817, SortExportsSeekfreeInner=14.286477, SortExportsSeekfree=0.007104, BuildDependencyMap=0.088423, SerializeImportMap=0.022896, SerializeExportMap=0.056844, SerializeDependencyMap=0.010658, SerializeStringAssetReferenceMap=0.001974, SaveThumbNailsAssetRegistryDataWorldLevelInfo=1.397382, SerializeExports=13.162650, SerializeBulkData=0.012234, MoveFile=6.664418, UnaccountedTime=2.461605, RunGuid=RunID1FDBAEB140BE570E68324E9E88EC8AC0
SavePackageTransactionIdD34C70FA48E340DE4E9F79B4A3C25C82_41, Filename=../../../../../../Users/tomokazu/Documents/KCG/tokkan/tokkan/projectfile/tokkan/Content/TopDownBP/Maps/TopDownExampleMap.umap, AutoPackageBackupDelegate=5.285982, FlushAsyncLoading=0.004340, FlushStreamingFunc=0.143293, BlockTillAllRequestsFinished=0.006314, ResetLoadersForSaveUnMarkAllObjects=69.896049, TagPackageExports=1.997784, BeginCacheForCookedPlatformData=0.003159, SerializeImports=3.852673, GatherLocalizableTextData=20.427071, MarkNames=0.814747, SerializeSummary=0.024870, SerializeNames=0.683296, SerializeGatherableTextData=0.092369, BuildExportMap=0.474479, SortExportsNonSeekfree=0.806458, SortExportsSeekfreeConstructor=0.074603, SortExportsSeekfreeInner=32.681816, SortExportsSeekfree=0.008289, BuildDependencyMap=0.158291, SerializeImportMap=0.068288, SerializeExportMap=0.053290, SerializeDependencyMap=0.012632, SerializeStringAssetReferenceMap=0.002369, SaveThumbNailsAssetRegistryDataWorldLevelInfo=1.492910, SerializeExports=11.669341, SerializeBulkData=318.426727, MoveFile=6.597705, UnaccountedTime=2.609637, RunGuid=RunID1FDBAEB140BE570E68324E9E88EC8AC0
SavePackageTransactionIdD34C70FA48E340DE4E9F79B4A3C25C82_42, Filename=../../../../../../Users/tomokazu/Documents/KCG/tokkan/tokkan/projectfile/tokkan/Content/TopDownBP/Blueprints/TopDownController.uasset, AutoPackageBackupDelegate=8.756548, FlushAsyncLoading=0.007499, FlushStreamingFunc=0.078157, BlockTillAllRequestsFinished=0.007503, ResetLoadersForSaveUnMarkAllObjects=0.154737, TagPackageExports=13.018962, BeginCacheForCookedPlatformData=0.007104, SerializeImports=11.915266, GatherLocalizableTextData=9.054970, MarkNames=0.085264, SerializeSummary=0.016972, SerializeNames=0.398688, SerializeGatherableTextData=0.109740, BuildExportMap=0.410531, SortExportsNonSeekfree=1.919627, SortExportsSeekfreeConstructor=0.021711, SortExportsSeekfreeInner=19.255873, SortExportsSeekfree=0.010658, BuildDependencyMap=0.165395, SerializeImportMap=0.024870, SerializeExportMap=0.058815, SerializeDependencyMap=0.018947, SerializeStringAssetReferenceMap=0.003554, SaveThumbNailsAssetRegistryDataWorldLevelInfo=2.088577, SerializeExports=35.444607, SerializeBulkData=0.012632, MoveFile=5.538221, UnaccountedTime=2.325024, RunGuid=RunID1FDBAEB140BE570E68324E9E88EC8AC0
SavePackageTransactionIdD34C70FA48E340DE4E9F79B4A3C25C82_43, Filename=../../../../../../Users/tomokazu/Documents/KCG/tokkan/tokkan/projectfile/tokkan/Content/TopDownBP/Blueprints/stone.uasset, AutoPackageBackupDelegate=6.370332, FlushAsyncLoading=0.005923, FlushStreamingFunc=0.034343, BlockTillAllRequestsFinished=0.004735, ResetLoadersForSaveUnMarkAllObjects=0.107765, TagPackageExports=1.144357, BeginCacheForCookedPlatformData=0.002764, SerializeImports=2.036072, GatherLocalizableTextData=1.438044, MarkNames=0.022896, SerializeSummary=0.014603, SerializeNames=0.106975, SerializeGatherableTextData=0.007503, BuildExportMap=0.068683, SortExportsNonSeekfree=0.077765, SortExportsSeekfreeConstructor=0.008289, SortExportsSeekfreeInner=6.058093, SortExportsSeekfree=0.007499, BuildDependencyMap=0.026844, SerializeImportMap=0.011843, SerializeExportMap=0.014212, SerializeDependencyMap=0.002764, SerializeStringAssetReferenceMap=0.002369, SaveThumbNailsAssetRegistryDataWorldLevelInfo=8.122984, SerializeExports=2.151340, SerializeBulkData=0.007499, MoveFile=7.035471, UnaccountedTime=2.490424, RunGuid=RunID1FDBAEB140BE570E68324E9E88EC8AC0
SavePackageTransactionIdD34C70FA48E340DE4E9F79B4A3C25C82_44, Filename=../../../../../../Users/tomokazu/Documents/KCG/tokkan/tokkan/projectfile/tokkan/Content/TopDownBP/Maps/TopDownExampleMap.umap, AutoPackageBackupDelegate=24.121061, FlushAsyncLoading=0.015002, FlushStreamingFunc=0.064734, BlockTillAllRequestsFinished=0.008687, ResetLoadersForSaveUnMarkAllObjects=81.161957, TagPackageExports=2.133969, BeginCacheForCookedPlatformData=0.003554, SerializeImports=3.877938, GatherLocalizableTextData=23.093153, MarkNames=0.103816, SerializeSummary=0.019740, SerializeNames=0.635926, SerializeGatherableTextData=0.051316, BuildExportMap=0.434611, SortExportsNonSeekfree=0.860143, SortExportsSeekfreeConstructor=0.075787, SortExportsSeekfreeInner=29.665201, SortExportsSeekfree=0.007499, BuildDependencyMap=0.145659, SerializeImportMap=0.069868, SerializeExportMap=0.057239, SerializeDependencyMap=0.012632, SerializeStringAssetReferenceMap=0.001974, SaveThumbNailsAssetRegistryDataWorldLevelInfo=1.526859, SerializeExports=9.177737, SerializeBulkData=364.592896, MoveFile=5.975593, UnaccountedTime=2.565425, RunGuid=RunID1FDBAEB140BE570E68324E9E88EC8AC0
SavePackageTransactionIdD34C70FA48E340DE4E9F79B4A3C25C82_45, Filename=../../../../../../Users/tomokazu/Documents/KCG/tokkan/tokkan/projectfile/tokkan/Content/TopDownBP/Blueprints/TopDownController.uasset, AutoPackageBackupDelegate=15.531096, FlushAsyncLoading=0.014998, FlushStreamingFunc=0.069477, BlockTillAllRequestsFinished=0.007104, ResetLoadersForSaveUnMarkAllObjects=0.155527, TagPackageExports=16.948215, BeginCacheForCookedPlatformData=0.008684, SerializeImports=19.834957, GatherLocalizableTextData=14.337793, MarkNames=0.161845, SerializeSummary=0.024866, SerializeNames=0.538822, SerializeGatherableTextData=0.131056, BuildExportMap=0.444479, SortExportsNonSeekfree=2.315551, SortExportsSeekfreeConstructor=0.026450, SortExportsSeekfreeInner=25.347124, SortExportsSeekfree=0.011053, BuildDependencyMap=0.172500, SerializeImportMap=0.035133, SerializeExportMap=0.084475, SerializeDependencyMap=0.022896, SerializeStringAssetReferenceMap=0.003945, SaveThumbNailsAssetRegistryDataWorldLevelInfo=2.484504, SerializeExports=23.991585, SerializeBulkData=0.014208, MoveFile=7.435739, UnaccountedTime=2.710689, RunGuid=RunID1FDBAEB140BE570E68324E9E88EC8AC0
SavePackageTransactionIdD34C70FA48E340DE4E9F79B4A3C25C82_46, Filename=../../../../../../Users/tomokazu/Documents/KCG/tokkan/tokkan/projectfile/tokkan/Content/TopDownBP/Blueprints/TopDownController.uasset, AutoPackageBackupDelegate=5.631775, FlushAsyncLoading=0.005525, FlushStreamingFunc=0.089213, BlockTillAllRequestsFinished=0.007499, ResetLoadersForSaveUnMarkAllObjects=0.136185, TagPackageExports=5.938489, BeginCacheForCookedPlatformData=0.005130, SerializeImports=7.813115, GatherLocalizableTextData=9.808529, MarkNames=0.069082, SerializeSummary=0.018157, SerializeNames=0.405006, SerializeGatherableTextData=0.093553, BuildExportMap=0.246316, SortExportsNonSeekfree=0.960011, SortExportsSeekfreeConstructor=0.069477, SortExportsSeekfreeInner=10.744855, SortExportsSeekfree=0.007898, BuildDependencyMap=0.105791, SerializeImportMap=0.023291, SerializeExportMap=0.046186, SerializeDependencyMap=0.008684, SerializeStringAssetReferenceMap=0.001580, SaveThumbNailsAssetRegistryDataWorldLevelInfo=1.376461, SerializeExports=8.599438, SerializeBulkData=0.010658, MoveFile=39.375439, UnaccountedTime=2.577268, RunGuid=RunID1FDBAEB140BE570E68324E9E88EC8AC0
SavePackageTransactionIdD34C70FA48E340DE4E9F79B4A3C25C82_47, Filename=../../../../../../Users/tomokazu/Documents/KCG/tokkan/tokkan/projectfile/tokkan/Content/TopDownBP/Blueprints/TopDownController.uasset, AutoPackageBackupDelegate=7.232450, FlushAsyncLoading=0.006709, FlushStreamingFunc=0.099082, BlockTillAllRequestsFinished=0.008289, ResetLoadersForSaveUnMarkAllObjects=0.159476, TagPackageExports=9.548791, BeginCacheForCookedPlatformData=0.006314, SerializeImports=10.922491, GatherLocalizableTextData=13.669100, MarkNames=0.091583, SerializeSummary=0.020131, SerializeNames=0.390399, SerializeGatherableTextData=0.178028, BuildExportMap=0.225395, SortExportsNonSeekfree=1.221333, SortExportsSeekfreeConstructor=0.078551, SortExportsSeekfreeInner=11.697762, SortExportsSeekfree=0.007894, BuildDependencyMap=0.084475, SerializeImportMap=0.029210, SerializeExportMap=0.051316, SerializeDependencyMap=0.024080, SerializeStringAssetReferenceMap=0.002764, SaveThumbNailsAssetRegistryDataWorldLevelInfo=1.588833, SerializeExports=9.820766, SerializeBulkData=0.013422, MoveFile=5.609274, UnaccountedTime=2.587926, RunGuid=RunID1FDBAEB140BE570E68324E9E88EC8AC0
SavePackageTransactionIdD34C70FA48E340DE4E9F79B4A3C25C82_48, Filename=../../../../../../Users/tomokazu/Documents/KCG/tokkan/tokkan/projectfile/tokkan/Saved/Autosaves/Game/TopDownBP/Blueprints/TopDownController_Auto4.uasset, AutoPackageBackupDelegate=10.946967, FlushAsyncLoading=0.014208, FlushStreamingFunc=0.073027, BlockTillAllRequestsFinished=0.008684, ResetLoadersForSaveUnMarkAllObjects=0.163820, TagPackageExports=8.835491, BeginCacheForCookedPlatformData=0.008292, SerializeImports=9.995636, GatherLocalizableTextData=14.365028, MarkNames=0.078160, SerializeSummary=0.020131, SerializeNames=0.361189, SerializeGatherableTextData=0.149213, BuildExportMap=0.224605, SortExportsNonSeekfree=1.101330, SortExportsSeekfreeConstructor=0.076976, SortExportsSeekfreeInner=14.288447, SortExportsSeekfree=0.007894, BuildDependencyMap=0.082109, SerializeImportMap=0.022501, SerializeExportMap=0.048157, SerializeDependencyMap=0.057630, SerializeStringAssetReferenceMap=0.003554, SaveThumbNailsAssetRegistryDataWorldLevelInfo=1.190145, SerializeExports=12.166717, SerializeBulkData=0.014208, MoveFile=39.451630, UnaccountedTime=0.291318, RunGuid=RunID1FDBAEB140BE570E68324E9E88EC8AC0
SavePackageTransactionIdD34C70FA48E340DE4E9F79B4A3C25C82_49, Filename=../../../../../../Users/tomokazu/Documents/KCG/tokkan/tokkan/projectfile/tokkan/Content/TopDownBP/Blueprints/TopDownController.uasset, AutoPackageBackupDelegate=11.706841, FlushAsyncLoading=0.014607, FlushStreamingFunc=0.075791, BlockTillAllRequestsFinished=0.009473, ResetLoadersForSaveUnMarkAllObjects=0.168160, TagPackageExports=12.565799, BeginCacheForCookedPlatformData=0.007894, SerializeImports=12.176189, GatherLocalizableTextData=16.365181, MarkNames=0.135396, SerializeSummary=0.025265, SerializeNames=0.375792, SerializeGatherableTextData=0.181187, BuildExportMap=0.240002, SortExportsNonSeekfree=1.407649, SortExportsSeekfreeConstructor=0.078946, SortExportsSeekfreeInner=17.265194, SortExportsSeekfree=0.011843, BuildDependencyMap=0.155527, SerializeImportMap=0.036709, SerializeExportMap=0.083685, SerializeDependencyMap=0.015002, SerializeStringAssetReferenceMap=0.003945, SaveThumbNailsAssetRegistryDataWorldLevelInfo=1.949631, SerializeExports=17.603088, SerializeBulkData=0.016581, MoveFile=8.013248, UnaccountedTime=2.777006, RunGuid=RunID1FDBAEB140BE570E68324E9E88EC8AC0
SavePackageTransactionIdD34C70FA48E340DE4E9F79B4A3C25C82_50, Filename=../../../../../../Users/tomokazu/Documents/KCG/tokkan/tokkan/projectfile/tokkan/Content/TopDownBP/Maps/TopDownExampleMap.umap, AutoPackageBackupDelegate=21.274973, FlushAsyncLoading=0.014607, FlushStreamingFunc=0.065528, BlockTillAllRequestsFinished=0.009473, ResetLoadersForSaveUnMarkAllObjects=78.351006, TagPackageExports=2.077129, BeginCacheForCookedPlatformData=0.002764, SerializeImports=4.243467, GatherLocalizableTextData=22.354986, MarkNames=0.122372, SerializeSummary=0.022106, SerializeNames=0.650533, SerializeGatherableTextData=0.054870, BuildExportMap=0.477243, SortExportsNonSeekfree=0.909876, SortExportsSeekfreeConstructor=0.077765, SortExportsSeekfreeInner=29.859808, SortExportsSeekfree=0.007104, BuildDependencyMap=0.176843, SerializeImportMap=0.070658, SerializeExportMap=0.072632, SerializeDependencyMap=0.012632, SerializeStringAssetReferenceMap=0.002366, SaveThumbNailsAssetRegistryDataWorldLevelInfo=1.484625, SerializeExports=9.619843, SerializeBulkData=332.496887, MoveFile=6.141778, UnaccountedTime=2.507791, RunGuid=RunID1FDBAEB140BE570E68324E9E88EC8AC0
SavePackageTransactionIdD34C70FA48E340DE4E9F79B4A3C25C82_51, Filename=../../../../../../Users/tomokazu/Documents/KCG/tokkan/tokkan/projectfile/tokkan/Content/TopDownBP/Blueprints/TopDownController.uasset, AutoPackageBackupDelegate=12.646720, FlushAsyncLoading=0.014212, FlushStreamingFunc=0.062764, BlockTillAllRequestsFinished=0.007894, ResetLoadersForSaveUnMarkAllObjects=0.159871, TagPackageExports=12.323823, BeginCacheForCookedPlatformData=0.007499, SerializeImports=13.198964, GatherLocalizableTextData=8.667727, MarkNames=0.084870, SerializeSummary=0.019342, SerializeNames=0.502903, SerializeGatherableTextData=0.111710, BuildExportMap=0.241976, SortExportsNonSeekfree=1.435675, SortExportsSeekfreeConstructor=0.078946, SortExportsSeekfreeInner=13.931211, SortExportsSeekfree=0.010263, BuildDependencyMap=0.148818, SerializeImportMap=0.032369, SerializeExportMap=0.073817, SerializeDependencyMap=0.023291, SerializeStringAssetReferenceMap=0.004344, SaveThumbNailsAssetRegistryDataWorldLevelInfo=1.720674, SerializeExports=16.698345, SerializeBulkData=0.015002, MoveFile=7.303897, UnaccountedTime=2.707135, RunGuid=RunID1FDBAEB140BE570E68324E9E88EC8AC0
SavePackageTransactionIdD34C70FA48E340DE4E9F79B4A3C25C82_52, Filename=../../../../../../Users/tomokazu/Documents/KCG/tokkan/tokkan/projectfile/tokkan/Content/TopDownBP/Blueprints/TopDownController.uasset, AutoPackageBackupDelegate=5.817302, FlushAsyncLoading=0.005130, FlushStreamingFunc=0.130266, BlockTillAllRequestsFinished=0.006314, ResetLoadersForSaveUnMarkAllObjects=0.121582, TagPackageExports=9.218391, BeginCacheForCookedPlatformData=0.007503, SerializeImports=13.356857, GatherLocalizableTextData=6.656524, MarkNames=0.075396, SerializeSummary=0.021711, SerializeNames=0.552241, SerializeGatherableTextData=0.108160, BuildExportMap=0.242371, SortExportsNonSeekfree=1.766071, SortExportsSeekfreeConstructor=0.076581, SortExportsSeekfreeInner=13.782788, SortExportsSeekfree=0.007499, BuildDependencyMap=0.101447, SerializeImportMap=0.028815, SerializeExportMap=0.056449, SerializeDependencyMap=0.013027, SerializeStringAssetReferenceMap=0.002369, SaveThumbNailsAssetRegistryDataWorldLevelInfo=1.444753, SerializeExports=12.373164, SerializeBulkData=0.011843, MoveFile=6.137434, UnaccountedTime=2.625819, RunGuid=RunID1FDBAEB140BE570E68324E9E88EC8AC0
SavePackageTransactionIdD34C70FA48E340DE4E9F79B4A3C25C82_53, Filename=../../../../../../Users/tomokazu/Documents/KCG/tokkan/tokkan/projectfile/tokkan/Content/TopDownBP/Blueprints/TopDownController.uasset, AutoPackageBackupDelegate=5.955856, FlushAsyncLoading=0.005525, FlushStreamingFunc=0.075001, BlockTillAllRequestsFinished=0.008292, ResetLoadersForSaveUnMarkAllObjects=0.165790, TagPackageExports=10.329589, BeginCacheForCookedPlatformData=0.007104, SerializeImports=11.334993, GatherLocalizableTextData=7.289294, MarkNames=0.093948, SerializeSummary=0.019737, SerializeNames=0.397503, SerializeGatherableTextData=0.134215, BuildExportMap=0.343818, SortExportsNonSeekfree=1.604624, SortExportsSeekfreeConstructor=0.078946, SortExportsSeekfreeInner=14.680036, SortExportsSeekfree=0.007499, BuildDependencyMap=0.090394, SerializeImportMap=0.023291, SerializeExportMap=0.058815, SerializeDependencyMap=0.015393, SerializeStringAssetReferenceMap=0.002369, SaveThumbNailsAssetRegistryDataWorldLevelInfo=1.729757, SerializeExports=13.515543, SerializeBulkData=0.012632, MoveFile=7.492192, UnaccountedTime=2.670422, RunGuid=RunID1FDBAEB140BE570E68324E9E88EC8AC0
SavePackageTransactionIdD34C70FA48E340DE4E9F79B4A3C25C82_54, Filename=../../../../../../Users/tomokazu/Documents/KCG/tokkan/tokkan/projectfile/tokkan/Content/TopDownBP/Blueprints/TopDownController.uasset, AutoPackageBackupDelegate=12.135137, FlushAsyncLoading=0.012632, FlushStreamingFunc=0.073817, BlockTillAllRequestsFinished=0.009079, ResetLoadersForSaveUnMarkAllObjects=0.179213, TagPackageExports=11.833556, BeginCacheForCookedPlatformData=0.007499, SerializeImports=12.165531, GatherLocalizableTextData=9.949848, MarkNames=0.081711, SerializeSummary=0.019342, SerializeNames=0.354480, SerializeGatherableTextData=0.084080, BuildExportMap=0.262108, SortExportsNonSeekfree=2.008442, SortExportsSeekfreeConstructor=0.081711, SortExportsSeekfreeInner=21.203135, SortExportsSeekfree=0.011053, BuildDependencyMap=0.188686, SerializeImportMap=0.036709, SerializeExportMap=0.090003, SerializeDependencyMap=0.024475, SerializeStringAssetReferenceMap=0.004344, SaveThumbNailsAssetRegistryDataWorldLevelInfo=2.510551, SerializeExports=22.422489, SerializeBulkData=0.016581, MoveFile=7.054419, UnaccountedTime=2.560686, RunGuid=RunID1FDBAEB140BE570E68324E9E88EC8AC0
SavePackageTransactionIdD34C70FA48E340DE4E9F79B4A3C25C82_55, Filename=../../../../../../Users/tomokazu/Documents/KCG/tokkan/tokkan/projectfile/tokkan/Saved/Autosaves/Game/TopDownBP/Maps/TopDownExampleMap_Auto5.umap, AutoPackageBackupDelegate=24.576593, FlushAsyncLoading=0.015788, FlushStreamingFunc=0.066318, BlockTillAllRequestsFinished=0.008289, ResetLoadersForSaveUnMarkAllObjects=86.547417, TagPackageExports=2.114628, BeginCacheForCookedPlatformData=0.003949, SerializeImports=4.010174, GatherLocalizableTextData=20.951681, MarkNames=0.919353, SerializeSummary=0.026055, SerializeNames=0.679743, SerializeGatherableTextData=0.050526, BuildExportMap=0.462245, SortExportsNonSeekfree=0.884220, SortExportsSeekfreeConstructor=0.075787, SortExportsSeekfreeInner=29.234539, SortExportsSeekfree=0.008684, BuildDependencyMap=0.245925, SerializeImportMap=0.070661, SerializeExportMap=0.057630, SerializeDependencyMap=0.012632, SerializeStringAssetReferenceMap=0.002369, SaveThumbNailsAssetRegistryDataWorldLevelInfo=1.526464, SerializeExports=9.418525, SerializeBulkData=320.107147, MoveFile=6.047044, UnaccountedTime=0.357635, RunGuid=RunID1FDBAEB140BE570E68324E9E88EC8AC0
SavePackageTransactionIdD34C70FA48E340DE4E9F79B4A3C25C82_56, Filename=../../../../../../Users/tomokazu/Documents/KCG/tokkan/tokkan/projectfile/tokkan/Saved/Autosaves/Game/TopDownBP/Blueprints/TopDownController_Auto5.uasset, AutoPackageBackupDelegate=5.779404, FlushAsyncLoading=0.006318, FlushStreamingFunc=0.055660, BlockTillAllRequestsFinished=0.010658, ResetLoadersForSaveUnMarkAllObjects=0.131052, TagPackageExports=11.315655, BeginCacheForCookedPlatformData=0.007104, SerializeImports=13.688836, GatherLocalizableTextData=9.544451, MarkNames=0.082105, SerializeSummary=0.016972, SerializeNames=0.366323, SerializeGatherableTextData=0.089210, BuildExportMap=0.297636, SortExportsNonSeekfree=2.074365, SortExportsSeekfreeConstructor=0.014607, SortExportsSeekfreeInner=22.184853, SortExportsSeekfree=0.011448, BuildDependencyMap=0.168554, SerializeImportMap=0.024475, SerializeExportMap=0.059210, SerializeDependencyMap=0.023685, SerializeStringAssetReferenceMap=0.003949, SaveThumbNailsAssetRegistryDataWorldLevelInfo=1.623571, SerializeExports=22.939991, SerializeBulkData=0.012238, MoveFile=6.806918, UnaccountedTime=0.328820, RunGuid=RunID1FDBAEB140BE570E68324E9E88EC8AC0
SavePackageTransactionIdD34C70FA48E340DE4E9F79B4A3C25C82_57, Filename=../../../../../../Users/tomokazu/Documents/KCG/tokkan/tokkan/projectfile/tokkan/Content/TopDownBP/Maps/TopDownExampleMap.umap, AutoPackageBackupDelegate=5.814541, FlushAsyncLoading=0.005130, FlushStreamingFunc=0.055265, BlockTillAllRequestsFinished=0.005525, ResetLoadersForSaveUnMarkAllObjects=69.525780, TagPackageExports=2.091341, BeginCacheForCookedPlatformData=0.002764, SerializeImports=3.806092, GatherLocalizableTextData=20.861681, MarkNames=0.880670, SerializeSummary=0.030000, SerializeNames=0.857770, SerializeGatherableTextData=0.065528, BuildExportMap=0.622902, SortExportsNonSeekfree=0.902381, SortExportsSeekfreeConstructor=0.075392, SortExportsSeekfreeInner=29.050983, SortExportsSeekfree=0.007108, BuildDependencyMap=0.152368, SerializeImportMap=0.073817, SerializeExportMap=0.057235, SerializeDependencyMap=0.013024, SerializeStringAssetReferenceMap=0.002369, SaveThumbNailsAssetRegistryDataWorldLevelInfo=1.606993, SerializeExports=28.075180, SerializeBulkData=323.062561, MoveFile=6.225072, UnaccountedTime=5.747430, RunGuid=RunID1FDBAEB140BE570E68324E9E88EC8AC0
SavePackageTransactionIdD34C70FA48E340DE4E9F79B4A3C25C82_58, Filename=../../../../../../Users/tomokazu/Documents/KCG/tokkan/tokkan/projectfile/tokkan/Content/TopDownBP/Blueprints/TopDownController.uasset, AutoPackageBackupDelegate=16.052547, FlushAsyncLoading=0.014607, FlushStreamingFunc=0.077762, BlockTillAllRequestsFinished=0.006713, ResetLoadersForSaveUnMarkAllObjects=0.155527, TagPackageExports=18.391390, BeginCacheForCookedPlatformData=0.011448, SerializeImports=20.761024, GatherLocalizableTextData=14.119893, MarkNames=0.151187, SerializeSummary=0.022896, SerializeNames=0.515532, SerializeGatherableTextData=0.138946, BuildExportMap=0.372637, SortExportsNonSeekfree=2.453316, SortExportsSeekfreeConstructor=0.022501, SortExportsSeekfreeInner=22.788412, SortExportsSeekfree=0.010263, BuildDependencyMap=0.136580, SerializeImportMap=0.023682, SerializeExportMap=0.059213, SerializeDependencyMap=0.024475, SerializeStringAssetReferenceMap=0.004340, SaveThumbNailsAssetRegistryDataWorldLevelInfo=1.630675, SerializeExports=13.920948, SerializeBulkData=0.011448, MoveFile=6.142963, UnaccountedTime=5.504668, RunGuid=RunID1FDBAEB140BE570E68324E9E88EC8AC0
