------------------
System Information
------------------
      Time of this report: 9/3/2016, 12:42:17
             Machine name: MYBALL
               Machine Id: {E8902284-A2AE-4636-BF79-3BB208FA550C}
         Operating System: Windows 10 Home 64-bit (10.0, Build 14393) (14393.rs1_release_inmarket.160819-1924)
                 Language: Japanese (Regional Setting: Japanese)
      System Manufacturer: TOSHIBA
             System Model: dynabook R732/E25HR
                     BIOS: Version 6.80  
                Processor: Intel(R) Core(TM) i5-3230M CPU @ 2.60GHz (4 CPUs), ~2.6GHz
                   Memory: 8192MB RAM
      Available OS Memory: 8086MB RAM
                Page File: 5142MB used, 4223MB available
              Windows Dir: C:\WINDOWS
          DirectX Version: DirectX 12
      DX Setup Parameters: Not found
         User DPI Setting: Using System DPI
       System DPI Setting: 96 DPI (100 percent)
          DWM DPI Scaling: Disabled
                 Miracast: Available, with HDCP
Microsoft Graphics Hybrid: Not Supported
           DxDiag Version: 10.00.14393.0000 64bit Unicode
  DxDiag Previously: Crashed in DirectShow (stage 1). Re-running DxDiag with "dontskip" command line parameter or choosing not to bypass information gathering when prompted might result in DxDiag successfully obtaining this information

------------
DxDiag Notes
------------
      Display Tab 1: No problems found.
        Sound Tab 1: No problems found.
          Input Tab: No problems found.

--------------------
DirectX Debug Levels
--------------------
Direct3D:    0/4 (retail)
DirectDraw:  0/4 (retail)
DirectInput: 0/5 (retail)
DirectMusic: 0/5 (retail)
DirectPlay:  0/9 (retail)
DirectSound: 0/5 (retail)
DirectShow:  0/6 (retail)

---------------
Display Devices
---------------
          Card name: Intel(R) HD Graphics 4000
       Manufacturer: Intel Corporation
          Chip type: Intel(R) HD Graphics Family
           DAC type: Internal
        Device Type: Full Device
         Device Key: Enum\PCI\VEN_8086&DEV_0166&SUBSYS_00031179&REV_09
      Device Status: 0180200A [DN_DRIVER_LOADED|DN_STARTED|DN_DISABLEABLE|DN_NT_ENUMERATOR|DN_NT_DRIVER] 
Device Problem Code: No Problem
Driver Problem Code: Unknown
     Display Memory: 1792 MB
   Dedicated Memory: 32 MB
      Shared Memory: 1760 MB
       Current Mode: 1366 x 768 (32 bit) (40Hz)
       Monitor Name: Generic PnP Monitor
      Monitor Model: Internal LCD
         Monitor Id: TOS5091
        Native Mode: 1366 x 768(p) (60.171Hz)
        Output Type: Internal
        Driver Name: igdumdim64.dll,igd10iumd64.dll,igd10iumd64.dll
Driver File Version: 10.18.0010.4358 (English)
     Driver Version: 10.18.10.4358
        DDI Version: 11.2
     Feature Levels: 11_0,10_1,10_0,9_3,9_2,9_1
       Driver Model: WDDM 1.3
Graphics Preemption: DMA
 Compute Preemption: Thread group
           Miracast: Supported
Hybrid Graphics GPU: Integrated
     Power P-states: Not Supported
  Driver Attributes: Final Retail
   Driver Date/Size: 2015/12/21 9:00:00, 11157656 bytes
        WHQL Logo'd: Yes
    WHQL Date Stamp: Unknown
  Device Identifier: {D7B78E66-4226-11CF-CF63-0920B4C2C735}
          Vendor ID: 0x8086
          Device ID: 0x0166
          SubSys ID: 0x00031179
        Revision ID: 0x0009
 Driver Strong Name: oem42.inf:5f63e5341859ec8c:iIVBM_w10:10.18.10.4358:pci\ven_8086&dev_0166
     Rank Of Driver: 00D12001
        Video Accel: ModeMPEG2_A ModeMPEG2_C ModeWMV9_C ModeVC1_C 
        DXVA2 Modes: DXVA2_ModeMPEG2_VLD  DXVA2_ModeMPEG2_IDCT  DXVA2_ModeVC1_D2010  DXVA2_ModeWMV9_IDCT  DXVA2_ModeVC1_IDCT  DXVA2_ModeH264_VLD_NoFGT  
   Deinterlace Caps: {BF752EF6-8CC4-457A-BE1B-08BD1CAEEE9F}: Format(In/Out)=(YUY2,YUY2) Frames(Prev/Fwd/Back)=(0,0,1) Caps=VideoProcess_YUV2RGB VideoProcess_StretchX VideoProcess_StretchY VideoProcess_AlphaBlend DeinterlaceTech_EdgeFiltering 
                     {335AA36E-7884-43A4-9C91-7F87FAF3E37E}: Format(In/Out)=(YUY2,YUY2) Frames(Prev/Fwd/Back)=(0,0,0) Caps=VideoProcess_YUV2RGB VideoProcess_StretchX VideoProcess_StretchY VideoProcess_AlphaBlend DeinterlaceTech_BOBVerticalStretch 
                     {5A54A0C9-C7EC-4BD9-8EDE-F3C75DC4393B}: Format(In/Out)=(YUY2,YUY2) Frames(Prev/Fwd/Back)=(0,0,0) Caps=VideoProcess_YUV2RGB VideoProcess_StretchX VideoProcess_StretchY VideoProcess_AlphaBlend 
                     {BF752EF6-8CC4-457A-BE1B-08BD1CAEEE9F}: Format(In/Out)=(UYVY,YUY2) Frames(Prev/Fwd/Back)=(0,0,1) Caps=VideoProcess_YUV2RGB VideoProcess_StretchX VideoProcess_StretchY VideoProcess_AlphaBlend DeinterlaceTech_EdgeFiltering 
                     {335AA36E-7884-43A4-9C91-7F87FAF3E37E}: Format(In/Out)=(UYVY,YUY2) Frames(Prev/Fwd/Back)=(0,0,0) Caps=VideoProcess_YUV2RGB VideoProcess_StretchX VideoProcess_StretchY VideoProcess_AlphaBlend DeinterlaceTech_BOBVerticalStretch 
                     {5A54A0C9-C7EC-4BD9-8EDE-F3C75DC4393B}: Format(In/Out)=(UYVY,YUY2) Frames(Prev/Fwd/Back)=(0,0,0) Caps=VideoProcess_YUV2RGB VideoProcess_StretchX VideoProcess_StretchY VideoProcess_AlphaBlend 
                     {BF752EF6-8CC4-457A-BE1B-08BD1CAEEE9F}: Format(In/Out)=(YV12,YUY2) Frames(Prev/Fwd/Back)=(0,0,1) Caps=VideoProcess_YUV2RGB VideoProcess_StretchX VideoProcess_StretchY VideoProcess_AlphaBlend DeinterlaceTech_EdgeFiltering 
                     {335AA36E-7884-43A4-9C91-7F87FAF3E37E}: Format(In/Out)=(YV12,YUY2) Frames(Prev/Fwd/Back)=(0,0,0) Caps=VideoProcess_YUV2RGB VideoProcess_StretchX VideoProcess_StretchY VideoProcess_AlphaBlend DeinterlaceTech_BOBVerticalStretch 
                     {5A54A0C9-C7EC-4BD9-8EDE-F3C75DC4393B}: Format(In/Out)=(YV12,YUY2) Frames(Prev/Fwd/Back)=(0,0,0) Caps=VideoProcess_YUV2RGB VideoProcess_StretchX VideoProcess_StretchY VideoProcess_AlphaBlend 
                     {BF752EF6-8CC4-457A-BE1B-08BD1CAEEE9F}: Format(In/Out)=(NV12,YUY2) Frames(Prev/Fwd/Back)=(0,0,1) Caps=VideoProcess_YUV2RGB VideoProcess_StretchX VideoProcess_StretchY VideoProcess_AlphaBlend DeinterlaceTech_EdgeFiltering 
                     {335AA36E-7884-43A4-9C91-7F87FAF3E37E}: Format(In/Out)=(NV12,YUY2) Frames(Prev/Fwd/Back)=(0,0,0) Caps=VideoProcess_YUV2RGB VideoProcess_StretchX VideoProcess_StretchY VideoProcess_AlphaBlend DeinterlaceTech_BOBVerticalStretch 
                     {5A54A0C9-C7EC-4BD9-8EDE-F3C75DC4393B}: Format(In/Out)=(NV12,YUY2) Frames(Prev/Fwd/Back)=(0,0,0) Caps=VideoProcess_YUV2RGB VideoProcess_StretchX VideoProcess_StretchY VideoProcess_AlphaBlend 
                     {BF752EF6-8CC4-457A-BE1B-08BD1CAEEE9F}: Format(In/Out)=(IMC1,YUY2) Frames(Prev/Fwd/Back)=(0,0,1) Caps=VideoProcess_YUV2RGB VideoProcess_StretchX VideoProcess_StretchY VideoProcess_AlphaBlend DeinterlaceTech_EdgeFiltering 
                     {335AA36E-7884-43A4-9C91-7F87FAF3E37E}: Format(In/Out)=(IMC1,YUY2) Frames(Prev/Fwd/Back)=(0,0,0) Caps=VideoProcess_YUV2RGB VideoProcess_StretchX VideoProcess_StretchY VideoProcess_AlphaBlend DeinterlaceTech_BOBVerticalStretch 
                     {5A54A0C9-C7EC-4BD9-8EDE-F3C75DC4393B}: Format(In/Out)=(IMC1,YUY2) Frames(Prev/Fwd/Back)=(0,0,0) Caps=VideoProcess_YUV2RGB VideoProcess_StretchX VideoProcess_StretchY VideoProcess_AlphaBlend 
                     {BF752EF6-8CC4-457A-BE1B-08BD1CAEEE9F}: Format(In/Out)=(IMC2,YUY2) Frames(Prev/Fwd/Back)=(0,0,1) Caps=VideoProcess_YUV2RGB VideoProcess_StretchX VideoProcess_StretchY VideoProcess_AlphaBlend DeinterlaceTech_EdgeFiltering 
                     {335AA36E-7884-43A4-9C91-7F87FAF3E37E}: Format(In/Out)=(IMC2,YUY2) Frames(Prev/Fwd/Back)=(0,0,0) Caps=VideoProcess_YUV2RGB VideoProcess_StretchX VideoProcess_StretchY VideoProcess_AlphaBlend DeinterlaceTech_BOBVerticalStretch 
                     {5A54A0C9-C7EC-4BD9-8EDE-F3C75DC4393B}: Format(In/Out)=(IMC2,YUY2) Frames(Prev/Fwd/Back)=(0,0,0) Caps=VideoProcess_YUV2RGB VideoProcess_StretchX VideoProcess_StretchY VideoProcess_AlphaBlend 
                     {BF752EF6-8CC4-457A-BE1B-08BD1CAEEE9F}: Format(In/Out)=(IMC3,YUY2) Frames(Prev/Fwd/Back)=(0,0,1) Caps=VideoProcess_YUV2RGB VideoProcess_StretchX VideoProcess_StretchY VideoProcess_AlphaBlend DeinterlaceTech_EdgeFiltering 
                     {335AA36E-7884-43A4-9C91-7F87FAF3E37E}: Format(In/Out)=(IMC3,YUY2) Frames(Prev/Fwd/Back)=(0,0,0) Caps=VideoProcess_YUV2RGB VideoProcess_StretchX VideoProcess_StretchY VideoProcess_AlphaBlend DeinterlaceTech_BOBVerticalStretch 
                     {5A54A0C9-C7EC-4BD9-8EDE-F3C75DC4393B}: Format(In/Out)=(IMC3,YUY2) Frames(Prev/Fwd/Back)=(0,0,0) Caps=VideoProcess_YUV2RGB VideoProcess_StretchX VideoProcess_StretchY VideoProcess_AlphaBlend 
                     {BF752EF6-8CC4-457A-BE1B-08BD1CAEEE9F}: Format(In/Out)=(IMC4,YUY2) Frames(Prev/Fwd/Back)=(0,0,1) Caps=VideoProcess_YUV2RGB VideoProcess_StretchX VideoProcess_StretchY VideoProcess_AlphaBlend DeinterlaceTech_EdgeFiltering 
                     {335AA36E-7884-43A4-9C91-7F87FAF3E37E}: Format(In/Out)=(IMC4,YUY2) Frames(Prev/Fwd/Back)=(0,0,0) Caps=VideoProcess_YUV2RGB VideoProcess_StretchX VideoProcess_StretchY VideoProcess_AlphaBlend DeinterlaceTech_BOBVerticalStretch 
                     {5A54A0C9-C7EC-4BD9-8EDE-F3C75DC4393B}: Format(In/Out)=(IMC4,YUY2) Frames(Prev/Fwd/Back)=(0,0,0) Caps=VideoProcess_YUV2RGB VideoProcess_StretchX VideoProcess_StretchY VideoProcess_AlphaBlend 
       D3D9 Overlay: Supported
            DXVA-HD: Supported
       DDraw Status: Enabled
         D3D Status: Enabled
         AGP Status: Enabled
           MPO Caps: Not Supported
        MPO Stretch: Not Supported
    MPO Media Hints: Not Supported
        MPO Formats: Not Supported

-------------
Sound Devices
-------------
            Description: スピーカー (Realtek High Definition Audio)
 Default Sound Playback: Yes
 Default Voice Playback: Yes
            Hardware ID: HDAUDIO\FUNC_01&VEN_10EC&DEV_0269&SUBSYS_1179064E&REV_1002
        Manufacturer ID: 1
             Product ID: 100
                   Type: WDM
            Driver Name: RTKVHD64.sys
         Driver Version: 6.00.0001.6794 (English)
      Driver Attributes: Final Retail
            WHQL Logo'd: Yes
          Date and Size: 2012/12/05 0:00:00, 3242896 bytes
            Other Files: 
        Driver Provider: Realtek Semiconductor Corp.
         HW Accel Level: Basic
              Cap Flags: 0xF1F
    Min/Max Sample Rate: 100, 200000
Static/Strm HW Mix Bufs: 1, 0
 Static/Strm HW 3D Bufs: 0, 0
              HW Memory: 0
       Voice Management: No
 EAX(tm) 2.0 Listen/Src: No, No
   I3DL2(tm) Listen/Src: No, No
Sensaura(tm) ZoomFX(tm): No

---------------------
Sound Capture Devices
---------------------
            Description: マイク (Realtek High Definition Audio)
  Default Sound Capture: Yes
  Default Voice Capture: Yes
            Driver Name: RTKVHD64.sys
         Driver Version: 6.00.0001.6794 (English)
      Driver Attributes: Final Retail
          Date and Size: 12/5/2012 20:01:48, 3242896 bytes
              Cap Flags: 0x1
           Format Flags: 0xFFFFF

---------------------
Video Capture Devices
Number of Devices: 1
---------------------
           FriendlyName: TOSHIBA Web Camera - HD
               Location: Front
           SymbolicLink: \\?\usb#vid_1bcf&pid_288e&mi_00#7&80ac40b&0&0000#{e5323777-f976-4f5b-9b55-b94699c46e44}\global
           Manufacturer: Microsoft
             HardwareID: USB\VID_1BCF&PID_288E&REV_0809&MI_00,USB\VID_1BCF&PID_288E&MI_00
             DriverDesc: USB ビデオ デバイス
         DriverProvider: Microsoft
          DriverVersion: 10.0.14393.82
      DriverDateEnglish: 6/21/2006 00:00:00
    DriverDateLocalized: 2006/06/21 0:00:00
                Service: usbvideo
                  Class: Image
          DevNodeStatus: 180200A[DN_DRIVER_LOADED|DN_STARTED|DN_DISABLEABLE|DN_NT_ENUMERATOR|DN_NT_DRIVER]
            ContainerId: {00000000-0000-0000-FFFF-FFFFFFFFFFFF}
            ProblemCode: No Problem
  BusReportedDeviceDesc: TOSHIBA Web Camera - HD
                 Parent: USB\VID_1BCF&PID_288E\6&524ebff&0&3
      DriverProblemDesc: n/a
           UpperFilters: n/a
           LowerFilters: n/a
                  Stack: \Driver\ksthunk,\Driver\usbvideo,\Driver\ACPI,\Driver\usbccgp
      ContainerCategory: Imaging

-------------------
DirectInput Devices
-------------------
      Device Name: マウス
         Attached: 1
    Controller ID: n/a
Vendor/Product ID: n/a
        FF Driver: n/a

      Device Name: キーボード
         Attached: 1
    Controller ID: n/a
Vendor/Product ID: n/a
        FF Driver: n/a

      Device Name: Toshiba Hotkey Driver
         Attached: 1
    Controller ID: 0x0
Vendor/Product ID: 0x5664, 0x0930
        FF Driver: n/a

      Device Name: USB Receiver
         Attached: 1
    Controller ID: 0x0
Vendor/Product ID: 0x046D, 0xC52B
        FF Driver: n/a

      Device Name: Toshiba Hotkey Driver
         Attached: 1
    Controller ID: 0x0
Vendor/Product ID: 0x5664, 0x0930
        FF Driver: n/a

      Device Name: Toshiba Hotkey Driver
         Attached: 1
    Controller ID: 0x0
Vendor/Product ID: 0x5664, 0x0930
        FF Driver: n/a

      Device Name: USB Receiver
         Attached: 1
    Controller ID: 0x0
Vendor/Product ID: 0x046D, 0xC52B
        FF Driver: n/a

      Device Name: USB Receiver
         Attached: 1
    Controller ID: 0x0
Vendor/Product ID: 0x046D, 0xC52B
        FF Driver: n/a

      Device Name: USB Receiver
         Attached: 1
    Controller ID: 0x0
Vendor/Product ID: 0x046D, 0xC52B
        FF Driver: n/a

      Device Name: USB Receiver
         Attached: 1
    Controller ID: 0x0
Vendor/Product ID: 0x046D, 0xC52B
        FF Driver: n/a

      Device Name: USB Receiver
         Attached: 1
    Controller ID: 0x0
Vendor/Product ID: 0x046D, 0xC52B
        FF Driver: n/a

Poll w/ Interrupt: No

-----------
USB Devices
-----------
+ USB ルート ハブ (xHCI)
| Vendor/Product ID: 0x8086, 0x1E31
| Matching Device ID: USB\ROOT_HUB30
| Service: USBHUB3
| Driver: USBHUB3.SYS, 7/16/2016 20:41:55, 535904 bytes
| 
+-+ USB Composite Device
| | Vendor/Product ID: 0x046D, 0xC52B
| | Location: Port_#0003.Hub_#0003
| | Matching Device ID: USB\COMPOSITE
| | Service: usbccgp
| | Driver: usbccgp.sys, 7/16/2016 20:41:55, 169312 bytes
| | 
| +-+ USB Input Device (Logitech Download Assistant)
| | | Vendor/Product ID: 0x046D, 0xC52B
| | | Location: 0000.0014.0000.003.000.000.000.000.000
| | | Matching Device ID: usb\vid_046d&pid_c52b&mi_00
| | | Service: HidUsb
| | | Driver: LogiLDA.DLL, 9/20/2012 16:02:06, 3933496 bytes
| | | Driver: LdaCx2.dll, 9/20/2012 16:02:06, 2458936 bytes
| | | Driver: msvcp110.dll, 9/20/2012 16:02:06, 661448 bytes
| | | Driver: msvcr110.dll, 9/20/2012 16:02:06, 828872 bytes
| | | Driver: vccorlib110.dll, 9/20/2012 16:02:04, 354264 bytes
| | | 
| | +-+ HID キーボード デバイス
| | | | Vendor/Product ID: 0x046D, 0xC52B
| | | | Matching Device ID: HID_DEVICE_SYSTEM_KEYBOARD
| | | | Service: kbdhid
| | | | Driver: kbdhid.sys, 7/16/2016 20:41:54, 39424 bytes
| | | | Driver: kbdclass.sys, 7/16/2016 20:41:54, 62304 bytes
| | | 
| +-+ USB 入力デバイス
| | | Vendor/Product ID: 0x046D, 0xC52B
| | | Location: 0000.0014.0000.003.000.000.000.000.000
| | | Matching Device ID: USB\Class_03&SubClass_01
| | | Service: HidUsb
| | | Driver: hidusb.sys, 8/6/2016 12:47:49, 38400 bytes
| | | Driver: hidclass.sys, 8/6/2016 12:43:41, 156672 bytes
| | | Driver: hidparse.sys, 8/6/2016 12:46:37, 40960 bytes
| | | 
| | +-+ HID 準拠マウス
| | | | Vendor/Product ID: 0x046D, 0xC52B
| | | | Matching Device ID: HID_DEVICE_SYSTEM_MOUSE
| | | | Service: mouhid
| | | | Driver: mouhid.sys, 7/16/2016 20:41:54, 32256 bytes
| | | | Driver: mouclass.sys, 7/16/2016 20:41:54, 59232 bytes

----------------
Gameport Devices
----------------

------------
PS/2 Devices
------------
+ 標準 PS/2 キーボード
| Matching Device ID: *PNP0303
| Service: i8042prt
| Driver: i8042prt.sys, 7/16/2016 20:41:54, 114176 bytes
| Driver: kbdclass.sys, 7/16/2016 20:41:54, 62304 bytes
| 
+ Synaptics PS/2 Port TouchPad
| Matching Device ID: *tos0220
| Upper Filters: SynTP
| Service: i8042prt
| Driver: SynTP.sys, 8/28/2013 06:32:28, 524528 bytes
| Driver: SynTPAPI.dll, 8/28/2013 06:32:28, 251632 bytes
| Driver: SynCOM.dll, 8/28/2013 06:32:22, 722160 bytes
| Driver: SynTPRes.dll, 8/28/2013 06:32:30, 15255280 bytes
| Driver: SynTPCpl.dll, 8/28/2013 06:32:28, 3885808 bytes
| Driver: SynCntxt.rtf, 8/28/2013 06:32:20, 11970846 bytes
| Driver: SynZMetr.exe, 8/28/2013 06:32:30, 1897200 bytes
| Driver: SynMood.exe, 8/28/2013 06:32:24, 1910512 bytes
| Driver: SynTPEnh.exe, 8/28/2013 06:32:28, 2774256 bytes
| Driver: SynTPCOM.dll, 8/28/2013 06:32:28, 201456 bytes
| Driver: Tutorial.exe, 8/28/2013 06:32:30, 2790128 bytes
| Driver: InstNT.exe, 8/28/2013 06:32:16, 488688 bytes
| Driver: SynISDLL.dll, 8/28/2013 06:32:22, 2913520 bytes
| Driver: SynUnst.ini, 8/28/2013 06:32:30, 1363734 bytes
| Driver: SynTPHelper.exe, 8/28/2013 06:32:28, 182000 bytes
| Driver: SynapticsReflash.exe, 8/28/2013 06:32:20, 3407088 bytes
| Driver: SynPivotRotate.mpg, 8/28/2013 06:32:24, 770663 bytes
| Driver: SynChiralRotate.mpg, 8/28/2013 06:32:20, 382277 bytes
| Driver: SynFlick.mpg, 8/28/2013 06:32:22, 737975 bytes
| Driver: SynPinch.mpg, 8/28/2013 06:32:24, 286463 bytes
| Driver: SynMomentum.mpg, 8/28/2013 06:32:24, 246230 bytes
| Driver: SynLinearVHScroll.mpg, 8/28/2013 06:32:24, 929103 bytes
| Driver: SynChiralVHScroll.mpg, 8/28/2013 06:32:20, 1620778 bytes
| Driver: SynTwoFingerVHScroll.mpg, 8/28/2013 06:32:30, 746464 bytes
| Driver: SynPivotRotate_ChiralRotate.mpg, 8/28/2013 06:32:26, 1142810 bytes
| Driver: SynThreeFingerFlick.mpg, 8/28/2013 06:32:26, 633621 bytes
| Driver: SynThreeFingersDown.mpg, 8/28/2013 06:32:26, 215907 bytes
| Driver: SynTwistRotate.mpg, 8/28/2013 06:32:30, 1826816 bytes
| Driver: SynChiralTwistRotate.mpg, 8/28/2013 06:32:20, 2998272 bytes
| Driver: StaticImg.html, 8/28/2013 06:32:16, 968 bytes
| Driver: StaticImg.png, 8/28/2013 06:32:16, 107143 bytes
| Driver: SynSysDetect.js, 8/28/2013 06:32:26, 1481 bytes
| Driver: Syn2FingerScrolling.wmv, 8/28/2013 06:32:18, 336563 bytes
| Driver: Syn3FingerFlick.wmv, 8/28/2013 06:32:18, 571445 bytes
| Driver: Syn4FingerFlick.wmv, 8/28/2013 06:32:18, 795115 bytes
| Driver: Syn4FFlickVNB.wmv, 8/28/2013 06:32:18, 628121 bytes
| Driver: SynSmartSense.wmv, 8/28/2013 06:32:26, 370121 bytes
| Driver: SynSmartSenseNB.wmv, 8/28/2013 06:32:26, 358939 bytes
| Driver: Syn4FingerFlickUpDown.wmv, 8/28/2013 06:32:18, 426019 bytes
| Driver: Syn4FingerFlickUpDownNB.wmv, 8/28/2013 06:32:20, 291835 bytes
| Driver: Syn4FingerFlickLeftRight.wmv, 8/28/2013 06:32:18, 588931 bytes
| Driver: Syn4FingerFlickLeftRightNB.wmv, 8/28/2013 06:32:18, 588931 bytes
| Driver: Syn3FingerPress.wmv, 8/28/2013 06:32:18, 112893 bytes
| Driver: SynEdgeMotion.wmv, 8/28/2013 06:32:22, 325411 bytes
| Driver: SynLinearScrolling.wmv, 8/28/2013 06:32:24, 258289 bytes
| Driver: SynMomentum.wmv, 8/28/2013 06:32:24, 146439 bytes
| Driver: SynMomentumScrolling.wmv, 8/28/2013 06:32:24, 604961 bytes
| Driver: SynPinchZoom.wmv, 8/28/2013 06:32:24, 426019 bytes
| Driver: SynBlackScreen.wmv, 8/28/2013 06:32:20, 14729 bytes
| Driver: SynPivotRotate.wmv, 8/28/2013 06:32:24, 481959 bytes
| Driver: SynTwistRotate.wmv, 8/28/2013 06:32:30, 437231 bytes
| Driver: SynCoverGesture.wmv, 8/28/2013 06:32:22, 146469 bytes
| Driver: SynChiralRotate.wmv, 8/28/2013 06:32:20, 191197 bytes
| Driver: SynChiralScrolling.wmv, 8/28/2013 06:32:20, 783933 bytes
| Driver: SynCoastingScrolling.wmv, 8/28/2013 06:32:22, 381321 bytes
| Driver: SynPointing.wmv, 8/28/2013 06:32:26, 124105 bytes
| Driver: SynPalmCheck.wmv, 8/28/2013 06:32:24, 370121 bytes
| Driver: SynSensitivity.wmv, 8/28/2013 06:32:26, 258349 bytes
| Driver: SynWindowConstrained.wmv, 8/28/2013 06:32:30, 336659 bytes
| Driver: SynSlowMotion.wmv, 8/28/2013 06:32:26, 1145627 bytes
| Driver: SynConstrainedMotion.wmv, 8/28/2013 06:32:22, 414981 bytes
| Driver: SynTapping.wmv, 8/28/2013 06:32:26, 79347 bytes
| Driver: SynButtons.wmv, 8/28/2013 06:32:20, 79377 bytes
| Driver: SynTouchStykSelect.wmv, 8/28/2013 06:32:28, 124105 bytes
| Driver: SynTouchStykButton.wmv, 8/28/2013 06:32:28, 135287 bytes
| Driver: SynTouchStykSensitivity.wmv, 8/28/2013 06:32:28, 224779 bytes
| Driver: SynEdgeMotionDragging.wmv, 8/28/2013 06:32:22, 90529 bytes
| Driver: SynEdgeMotionFixedSpeed.wmv, 8/28/2013 06:32:22, 90529 bytes
| Driver: SynEdgeMotionPointing.wmv, 8/28/2013 06:32:22, 68165 bytes
| Driver: SynEdgeMotionPressure.wmv, 8/28/2013 06:32:22, 101711 bytes
| Driver: SynNoButtons.wmv, 8/28/2013 06:32:24, 45741 bytes
| Driver: SynTapZones.wmv, 8/28/2013 06:32:26, 135257 bytes
| Driver: SynLinearHScrolling.wmv, 8/28/2013 06:32:24, 224713 bytes
| Driver: Syn2FingerHScrolling.wmv, 8/28/2013 06:32:16, 291805 bytes
| Driver: SynTapHoldToDrag.wmv, 8/28/2013 06:32:26, 79347 bytes
| Driver: SynTapLockingDrag.wmv, 8/28/2013 06:32:26, 135287 bytes
| Driver: Syn1FingerClickNB.wmv, 8/28/2013 06:32:16, 68165 bytes
| Driver: Syn1FingerClickDrag.wmv, 8/28/2013 06:32:16, 330277 bytes
| Driver: Syn2FingerClickDrag.wmv, 8/28/2013 06:32:16, 651665 bytes
| Driver: Syn2FingerFlickNB.wmv, 8/28/2013 06:32:16, 437261 bytes
| Driver: Syn2FingerFlickLR.wmv, 8/28/2013 06:32:16, 332713 bytes
| Driver: Syn2FingerHScrollingNB.wmv, 8/28/2013 06:32:18, 280623 bytes
| Driver: Syn2FingerScrollingNB.wmv, 8/28/2013 06:32:18, 314199 bytes
| Driver: Syn3FingerFlickNB.wmv, 8/28/2013 06:32:18, 537899 bytes
| Driver: Syn3FingerPressNB.wmv, 8/28/2013 06:32:18, 101711 bytes
| Driver: Syn4FingerFlickNB.wmv, 8/28/2013 06:32:18, 426049 bytes
| Driver: SynButtonsNB.wmv, 8/28/2013 06:32:20, 79377 bytes
| Driver: SynChiralRotateNB.wmv, 8/28/2013 06:32:20, 180015 bytes
| Driver: SynChiralScrollingNB.wmv, 8/28/2013 06:32:20, 750387 bytes
| Driver: SynCoastingScrollingNB.wmv, 8/28/2013 06:32:22, 370139 bytes
| Driver: SynCoverGestureNB.wmv, 8/28/2013 06:32:22, 135287 bytes
| Driver: SynEdgeMotionDraggingNB.wmv, 8/28/2013 06:32:22, 90529 bytes
| Driver: SynEdgeMotionFixedSpeedNB.wmv, 8/28/2013 06:32:22, 90529 bytes
| Driver: SynEdgeMotionPointingNB.wmv, 8/28/2013 06:32:22, 68165 bytes
| Driver: SynEdgeMotionPressureNB.wmv, 8/28/2013 06:32:22, 101711 bytes
| Driver: SynLinearHScrollingNB.wmv, 8/28/2013 06:32:24, 202349 bytes
| Driver: SynMomentumScrollingNB.wmv, 8/28/2013 06:32:24, 582597 bytes
| Driver: SynPinchZoomNB.wmv, 8/28/2013 06:32:24, 414837 bytes
| Driver: SynPivotRotateNB.wmv, 8/28/2013 06:32:24, 437231 bytes
| Driver: SynTapHoldToDragNB.wmv, 8/28/2013 06:32:26, 79347 bytes
| Driver: SynTapLockingDragNB.wmv, 8/28/2013 06:32:26, 124105 bytes
| Driver: SynTwistRotateNB.wmv, 8/28/2013 06:32:30, 448413 bytes
| Driver: SynPointingNB.wmv, 8/28/2013 06:32:26, 124105 bytes
| Driver: Syn2FingerMomentumVHScrolling.wmv, 8/28/2013 06:32:18, 895723 bytes
| Driver: Syn2FingerMomentumVHScrollingNB.wmv, 8/28/2013 06:32:18, 862177 bytes
| Driver: Syn2FingerMomentumVScrolling_win8.wmv, 8/28/2013 06:32:18, 597933 bytes
| Driver: Syn2FingerMomentumVScrollingNB_win8.wmv, 8/28/2013 06:32:18, 586882 bytes
| Driver: Syn2FingerMomentumHScrolling_win8.wmv, 8/28/2013 06:32:18, 575831 bytes
| Driver: Syn2FingerMomentumHScrollingNB_win8.wmv, 8/28/2013 06:32:18, 564780 bytes
| Driver: Syn2FingerVHCoasting.wmv, 8/28/2013 06:32:18, 1275941 bytes
| Driver: Syn2FingerVHCoastingNB.wmv, 8/28/2013 06:32:18, 1242395 bytes
| Driver: Syn2FingerVCoasting_win8.wmv, 8/28/2013 06:32:18, 653218 bytes
| Driver: Syn2FingerHCoasting_win8.wmv, 8/28/2013 06:32:16, 852136 bytes
| Driver: Syn2FingerVCoastingNB_win8.wmv, 8/28/2013 06:32:18, 653218 bytes
| Driver: Syn2FingerHCoastingNB_win8.wmv, 8/28/2013 06:32:16, 796881 bytes
| Driver: SynMomentumVHScrolling.wmv, 8/28/2013 06:32:24, 683265 bytes
| Driver: SynMomentumVHScrollingNB.wmv, 8/28/2013 06:32:24, 660901 bytes
| Driver: SynVHCoasting.wmv, 8/28/2013 06:32:30, 649779 bytes
| Driver: Syn2FingerHScrolling_win8.wmv, 8/28/2013 06:32:18, 432126 bytes
| Driver: Syn2FingerHScrollingNB_win8.wmv, 8/28/2013 06:32:18, 421117 bytes
| Driver: SynChiralScrolling_win8.wmv, 8/28/2013 06:32:20, 819031 bytes
| Driver: SynChiralScrollingNB_win8.wmv, 8/28/2013 06:32:20, 741716 bytes
| Driver: SynLinearHScrolling_win8.wmv, 8/28/2013 06:32:24, 376913 bytes
| Driver: SynLinearHScrollingNB_win8.wmv, 8/28/2013 06:32:24, 354811 bytes
| Driver: SynLinearScrolling_win8.wmv, 8/28/2013 06:32:24, 354811 bytes
| Driver: SynLinearScrollingNB_win8.wmv, 8/28/2013 06:32:24, 332709 bytes
| Driver: SynPivotRotate_win8.wmv, 8/28/2013 06:32:26, 498534 bytes
| Driver: SynPivotRotateNB_win8.wmv, 8/28/2013 06:32:26, 365880 bytes
| Driver: SynTwistRotate_win8.wmv, 8/28/2013 06:32:30, 421135 bytes
| Driver: SynTwistRotateNB_win8.wmv, 8/28/2013 06:32:30, 410084 bytes
| Driver: SynEdgePulls.wmv, 8/28/2013 06:32:22, 365982 bytes
| Driver: Syn4FingerFlick_win8.wmv, 8/28/2013 06:32:20, 598023 bytes
| Driver: Syn4FingerFlickNB_win8.wmv, 8/28/2013 06:32:18, 564870 bytes
| Driver: Syn2FingerScrolling.html, 8/28/2013 06:32:18, 3216 bytes
| Driver: Syn2FingerFlick.html, 8/28/2013 06:32:16, 3212 bytes
| Driver: Syn3FingerFlick.html, 8/28/2013 06:32:18, 3212 bytes
| Driver: Syn4FingerFlick.html, 8/28/2013 06:32:18, 3212 bytes
| Driver: Syn4FingerFlickUpDown.html, 8/28/2013 06:32:18, 3218 bytes
| Driver: Syn4FingerFlickLeftRight.html, 8/28/2013 06:32:18, 3221 bytes
| Driver: Syn3FingerPress.html, 8/28/2013 06:32:18, 3212 bytes
| Driver: SynEdgeMotion.html, 8/28/2013 06:32:22, 3210 bytes
| Driver: SynMomentum.html, 8/28/2013 06:32:24, 3208 bytes
| Driver: SynPinchZoom.html, 8/28/2013 06:32:24, 3209 bytes
| Driver: SynRotating.html, 8/28/2013 06:32:26, 3208 bytes
| Driver: SynTwistRotate.html, 8/28/2013 06:32:30, 3211 bytes
| Driver: SynCoverGesture.html, 8/28/2013 06:32:22, 3212 bytes
| Driver: SynAccessibility.html, 8/28/2013 06:32:20, 3221 bytes
| Driver: SynSmartSense.html, 8/28/2013 06:32:26, 3210 bytes
| Driver: SynButtons.html, 8/28/2013 06:32:20, 3207 bytes
| Driver: SynClicking.html, 8/28/2013 06:32:20, 3208 bytes
| Driver: SynMultiFingerGestures.html, 8/28/2013 06:32:24, 3219 bytes
| Driver: SynPalmCheck.html, 8/28/2013 06:32:24, 3209 bytes
| Driver: SynPointing.html, 8/28/2013 06:32:26, 3208 bytes
| Driver: SynScrolling.html, 8/28/2013 06:32:26, 3209 bytes
| Driver: SynSensitivity.html, 8/28/2013 06:32:26, 3211 bytes
| Driver: SynTapping.html, 8/28/2013 06:32:26, 3207 bytes
| Driver: SynTouchStykButton.html, 8/28/2013 06:32:26, 3215 bytes
| Driver: SynTouchStykSelect.html, 8/28/2013 06:32:28, 3215 bytes
| Driver: SynTouchStykSensitivity.html, 8/28/2013 06:32:28, 3220 bytes
| Driver: SynScrollingVertical.html, 8/28/2013 06:32:26, 3217 bytes
| Driver: SynScrollingHorizontal.html, 8/28/2013 06:32:26, 3219 bytes
| Driver: SynScrollingChiral.html, 8/28/2013 06:32:26, 3215 bytes
| Driver: SynLockingDrags.html, 8/28/2013 06:32:24, 3212 bytes
| Driver: SynEdgePulls.html, 8/28/2013 06:32:22, 3162 bytes
| Driver: Syn2FingerScrolling_win8.wmv, 8/28/2013 06:32:18, 398973 bytes
| Driver: Syn2FingerScrollingNB_win8.wmv, 8/28/2013 06:32:18, 387964 bytes
| Driver: SynTappingNB.wmv, 8/28/2013 06:32:26, 68165 bytes
| Driver: Syn2FingerRightClickNB.wmv, 8/28/2013 06:32:18, 101711 bytes
| Driver: SynVHCoastingNB.wmv, 8/28/2013 06:32:30, 593869 bytes
| Driver: SynEdgePullsNB.wmv, 8/28/2013 06:32:22, 343880 bytes
| Driver: SynPalmCheckNB.wmv, 8/28/2013 06:32:24, 358939 bytes
| Driver: SynLinearScrollingNB.wmv, 8/28/2013 06:32:24, 247107 bytes
| Driver: SynSensitivityNB.wmv, 8/28/2013 06:32:26, 247167 bytes
| Driver: SynMomentumNB.wmv, 8/28/2013 06:32:24, 135257 bytes
| Driver: SynTapZonesNB.wmv, 8/28/2013 06:32:26, 135257 bytes
| Driver: SynTapZonesNB_win8.wmv, 8/28/2013 06:32:26, 155875 bytes
| Driver: SynEdgeMotionNB.wmv, 8/28/2013 06:32:22, 314229 bytes
| Driver: SynSlowMotionNB.wmv, 8/28/2013 06:32:26, 1090735 bytes
| Driver: SynConstrainedMotionNB.wmv, 8/28/2013 06:32:22, 392617 bytes
| Driver: SynWindowConstrainedNB.wmv, 8/28/2013 06:32:30, 325477 bytes
| Driver: SynToshiba.exe, 8/28/2013 06:32:26, 470256 bytes
| Driver: SynCom.dll, 8/28/2013 06:32:22, 400112 bytes
| Driver: SynTPCom.dll, 8/28/2013 06:32:28, 169712 bytes
| Driver: mouclass.sys, 7/16/2016 20:41:54, 59232 bytes
| Driver: i8042prt.sys, 7/16/2016 20:41:54, 114176 bytes
| Driver: SynTPCo19.dll, 8/28/2013 06:32:28, 421616 bytes
| Driver: WdfCoInstaller01011.dll, 8/28/2013 06:32:32, 1795952 bytes

------------------------
Disk & DVD/CD-ROM Drives
------------------------
      Drive: C:
 Free Space: 501.5 GB
Total Space: 700.4 GB
File System: NTFS
      Model: HGST HTS541075A9E680

      Drive: D:
      Model: MATSHITA DVD-RAM UJ8C2
     Driver: c:\windows\system32\drivers\cdrom.sys, 10.00.14393.0000 (Japanese), 7/16/2016 20:41:53, 173056 bytes

--------------
System Devices
--------------
     Name: PCI-to-PCI ブリッジ
Device ID: PCI\VEN_8086&DEV_1E14&SUBSYS_00011179&REV_C4\3&11583659&0&E2
   Driver: C:\WINDOWS\system32\DRIVERS\pci.sys, 10.00.14393.0000 (Japanese), 7/16/2016 20:41:53, 336224 bytes

     Name: Qualcomm Atheros AR9485WB-EG Wireless Network Adapter
Device ID: PCI\VEN_168C&DEV_0032&SUBSYS_7193144F&REV_01\4&155FFDB9&0&00E2
   Driver: C:\WINDOWS\system32\DRIVERS\athw8x.sys, 3.00.0002.0201 (English), 7/16/2016 20:41:50, 4233728 bytes

     Name: Intel(R) 7 Series/C216 Chipset Family USB Enhanced Host Controller - 1E2D
Device ID: PCI\VEN_8086&DEV_1E2D&SUBSYS_00011179&REV_04\3&11583659&0&D0
   Driver: C:\WINDOWS\system32\drivers\usbehci.sys, 10.00.14393.0000 (Japanese), 7/16/2016 20:41:55, 96096 bytes
   Driver: C:\WINDOWS\system32\drivers\usbport.sys, 10.00.14393.0000 (Japanese), 7/16/2016 20:41:55, 455520 bytes
   Driver: C:\WINDOWS\system32\drivers\usbhub.sys, 10.00.14393.0000 (Japanese), 7/16/2016 20:41:55, 501088 bytes

     Name: Intel(R) 82579V Gigabit Network Connection
Device ID: PCI\VEN_8086&DEV_1503&SUBSYS_00021179&REV_04\3&11583659&0&C8
   Driver: C:\WINDOWS\system32\DRIVERS\e1i63x64.sys, 12.15.0022.0006 (Japanese), 7/16/2016 20:41:54, 524800 bytes

     Name: PCI-to-PCI ブリッジ
Device ID: PCI\VEN_8086&DEV_1E12&SUBSYS_00011179&REV_C4\3&11583659&0&E1
   Driver: C:\WINDOWS\system32\DRIVERS\pci.sys, 10.00.14393.0000 (Japanese), 7/16/2016 20:41:53, 336224 bytes

     Name: メモリ コントローラー
Device ID: PCI\VEN_8086&DEV_0154&SUBSYS_00011179&REV_09\3&11583659&0&00
   Driver: n/a

     Name: PCI-to-PCI ブリッジ
Device ID: PCI\VEN_8086&DEV_1E10&SUBSYS_00011179&REV_C4\3&11583659&0&E0
   Driver: C:\WINDOWS\system32\DRIVERS\pci.sys, 10.00.14393.0000 (Japanese), 7/16/2016 20:41:53, 336224 bytes

     Name: Intel(R) Management Engine Interface 
Device ID: PCI\VEN_8086&DEV_1E3A&SUBSYS_00011179&REV_04\3&11583659&0&B0
   Driver: C:\WINDOWS\system32\DRIVERS\HECIx64.sys, 8.01.0000.1263 (English), 7/2/2012 15:16:02, 62784 bytes

     Name: Intel(R) 7 Series Chipset Family SATA AHCI Controller
Device ID: PCI\VEN_8086&DEV_1E03&SUBSYS_00011179&REV_04\3&11583659&0&FA
   Driver: C:\WINDOWS\system32\DRIVERS\iaStorA.sys, 11.06.0000.1030 (English), 9/1/2012 18:01:56, 647736 bytes

     Name: Intel(R) USB 3.0 eXtensible Host Controller - 1.0 (Microsoft)
Device ID: PCI\VEN_8086&DEV_1E31&SUBSYS_00011179&REV_04\3&11583659&0&A0
   Driver: C:\WINDOWS\system32\DRIVERS\USBXHCI.SYS, 10.00.14393.0000 (Japanese), 7/16/2016 20:41:55, 381792 bytes

     Name: High Definition Audio コントローラー
Device ID: PCI\VEN_8086&DEV_1E20&SUBSYS_00011179&REV_04\3&11583659&0&D8
   Driver: C:\WINDOWS\system32\DRIVERS\hdaudbus.sys, 10.00.14393.0000 (English), 7/16/2016 20:41:52, 83456 bytes
   Driver: C:\WINDOWS\system32\DRIVERS\drmk.sys, 10.00.14393.0000 (English), 7/16/2016 20:41:52, 97280 bytes
   Driver: C:\WINDOWS\system32\DRIVERS\portcls.sys, 10.00.14393.0000 (English), 7/16/2016 20:41:52, 366592 bytes

     Name: LPC コントローラー
Device ID: PCI\VEN_8086&DEV_1E59&SUBSYS_00011179&REV_04\3&11583659&0&F8
   Driver: C:\WINDOWS\system32\DRIVERS\msisadrv.sys, 10.00.14393.0000 (English), 7/16/2016 20:41:53, 18784 bytes

     Name: PCI-to-PCI ブリッジ
Device ID: PCI\VEN_8086&DEV_1E1A&SUBSYS_00011179&REV_C4\3&11583659&0&E5
   Driver: C:\WINDOWS\system32\DRIVERS\pci.sys, 10.00.14393.0000 (Japanese), 7/16/2016 20:41:53, 336224 bytes

     Name: Intel(R) 7 Series/C216 Chipset Family USB Enhanced Host Controller - 1E26
Device ID: PCI\VEN_8086&DEV_1E26&SUBSYS_00011179&REV_04\3&11583659&0&E8
   Driver: C:\WINDOWS\system32\drivers\usbehci.sys, 10.00.14393.0000 (Japanese), 7/16/2016 20:41:55, 96096 bytes
   Driver: C:\WINDOWS\system32\drivers\usbport.sys, 10.00.14393.0000 (Japanese), 7/16/2016 20:41:55, 455520 bytes
   Driver: C:\WINDOWS\system32\drivers\usbhub.sys, 10.00.14393.0000 (Japanese), 7/16/2016 20:41:55, 501088 bytes

     Name: Ricoh PCIe SD/MMC Host Controller
Device ID: PCI\VEN_1180&DEV_E823&SUBSYS_00011179&REV_04\4&7C614DD&0&00E0
   Driver: C:\WINDOWS\system32\DRIVERS\risdxc64.sys, 6.20.0011.0046 (Japanese), 7/30/2013 00:32:06, 106496 bytes
   Driver: C:\WINDOWS\system32\RiSDIcon.dll, 1.00.0000.0001 (Japanese), 7/30/2013 00:32:06, 196608 bytes
   Driver: C:\WINDOWS\system32\RiMMCIcon.dll, 1.00.0000.0001 (Japanese), 7/30/2013 00:32:06, 188416 bytes

     Name: Intel(R) HD Graphics 4000
Device ID: PCI\VEN_8086&DEV_0166&SUBSYS_00031179&REV_09\3&11583659&0&10
   Driver: C:\WINDOWS\system32\DRIVERS\igdkmd64.sys, 10.18.0010.4358 (English), 5/3/2016 23:30:46, 3811288 bytes
   Driver: C:\WINDOWS\system32\igd10iumd64.dll, 10.18.0010.4358 (English), 5/3/2016 23:31:28, 12442464 bytes
   Driver: C:\WINDOWS\system32\igdusc64.dll, 10.18.0010.4358 (English), 5/3/2016 23:31:28, 4702968 bytes
   Driver: C:\WINDOWS\system32\igdmd64.dll, 10.18.0010.4358 (English), 5/3/2016 23:31:28, 480592 bytes
   Driver: C:\WINDOWS\system32\igfxcmrt64.dll, 3.00.0000.1284 (English), 5/3/2016 23:31:28, 209648 bytes
   Driver: C:\WINDOWS\system32\igfx11cmrt64.dll, 3.00.0000.1284 (English), 5/3/2016 23:30:46, 202248 bytes
   Driver: C:\WINDOWS\system32\igfxcmjit64.dll, 3.00.0000.1284 (English), 5/3/2016 23:30:46, 2044424 bytes
   Driver: C:\WINDOWS\system32\IccLibDll_x64.dll, 5/3/2016 23:30:46, 111624 bytes
   Driver: C:\WINDOWS\system32\igdde64.dll, 5/3/2016 23:30:46, 238600 bytes
   Driver: C:\WINDOWS\SysWow64\igdde32.dll, 5/3/2016 23:30:46, 200200 bytes
   Driver: C:\WINDOWS\system32\iglhxs64.vp, 12/30/2015 23:52:52, 2582 bytes
   Driver: C:\WINDOWS\system32\iglhxo64.vp, 12/30/2015 23:52:52, 44025 bytes
   Driver: C:\WINDOWS\system32\iglhxc64.vp, 12/30/2015 23:52:52, 43494 bytes
   Driver: C:\WINDOWS\system32\iglhxg64.vp, 12/30/2015 23:52:52, 43256 bytes
   Driver: C:\WINDOWS\system32\iglhxo64_dev.vp, 12/30/2015 23:52:52, 42079 bytes
   Driver: C:\WINDOWS\system32\iglhxc64_dev.vp, 12/30/2015 23:52:52, 43816 bytes
   Driver: C:\WINDOWS\system32\iglhxg64_dev.vp, 12/30/2015 23:52:52, 43298 bytes
   Driver: C:\WINDOWS\system32\iglhxa64.vp, 12/30/2015 23:52:52, 1125 bytes
   Driver: C:\WINDOWS\system32\iglhxa64.cpa, 12/30/2015 23:52:52, 2813952 bytes
   Driver: C:\WINDOWS\system32\iglhcp64.dll, 9.00.0020.9000 (English), 5/3/2016 23:31:28, 240432 bytes
   Driver: C:\WINDOWS\system32\iglhsip64.dll, 9.00.0020.9000 (English), 5/3/2016 23:31:28, 1174832 bytes
   Driver: C:\WINDOWS\SysWow64\igdusc32.dll, 10.18.0010.4358 (English), 5/3/2016 23:31:28, 3726232 bytes
   Driver: C:\WINDOWS\SysWow64\igdmd32.dll, 10.18.0010.4358 (English), 5/3/2016 23:31:28, 390928 bytes
   Driver: C:\WINDOWS\SysWow64\igd10iumd32.dll, 10.18.0010.4358 (English), 5/3/2016 23:31:28, 12007936 bytes
   Driver: C:\WINDOWS\SysWow64\igdumdim32.dll, 10.18.0010.4358 (English), 5/3/2016 23:31:30, 10675896 bytes
   Driver: C:\WINDOWS\SysWow64\igdail32.dll, 5/3/2016 23:30:44, 161288 bytes
   Driver: C:\WINDOWS\SysWow64\iglhcp32.dll, 9.00.0020.9000 (English), 5/3/2016 23:31:28, 204840 bytes
   Driver: C:\WINDOWS\SysWow64\iglhsip32.dll, 9.00.0020.9000 (English), 5/3/2016 23:31:28, 1170640 bytes
   Driver: C:\WINDOWS\SysWow64\IntelCpHeciSvc.exe, 9.00.0020.9000 (English), 5/3/2016 23:30:46, 299488 bytes
   Driver: C:\WINDOWS\SysWow64\igfxcmrt32.dll, 3.00.0000.1284 (English), 5/3/2016 23:31:28, 179600 bytes
   Driver: C:\WINDOWS\SysWow64\igfx11cmrt32.dll, 3.00.0000.1284 (English), 5/3/2016 23:30:46, 172552 bytes
   Driver: C:\WINDOWS\SysWow64\igfxcmjit32.dll, 3.00.0000.1284 (English), 5/3/2016 23:30:46, 1775624 bytes
   Driver: C:\WINDOWS\system32\difx64.exe, 1.04.0003.0000 (English), 5/3/2016 23:30:44, 175072 bytes
   Driver: C:\WINDOWS\system32\igfxDH.dll, 6.15.0010.4358 (English), 5/3/2016 23:30:46, 690696 bytes
   Driver: C:\WINDOWS\system32\igfxDHLib.dll, 1.00.0000.0000 (Invariant Language), 5/3/2016 23:30:46, 77320 bytes
   Driver: C:\WINDOWS\system32\igfxDHLibv2_0.dll, 1.00.0000.0000 (Invariant Language), 5/3/2016 23:30:46, 87048 bytes
   Driver: C:\WINDOWS\system32\igfxDI.dll, 6.15.0010.4358 (English), 5/3/2016 23:30:46, 302088 bytes
   Driver: C:\WINDOWS\system32\igfxDILib.dll, 1.00.0000.0000 (Invariant Language), 5/3/2016 23:30:46, 28168 bytes
   Driver: C:\WINDOWS\system32\igfxDILibv2_0.dll, 1.00.0000.0000 (Invariant Language), 5/3/2016 23:30:46, 28168 bytes
   Driver: C:\WINDOWS\system32\igfxLHM.dll, 6.15.0010.4358 (English), 5/3/2016 23:30:46, 269832 bytes
   Driver: C:\WINDOWS\system32\igfxLHMLib.dll, 1.00.0000.0000 (Invariant Language), 5/3/2016 23:30:46, 22536 bytes
   Driver: C:\WINDOWS\system32\igfxLHMLibv2_0.dll, 1.00.0000.0000 (Invariant Language), 5/3/2016 23:30:46, 22536 bytes
   Driver: C:\WINDOWS\system32\igfxEM.exe, 6.15.0010.4358 (English), 5/3/2016 23:30:46, 549344 bytes
   Driver: C:\WINDOWS\system32\igfxEMLib.dll, 1.00.0000.0000 (Invariant Language), 5/3/2016 23:30:46, 27656 bytes
   Driver: C:\WINDOWS\system32\igfxEMLibv2_0.dll, 1.00.0000.0000 (Invariant Language), 5/3/2016 23:30:46, 27656 bytes
   Driver: C:\WINDOWS\system32\GfxUIEx.exe, 6.15.0010.4358 (English), 5/3/2016 23:30:44, 978400 bytes
   Driver: C:\WINDOWS\system32\Gfxv4_0.exe, 8.15.0010.4358 (Japanese), 5/3/2016 23:30:44, 4401632 bytes
   Driver: C:\WINDOWS\system32\Gfxv4_0.exe.config, 12/30/2015 23:52:36, 889 bytes
   Driver: C:\WINDOWS\system32\Gfxv2_0.exe, 8.15.0010.4358 (Japanese), 5/3/2016 23:30:44, 4398048 bytes
   Driver: C:\WINDOWS\system32\Gfxv2_0.exe.config, 12/30/2015 23:52:36, 895 bytes
   Driver: C:\WINDOWS\system32\MetroIntelGenericUIFramework.dll, 1.00.0000.0000 (Japanese), 5/3/2016 23:30:46, 626696 bytes
   Driver: C:\WINDOWS\system32\igfxCUIServicePS.dll, 5/3/2016 23:30:46, 103944 bytes
   Driver: C:\WINDOWS\system32\igfxCUIService.exe, 6.15.0010.4358 (English), 5/3/2016 23:30:46, 337888 bytes
   Driver: C:\WINDOWS\system32\igfxCPL.cpl, 5/3/2016 23:30:46, 272904 bytes
   Driver: C:\WINDOWS\system32\igfxTray.exe, 6.15.0010.4358 (English), 5/3/2016 23:30:46, 391648 bytes
   Driver: C:\WINDOWS\system32\igfxDTCM.dll, 6.15.0010.4358 (English), 5/3/2016 23:30:46, 226824 bytes
   Driver: C:\WINDOWS\system32\igfxHK.exe, 6.15.0010.4358 (English), 5/3/2016 23:30:46, 266208 bytes
   Driver: C:\WINDOWS\system32\igfxOSP.dll, 6.15.0010.4358 (English), 5/3/2016 23:30:46, 388616 bytes
   Driver: C:\WINDOWS\system32\DPTopologyApp.exe, 8.15.0010.4358 (Japanese), 5/3/2016 23:30:44, 564696 bytes
   Driver: C:\WINDOWS\system32\DPTopologyApp.exe.config, 12/30/2015 23:52:34, 889 bytes
   Driver: C:\WINDOWS\system32\CustomModeApp.exe, 8.15.0010.4358 (Japanese), 5/3/2016 23:30:44, 418784 bytes
   Driver: C:\WINDOWS\system32\CustomModeApp.exe.config, 12/30/2015 23:52:34, 889 bytes
   Driver: C:\WINDOWS\system32\DPTopologyAppv2_0.exe, 8.15.0010.4358 (Japanese), 5/3/2016 23:30:44, 564192 bytes
   Driver: C:\WINDOWS\system32\DPTopologyAppv2_0.exe.config, 12/30/2015 23:52:34, 895 bytes
   Driver: C:\WINDOWS\system32\CustomModeAppv2_0.exe, 8.15.0010.4358 (Japanese), 5/3/2016 23:30:44, 418264 bytes
   Driver: C:\WINDOWS\system32\CustomModeAppv2_0.exe.config, 12/30/2015 23:52:34, 895 bytes
   Driver: C:\WINDOWS\system32\igfxext.exe, 6.15.0010.4358 (English), 5/3/2016 23:30:46, 213984 bytes
   Driver: C:\WINDOWS\system32\igfxexps.dll, 6.15.0010.4358 (English), 5/3/2016 23:31:28, 49936 bytes
   Driver: C:\WINDOWS\SysWow64\igfxexps32.dll, 6.15.0010.4358 (English), 5/3/2016 23:30:46, 48136 bytes
   Driver: C:\WINDOWS\system32\resARA.cui, 12/30/2015 23:53:10, 164932 bytes
   Driver: C:\WINDOWS\system32\resCHS.cui, 12/30/2015 23:53:10, 149060 bytes
   Driver: C:\WINDOWS\system32\resCHT.cui, 12/30/2015 23:53:10, 149924 bytes
   Driver: C:\WINDOWS\system32\resCSY.cui, 12/30/2015 23:53:10, 156132 bytes
   Driver: C:\WINDOWS\system32\resDAN.cui, 12/30/2015 23:53:10, 153028 bytes
   Driver: C:\WINDOWS\system32\resDEU.cui, 12/30/2015 23:53:10, 157892 bytes
   Driver: C:\WINDOWS\system32\resELL.cui, 12/30/2015 23:53:10, 183476 bytes
   Driver: C:\WINDOWS\system32\resENU.cui, 12/30/2015 23:53:10, 151684 bytes
   Driver: C:\WINDOWS\system32\resESN.cui, 12/30/2015 23:53:10, 157572 bytes
   Driver: C:\WINDOWS\system32\resFIN.cui, 12/30/2015 23:53:10, 155460 bytes
   Driver: C:\WINDOWS\system32\resFRA.cui, 12/30/2015 23:53:10, 159716 bytes
   Driver: C:\WINDOWS\system32\resHEB.cui, 12/30/2015 23:53:10, 164356 bytes
   Driver: C:\WINDOWS\system32\resHRV.cui, 12/30/2015 23:53:10, 155060 bytes
   Driver: C:\WINDOWS\system32\resHUN.cui, 12/30/2015 23:53:10, 159732 bytes
   Driver: C:\WINDOWS\system32\resITA.cui, 12/30/2015 23:53:10, 157860 bytes
   Driver: C:\WINDOWS\system32\resJPN.cui, 12/30/2015 23:53:10, 164404 bytes
   Driver: C:\WINDOWS\system32\resKOR.cui, 12/30/2015 23:53:10, 158004 bytes
   Driver: C:\WINDOWS\system32\resNLD.cui, 12/30/2015 23:53:10, 156836 bytes
   Driver: C:\WINDOWS\system32\resNOR.cui, 12/30/2015 23:53:10, 153508 bytes
   Driver: C:\WINDOWS\system32\resPLK.cui, 12/30/2015 23:53:10, 157140 bytes
   Driver: C:\WINDOWS\system32\resPTB.cui, 12/30/2015 23:53:10, 156228 bytes
   Driver: C:\WINDOWS\system32\resPTG.cui, 12/30/2015 23:53:10, 155940 bytes
   Driver: C:\WINDOWS\system32\resROM.cui, 12/30/2015 23:53:10, 157668 bytes
   Driver: C:\WINDOWS\system32\resRUS.cui, 12/30/2015 23:53:10, 179252 bytes
   Driver: C:\WINDOWS\system32\resSKY.cui, 12/30/2015 23:53:10, 157012 bytes
   Driver: C:\WINDOWS\system32\resSLV.cui, 12/30/2015 23:53:10, 154484 bytes
   Driver: C:\WINDOWS\system32\resSVE.cui, 12/30/2015 23:53:10, 154628 bytes
   Driver: C:\WINDOWS\system32\resTHA.cui, 12/30/2015 23:53:10, 190868 bytes
   Driver: C:\WINDOWS\system32\resTRK.cui, 12/30/2015 23:53:10, 156116 bytes
   Driver: C:\WINDOWS\system32\ig7icd64.dll, 10.18.0010.4358 (English), 5/3/2016 23:30:46, 8531456 bytes
   Driver: C:\WINDOWS\SysWow64\ig7icd32.dll, 10.18.0010.4358 (English), 5/3/2016 23:30:46, 6518792 bytes
   Driver: C:\WINDOWS\system32\igdumdim64.dll, 10.18.0010.4358 (English), 5/3/2016 23:31:30, 11157656 bytes
   Driver: C:\WINDOWS\system32\igdail64.dll, 5/3/2016 23:30:44, 179720 bytes
   Driver: C:\Program Files (x86)\Common Files\Intel\OpenCL\llvm_release_license.txt, 12/30/2015 23:53:04, 1981 bytes
   Driver: C:\Program Files (x86)\Common Files\Intel\OpenCL\readme.txt, 12/30/2015 23:53:06, 9788 bytes
   Driver: C:\Program Files (x86)\Common Files\Intel\OpenCL\version.ini, 12/30/2015 23:53:06, 32 bytes
   Driver: C:\WINDOWS\SysWow64\Intel_OpenCL_ICD32.dll, 1.02.0011.0000 (English), 5/3/2016 23:30:46, 77832 bytes
   Driver: C:\WINDOWS\SysWow64\IntelOpenCL32.dll, 10.18.0010.4358 (English), 5/3/2016 23:30:46, 304136 bytes
   Driver: C:\Program Files (x86)\Common Files\Intel\OpenCL\bin\x86\task_executor32.dll, 3.00.0001.10891 (English), 5/3/2016 23:30:48, 225288 bytes
   Driver: C:\Program Files (x86)\Common Files\Intel\OpenCL\bin\x86\OclCpuBackend32.dll, 3.00.0001.10891 (English), 5/3/2016 23:30:48, 6776328 bytes
   Driver: C:\Program Files (x86)\Common Files\Intel\OpenCL\bin\x86\intelocl32.dll, 3.00.0001.10891 (English), 5/3/2016 23:30:48, 644104 bytes
   Driver: C:\Program Files (x86)\Common Files\Intel\OpenCL\bin\x86\cpu_device32.dll, 3.00.0001.10891 (English), 5/3/2016 23:30:48, 326152 bytes
   Driver: C:\Program Files (x86)\Common Files\Intel\OpenCL\bin\x86\clbltfnn8.rtl, 12/30/2015 23:53:04, 2986764 bytes
   Driver: C:\Program Files (x86)\Common Files\Intel\OpenCL\bin\x86\clbltfnn8_img_cbk.o, 12/30/2015 23:53:04, 240244 bytes
   Driver: C:\Program Files (x86)\Common Files\Intel\OpenCL\bin\x86\clbltfnn8_img_cbk.rtl, 12/30/2015 23:53:04, 375380 bytes
   Driver: C:\Program Files (x86)\Common Files\Intel\OpenCL\bin\x86\clbltfng9.rtl, 12/30/2015 23:53:02, 2930216 bytes
   Driver: C:\Program Files (x86)\Common Files\Intel\OpenCL\bin\x86\clbltfng9_img_cbk.o, 12/30/2015 23:53:02, 234396 bytes
   Driver: C:\Program Files (x86)\Common Files\Intel\OpenCL\bin\x86\clbltfng9_img_cbk.rtl, 12/30/2015 23:53:02, 374552 bytes
   Driver: C:\Program Files (x86)\Common Files\Intel\OpenCL\bin\x86\clbltfns9.rtl, 12/30/2015 23:53:04, 2408580 bytes
   Driver: C:\Program Files (x86)\Common Files\Intel\OpenCL\bin\x86\clbltfns9_img_cbk.o, 12/30/2015 23:53:04, 197272 bytes
   Driver: C:\Program Files (x86)\Common Files\Intel\OpenCL\bin\x86\clbltfns9_img_cbk.rtl, 12/30/2015 23:53:04, 329372 bytes
   Driver: C:\Program Files (x86)\Common Files\Intel\OpenCL\bin\x86\clang_compiler32.dll, 3.00.0001.10891 (English), 5/3/2016 23:30:48, 14906888 bytes
   Driver: C:\Program Files (x86)\Common Files\Intel\OpenCL\bin\x86\__ocl_svml_n8.dll, 2.00.0000.0000 (English), 5/3/2016 23:30:48, 5911560 bytes
   Driver: C:\Program Files (x86)\Common Files\Intel\OpenCL\bin\x86\__ocl_svml_g9.dll, 2.00.0000.0000 (English), 5/3/2016 23:30:48, 5182472 bytes
   Driver: C:\Program Files (x86)\Common Files\Intel\OpenCL\bin\x86\__ocl_svml_s9.dll, 2.00.0000.0000 (English), 5/3/2016 23:30:48, 4695048 bytes
   Driver: C:\Program Files (x86)\Common Files\Intel\OpenCL\bin\x86\tbb\tbbmalloc.dll, 4.00.2012.0408 (), 5/3/2016 23:30:48, 183240 bytes
   Driver: C:\Program Files (x86)\Common Files\Intel\OpenCL\bin\x86\tbb\tbb.dll, 4.00.2012.0408 (), 5/3/2016 23:30:48, 350664 bytes
   Driver: C:\WINDOWS\system32\Intel_OpenCL_ICD64.dll, 1.02.0011.0000 (English), 5/3/2016 23:30:46, 81416 bytes
   Driver: C:\WINDOWS\system32\IntelOpenCL64.dll, 10.18.0010.4358 (English), 5/3/2016 23:30:46, 394248 bytes
   Driver: C:\Program Files (x86)\Common Files\Intel\OpenCL\bin\x64\task_executor64.dll, 3.00.0001.10891 (English), 5/3/2016 23:30:48, 263688 bytes
   Driver: C:\Program Files (x86)\Common Files\Intel\OpenCL\bin\x64\OclCpuBackend64.dll, 3.00.0001.10891 (English), 5/3/2016 23:30:48, 9179144 bytes
   Driver: C:\Program Files (x86)\Common Files\Intel\OpenCL\bin\x64\intelocl64.dll, 3.00.0001.10891 (English), 5/3/2016 23:30:48, 814088 bytes
   Driver: C:\Program Files (x86)\Common Files\Intel\OpenCL\bin\x64\cpu_device64.dll, 3.00.0001.10891 (English), 5/3/2016 23:30:48, 390152 bytes
   Driver: C:\Program Files (x86)\Common Files\Intel\OpenCL\bin\x64\clbltfnh8.rtl, 12/30/2015 23:53:02, 2941464 bytes
   Driver: C:\Program Files (x86)\Common Files\Intel\OpenCL\bin\x64\clbltfnh8_img_cbk.o, 12/30/2015 23:53:02, 295744 bytes
   Driver: C:\Program Files (x86)\Common Files\Intel\OpenCL\bin\x64\clbltfnh8_img_cbk.rtl, 12/30/2015 23:53:02, 388464 bytes
   Driver: C:\Program Files (x86)\Common Files\Intel\OpenCL\bin\x64\clbltfne9.rtl, 12/30/2015 23:53:02, 2884992 bytes
   Driver: C:\Program Files (x86)\Common Files\Intel\OpenCL\bin\x64\clbltfne9_img_cbk.o, 12/30/2015 23:53:02, 284840 bytes
   Driver: C:\Program Files (x86)\Common Files\Intel\OpenCL\bin\x64\clbltfne9_img_cbk.rtl, 12/30/2015 23:53:02, 387724 bytes
   Driver: C:\Program Files (x86)\Common Files\Intel\OpenCL\bin\x64\clbltfnl9.rtl, 12/30/2015 23:53:02, 2365892 bytes
   Driver: C:\Program Files (x86)\Common Files\Intel\OpenCL\bin\x64\clbltfnl9_img_cbk.o, 12/30/2015 23:53:02, 228328 bytes
   Driver: C:\Program Files (x86)\Common Files\Intel\OpenCL\bin\x64\clbltfnl9_img_cbk.rtl, 12/30/2015 23:53:02, 342372 bytes
   Driver: C:\Program Files (x86)\Common Files\Intel\OpenCL\bin\x64\clang_compiler64.dll, 3.00.0001.10891 (English), 5/3/2016 23:30:48, 19593736 bytes
   Driver: C:\Program Files (x86)\Common Files\Intel\OpenCL\bin\x64\__ocl_svml_h8.dll, 2.00.0000.0000 (English), 5/3/2016 23:30:48, 6108168 bytes
   Driver: C:\Program Files (x86)\Common Files\Intel\OpenCL\bin\x64\__ocl_svml_e9.dll, 2.00.0000.0000 (English), 5/3/2016 23:30:48, 5529608 bytes
   Driver: C:\Program Files (x86)\Common Files\Intel\OpenCL\bin\x64\__ocl_svml_l9.dll, 2.00.0000.0000 (English), 5/3/2016 23:30:48, 5076488 bytes
   Driver: C:\Program Files (x86)\Common Files\Intel\OpenCL\bin\x64\tbb\tbbmalloc.dll, 4.00.2012.0408 (), 5/3/2016 23:30:48, 215496 bytes
   Driver: C:\Program Files (x86)\Common Files\Intel\OpenCL\bin\x64\tbb\tbb.dll, 4.00.2012.0408 (), 5/3/2016 23:30:48, 425928 bytes
   Driver: C:\WINDOWS\SysWow64\IntelOpenCL32.dll, 10.18.0010.4358 (English), 5/3/2016 23:30:46, 304136 bytes
   Driver: C:\WINDOWS\SysWow64\igdbcl32.dll, 10.18.0010.4358 (English), 5/3/2016 23:30:44, 338952 bytes
   Driver: C:\WINDOWS\SysWow64\igdrcl32.dll, 10.18.0010.4358 (English), 5/3/2016 23:30:46, 1803784 bytes
   Driver: C:\WINDOWS\SysWow64\igdfcl32.dll, 10.18.0010.4358 (English), 5/3/2016 23:30:48, 17854984 bytes
   Driver: C:\WINDOWS\system32\IntelOpenCL64.dll, 10.18.0010.4358 (English), 5/3/2016 23:30:46, 394248 bytes
   Driver: C:\WINDOWS\system32\igdbcl64.dll, 10.18.0010.4358 (English), 5/3/2016 23:30:46, 383496 bytes
   Driver: C:\WINDOWS\system32\igdrcl64.dll, 10.18.0010.4358 (English), 5/3/2016 23:30:46, 2004488 bytes
   Driver: C:\WINDOWS\system32\igdfcl64.dll, 10.18.0010.4358 (English), 5/3/2016 23:30:46, 22922760 bytes
   Driver: C:\Program Files\Intel\Media SDK\libmfxhw32.dll, 5.15.0005.0029 (English), 5/3/2016 23:30:48, 8401664 bytes
   Driver: C:\Program Files\Intel\Media SDK\mfxplugin32_hw.dll, 3.11.0005.0020 (English), 5/3/2016 23:30:46, 599296 bytes
   Driver: C:\Program Files\Intel\Media SDK\mfx_mft_h264ve_32.dll, 6.15.0006.0002 (English), 5/3/2016 23:30:46, 820920 bytes
   Driver: C:\Program Files\Intel\Media SDK\mfx_mft_mjpgvd_32.dll, 6.15.0006.0002 (English), 5/3/2016 23:30:46, 763576 bytes
   Driver: C:\Program Files\Intel\Media SDK\he_32.vp, 12/30/2015 23:52:36, 28553 bytes
   Driver: C:\Program Files\Intel\Media SDK\c_32.cpa, 12/30/2015 23:52:34, 846855 bytes
   Driver: C:\Program Files\Intel\Media SDK\cpa_32.vp, 12/30/2015 23:52:34, 993 bytes
   Driver: C:\Program Files\Intel\Media SDK\dev_32.vp, 12/30/2015 23:52:34, 21523 bytes
   Driver: C:\Program Files\Intel\Media SDK\mj_32.vp, 12/30/2015 23:52:58, 26945 bytes
   Driver: C:\Program Files\Intel\Media SDK\libmfxhw64.dll, 5.15.0005.0029 (English), 5/3/2016 23:30:48, 9309440 bytes
   Driver: C:\Program Files\Intel\Media SDK\mfxplugin64_hw.dll, 3.11.0005.0020 (English), 5/3/2016 23:30:46, 696064 bytes
   Driver: C:\Program Files\Intel\Media SDK\mfx_mft_h264ve_64.dll, 6.15.0006.0002 (English), 5/3/2016 23:30:46, 1013432 bytes
   Driver: C:\Program Files\Intel\Media SDK\mfx_mft_mjpgvd_64.dll, 6.15.0006.0002 (English), 5/3/2016 23:30:46, 942776 bytes
   Driver: C:\Program Files\Intel\Media SDK\he_64.vp, 12/30/2015 23:52:36, 6533 bytes
   Driver: C:\Program Files\Intel\Media SDK\c_64.cpa, 12/30/2015 23:52:34, 1519616 bytes
   Driver: C:\Program Files\Intel\Media SDK\cpa_64.vp, 12/30/2015 23:52:34, 993 bytes
   Driver: C:\Program Files\Intel\Media SDK\dev_64.vp, 12/30/2015 23:52:34, 21523 bytes
   Driver: C:\Program Files\Intel\Media SDK\mj_64.vp, 12/30/2015 23:52:58, 6321 bytes
   Driver: C:\WINDOWS\system32\IntelWiDiMCUMD64.dll, 4.05.0072.0000 (English), 5/3/2016 23:30:46, 150504 bytes
   Driver: C:\WINDOWS\system32\IntelWiDiSecureSourceFilter64.dll, 4.05.0072.0000 (English), 5/3/2016 23:30:46, 1478632 bytes
   Driver: C:\WINDOWS\system32\IntelWiDiAAC64.dll, 4.05.0072.0000 (English), 5/3/2016 23:30:46, 4033000 bytes
   Driver: C:\WINDOWS\system32\IntelWiDiMux64.dll, 4.05.0072.0000 (English), 5/3/2016 23:30:46, 625640 bytes
   Driver: C:\WINDOWS\system32\IntelWiDiDDEAgent64.dll, 4.05.0072.0000 (English), 5/3/2016 23:30:46, 199656 bytes
   Driver: C:\WINDOWS\system32\IntelWiDiAudioFilter64.dll, 4.05.0072.0000 (English), 5/3/2016 23:30:46, 668136 bytes
   Driver: C:\WINDOWS\system32\IntelWiDiUtils64.dll, 4.05.0072.0000 (English), 5/3/2016 23:30:46, 232424 bytes
   Driver: C:\WINDOWS\system32\IntelWiDiLogServer64.dll, 4.05.0072.0000 (English), 5/3/2016 23:30:46, 116200 bytes
   Driver: C:\WINDOWS\system32\IntelWiDiWinNextAgent64.dll, 4.05.0072.0000 (English), 5/3/2016 23:30:46, 881128 bytes
   Driver: C:\WINDOWS\system32\IntelWiDiSilenceFilter64.dll, 4.05.0072.0000 (English), 5/3/2016 23:30:46, 366560 bytes
   Driver: C:\WINDOWS\system32\IntelWiDiVAD64.exe, 4.05.0072.0000 (English), 5/3/2016 23:30:48, 2516360 bytes
   Driver: C:\WINDOWS\system32\IntelWiDiUMS64.exe, 4.05.0072.0000 (English), 5/3/2016 23:30:46, 452576 bytes
   Driver: C:\WINDOWS\system32\igfxCoIn_v4358.dll, 1.03.0012.0000 (English), 5/3/2016 23:30:46, 206856 bytes
   Driver: C:\WINDOWS\system32\DisplayAudiox64.cab, 12/30/2015 23:52:34, 316245 bytes


---------------------------
Media Foundation Transforms
---------------------------

[HKEY_LOCAL_MACHINE\Software\Classes\MediaFoundation\Transforms]

<category>:
  <transform friendly name>, <transform CLSID>, <flags>, [<merit>, ]<file name>, <file version>

Video Decoders:
  IntelR Hardware M-JPEG Decoder MFT, {00C69F81-0524-48C0-A353-4DD9D54F9A6E}, 0x6, 7, mfx_mft_mjpgvd_64.dll, 6.15.0006.0002
  Microsoft MPEG Video Decoder MFT, {2D709E52-123F-49B5-9CBC-9AF5CDE28FB9}, 0x1, msmpeg2vdec.dll, 10.00.14393.0000
  DV Decoder MFT, {404A6DE5-D4D6-4260-9BC7-5A6CBD882432}, 0x1, mfdvdec.dll, 10.00.14393.0000
  Microsoft H265 Video Decoder MFT, {420A51A3-D605-430C-B4FC-45274FA6C562}, 0x1, hevcdecoder.dll, 10.00.14393.0000
  Mpeg4s Decoder MFT, CLSID_CMpeg4sDecMFT, 0x1, mp4sdecd.dll, 10.00.14393.0000
  Microsoft H264 Video Decoder MFT, CLSID_CMSH264DecoderMFT, 0x1, msmpeg2vdec.dll, 10.00.14393.0000
  WMV Screen decoder MFT, CLSID_CMSSCDecMediaObject, 0x1, wmvsdecd.dll, 10.00.14393.0000
  WMVideo Decoder MFT, CLSID_CWMVDecMediaObject, 0x1, wmvdecod.dll, 10.00.14393.0000
  MJPEG Decoder MFT, {CB17E772-E1CC-4633-8450-5617AF577905}, 0x1, mfmjpegdec.dll, 10.00.14393.0000
  Mpeg43 Decoder MFT, CLSID_CMpeg43DecMediaObject, 0x1, mp43decd.dll, 10.00.14393.0000
  Microsoft WebM MF VP8 Decoder Transform, {E3AAF548-C9A4-4C6E-234D-5ADA374B0000}, 0x1, MSVP9DEC.dll, 10.00.14393.0000
  Mpeg4 Decoder MFT, CLSID_CMpeg4DecMediaObject, 0x1, mpg4decd.dll, 10.00.14393.0000
Video Encoders:
  IntelR Quick Sync Video H.264 Encoder MFT, {4BE8D3C0-0515-4A37-AD55-E4BAE19AF471}, 0x4, 7, mfx_mft_h264ve_64.dll, 6.15.0006.0002
  H264 Encoder MFT, {6CA50344-051A-4DED-9779-A43305165E35}, 0x1, mfh264enc.dll, 10.00.14393.0000
  WMVideo8 Encoder MFT, CLSID_CWMVXEncMediaObject, 0x1, wmvxencd.dll, 10.00.14393.0000
  Microsoft MF VPX Encoder Transform, {AEB6C755-2546-4881-82CC-E15AE5EBFF3D}, 0x1, MSVPXENC.dll, 10.00.14393.0000
  H263 Encoder MFT, {BC47FCFE-98A0-4F27-BB07-698AF24F2B38}, 0x1, mfh263enc.dll, 10.00.14393.0000
  WMVideo9 Encoder MFT, CLSID_CWMV9EncMediaObject, 0x1, wmvencod.dll, 10.00.14393.0000
  Microsoft MPEG-2 Video Encoder MFT, {E6335F02-80B7-4DC4-ADFA-DFE7210D20D5}, 0x2, msmpeg2enc.dll, 10.00.14393.0000
  H265 Encoder MFT, {F2F84074-8BCA-40BD-9159-E880F673DD3B}, 0x1, mfh265enc.dll, 10.00.14393.0000
Video Effects:
  Frame Rate Converter, CLSID_CFrameRateConvertDmo, 0x1, mfvdsp.dll, 10.00.14393.0000
  Resizer MFT, CLSID_CResizerDMO, 0x1, vidreszr.dll, 10.00.14393.0000
  VideoStabilization MFT, {51571744-7FE4-4FF2-A498-2DC34FF74F1B}, 0x1, MSVideoDSP.dll, 10.00.14393.0000
  Color Control, CLSID_CColorControlDmo, 0x1, mfvdsp.dll, 10.00.14393.0000
  Color Converter MFT, CLSID_CColorConvertDMO, 0x1, colorcnv.dll, 10.00.14393.0000
Video Processor:
  Microsoft Video Processor MFT, {88753B26-5B24-49BD-B2E7-0C445C78C982}, 0x1, msvproc.dll, 10.00.14393.0000
Audio Decoders:
  Microsoft Dolby Digital Plus Decoder MFT, {177C0AFE-900B-48D4-9E4C-57ADD250B3D4}, 0x1, DolbyDecMFT.dll, 10.00.14393.0000
  MS AMRNB Decoder MFT, {265011AE-5481-4F77-A295-ABB6FFE8D63E}, 0x1, MSAMRNBDecoder.dll, 10.00.14393.0000
  WMAudio Decoder MFT, CLSID_CWMADecMediaObject, 0x1, WMADMOD.DLL, 10.00.14393.0000
  Microsoft AAC Audio Decoder MFT, CLSID_CMSAACDecMFT, 0x1, MSAudDecMFT.dll, 10.00.14393.0000
  A-law Wrapper MFT, {36CB6E0C-78C1-42B2-9943-846262F31786}, 0x1, mfcore.dll, 10.00.14393.0105
  GSM ACM Wrapper MFT, {4A76B469-7B66-4DD4-BA2D-DDF244C766DC}, 0x1, mfcore.dll, 10.00.14393.0105
  WMAPro over S/PDIF MFT, CLSID_CWMAudioSpdTxDMO, 0x1, WMADMOD.DLL, 10.00.14393.0000
  Microsoft Opus Audio Decoder MFT, {63E17C10-2D43-4C42-8FE3-8D8B63E46A6A}, 0x1, MSOpusDecoder.dll, 10.00.14393.0000
  Microsoft FLAC Audio Decoder MFT, {6B0B3E6B-A2C5-4514-8055-AFE8A95242D9}, 0x1, MSFlacDecoder.dll, 10.00.14393.0000
  Microsoft MPEG Audio Decoder MFT, {70707B39-B2CA-4015-ABEA-F8447D22D88B}, 0x1, MSAudDecMFT.dll, 10.00.14393.0000
  WMSpeech Decoder DMO, CLSID_CWMSPDecMediaObject, 0x1, WMSPDMOD.DLL, 10.00.14393.0000
  G711 Wrapper MFT, {92B66080-5E2D-449E-90C4-C41F268E5514}, 0x1, mfcore.dll, 10.00.14393.0105
  IMA ADPCM ACM Wrapper MFT, {A16E1BFF-A80D-48AD-AECD-A35C005685FE}, 0x1, mfcore.dll, 10.00.14393.0105
  MP3 Decoder MFT, CLSID_CMP3DecMediaObject, 0x1, mp3dmod.dll, 10.00.14393.0000
  Microsoft ALAC Audio Decoder MFT, {C0CD7D12-31FC-4BBC-B363-7322EE3E1879}, 0x1, MSAlacDecoder.dll, 10.00.14393.0000
  ADPCM ACM Wrapper MFT, {CA34FE0A-5722-43AD-AF23-05F7650257DD}, 0x1, mfcore.dll, 10.00.14393.0105
  Dolby TrueHD IEC-61937 converter MFT, {CF5EEEDF-0E92-4B3B-A161-BD0FFE545E4B}, 0x1, mfaudiocnv.dll, 10.00.14393.0000
  DTS IEC-61937 converter MFT, {D035E24C-C877-42D7-A795-2A8A339B472F}, 0x1, mfaudiocnv.dll, 10.00.14393.0000
Audio Encoders:
  LPCM DVD-Audio MFT, {068A8476-9229-4CC0-9D49-2FC699DCD30A}, 0x1, mfaudiocnv.dll, 10.00.14393.0000
  MP3 Encoder ACM Wrapper MFT, {11103421-354C-4CCA-A7A3-1AFF9A5B6701}, 0x1, mfcore.dll, 10.00.14393.0105
  Microsoft FLAC Audio Encoder MFT, {128509E9-C44E-45DC-95E9-C255B8F466A6}, 0x1, MSFlacEncoder.dll, 10.00.14393.0000
  WM Speech Encoder DMO, CLSID_CWMSPEncMediaObject2, 0x1, WMSPDMOE.DLL, 10.00.14393.0000
  MS AMRNB Encoder MFT, {2FAE8AFE-04A3-423A-A814-85DB454712B0}, 0x1, MSAMRNBEncoder.dll, 10.00.14393.0000
  Microsoft MPEG-2 Audio Encoder MFT, {46A4DD5C-73F8-4304-94DF-308F760974F4}, 0x1, msmpeg2enc.dll, 10.00.14393.0000
  WMAudio Encoder MFT, CLSID_CWMAEncMediaObject, 0x1, WMADMOE.DLL, 10.00.14393.0000
  Microsoft AAC Audio Encoder MFT, {93AF0C51-2275-45D2-A35B-F2BA21CAED00}, 0x1, mfAACEnc.dll, 10.00.14393.0000
  Microsoft ALAC Audio Encoder MFT, {9AB6A28C-748E-4B6A-BFFF-CC443B8E8FB4}, 0x1, MSAlacEncoder.dll, 10.00.14393.0000
  Microsoft Dolby Digital Encoder MFT, {AC3315C9-F481-45D7-826C-0B406C1F64B8}, 0x1, msac3enc.dll, 10.00.14393.0000
Audio Effects:
  AEC, CLSID_CWMAudioAEC, 0x1, mfwmaaec.dll, 10.00.14393.0000
  Resampler MFT, CLSID_CResamplerMediaObject, 0x1, resampledmo.dll, 10.00.14393.0000
Multiplexers:
  Microsoft MPEG2 Multiplexer MFT, {AB300F71-01AB-46D2-AB6C-64906CB03258}, 0x2, mfmpeg2srcsnk.dll, 10.00.14393.0000
Others:
  Microsoft H264 Video Remux (MPEG2TSToMP4) MFT, {05A47EBB-8BF0-4CBF-AD2F-3B71D75866F5}, 0x1, msmpeg2vdec.dll, 10.00.14393.0000


--------------------------------------------
Media Foundation Enabled Hardware Categories
--------------------------------------------

[HKEY_LOCAL_MACHINE\Software\Microsoft\Windows Media Foundation\HardwareMFT]

EnableEncoders = 1
EnableDecoders = 1
EnableVideoProcessors = 1


-------------------------------------
Media Foundation Byte Stream Handlers
-------------------------------------

[HKEY_LOCAL_MACHINE\Software\Microsoft\Windows Media Foundation\ByteStreamHandlers]
[HKEY_LOCAL_MACHINE\Software\Classes\MediaFoundation\MediaSources\Preferred]

<file ext. or MIME type>, <handler CLSID>, <brief description>[, Preferred]

.3g2, {271C3902-6095-4C45-A22F-20091816EE9E}, MPEG4 Byte Stream Handler, Preferred
.3gp, {271C3902-6095-4C45-A22F-20091816EE9E}, MPEG4 Byte Stream Handler, Preferred
.3gp2, {271C3902-6095-4C45-A22F-20091816EE9E}, MPEG4 Byte Stream Handler, Preferred
.3gpp, {271C3902-6095-4C45-A22F-20091816EE9E}, MPEG4 Byte Stream Handler, Preferred
.aac, {926F41F7-003E-4382-9E84-9E953BE10562}, ADTS Byte Stream Handler, Preferred
.ac3, {46031BA1-083F-47D9-8369-23C92BDAB2FF}, AC-3 Byte Stream Handler, Preferred
.adt, {926F41F7-003E-4382-9E84-9E953BE10562}, ADTS Byte Stream Handler, Preferred
.adts, {926F41F7-003E-4382-9E84-9E953BE10562}, ADTS Byte Stream Handler, Preferred
.am?, {EFE6208A-0A2C-49FA-8A01-3768B559B6DA}, MF AMRNB Media Source ByteStreamHandler
.amr, {EFE6208A-0A2C-49FA-8A01-3768B559B6DA}, MF AMRNB Media Source ByteStreamHandler, Preferred
.asf, {41457294-644C-4298-A28A-BD69F2C0CF3B}, ASF Byte Stream Handler, Preferred
.avi, {7AFA253E-F823-42F6-A5D9-714BDE467412}, AVI Byte Stream Handler, Preferred
.dvr-ms, {65964407-A5D8-4060-85B0-1CCD63F768E2}, dvr-ms Byte Stream Handler, Preferred
.dvr-ms, {A8721937-E2FB-4D7A-A9EE-4EB08C890B6E}, MF SBE Source ByteStreamHandler
.ec3, {46031BA1-083F-47D9-8369-23C92BDAB2FF}, AC-3 Byte Stream Handler, Preferred
.flac, {0E41CFB8-0506-40F4-A516-77CC23642D91}, MF FLAC Media Source ByteStreamHandler, Preferred
.m2t, {40871C59-AB40-471F-8DC3-1F259D862479}, MPEG2 Byte Stream Handler, Preferred
.m2ts, {40871C59-AB40-471F-8DC3-1F259D862479}, MPEG2 Byte Stream Handler, Preferred
.m4a, {271C3902-6095-4C45-A22F-20091816EE9E}, MPEG4 Byte Stream Handler, Preferred
.m4v, {271C3902-6095-4C45-A22F-20091816EE9E}, MPEG4 Byte Stream Handler, Preferred
.mk3d, {1F9A2C18-D89E-463E-B4F4-BB90152ACC64}, MKV Byte Stream Handler, Preferred
.mka, {1F9A2C18-D89E-463E-B4F4-BB90152ACC64}, MKV Byte Stream Handler, Preferred
.mks, {1F9A2C18-D89E-463E-B4F4-BB90152ACC64}, MKV Byte Stream Handler, Preferred
.mkv, {1F9A2C18-D89E-463E-B4F4-BB90152ACC64}, MKV Byte Stream Handler, Preferred
.mod, {40871C59-AB40-471F-8DC3-1F259D862479}, MPEG2 Byte Stream Handler, Preferred
.mov, {271C3902-6095-4C45-A22F-20091816EE9E}, MPEG4 Byte Stream Handler, Preferred
.mp2v, {40871C59-AB40-471F-8DC3-1F259D862479}, MPEG2 Byte Stream Handler, Preferred
.mp3, {A82E50BA-8E92-41EB-9DF2-433F50EC2993}, MP3 Byte Stream Handler, Preferred
.mp4, {271C3902-6095-4C45-A22F-20091816EE9E}, MPEG4 Byte Stream Handler, Preferred
.mp4v, {271C3902-6095-4C45-A22F-20091816EE9E}, MPEG4 Byte Stream Handler, Preferred
.mpa, {A82E50BA-8E92-41EB-9DF2-433F50EC2993}, MP3 Byte Stream Handler, Preferred
.mpeg, {40871C59-AB40-471F-8DC3-1F259D862479}, MPEG2 Byte Stream Handler, Preferred
.mpg, {40871C59-AB40-471F-8DC3-1F259D862479}, MPEG2 Byte Stream Handler, Preferred
.mts, {40871C59-AB40-471F-8DC3-1F259D862479}, MPEG2 Byte Stream Handler, Preferred
.nsc, {B084785C-DDE0-4D30-8CA8-05A373E185BE}, NSC Byte Stream Handler, Preferred
.sami, {7A56C4CB-D678-4188-85A8-BA2EF68FA10D}, SAMI Byte Stream Handler, Preferred
.smi, {7A56C4CB-D678-4188-85A8-BA2EF68FA10D}, SAMI Byte Stream Handler, Preferred
.tod, {40871C59-AB40-471F-8DC3-1F259D862479}, MPEG2 Byte Stream Handler, Preferred
.ts, {40871C59-AB40-471F-8DC3-1F259D862479}, MPEG2 Byte Stream Handler, Preferred
.tts, {40871C59-AB40-471F-8DC3-1F259D862479}, MPEG2 Byte Stream Handler, Preferred
.uvu, {271C3902-6095-4C45-A22F-20091816EE9E}, MPEG4 Byte Stream Handler, Preferred
.vob, {40871C59-AB40-471F-8DC3-1F259D862479}, MPEG2 Byte Stream Handler, Preferred
.wav, {42C9B9F5-16FC-47EF-AF22-DA05F7C842E3}, WAV Byte Stream Handler, Preferred
.wm, {41457294-644C-4298-A28A-BD69F2C0CF3B}, ASF Byte Stream Handler, Preferred
.wma, {41457294-644C-4298-A28A-BD69F2C0CF3B}, ASF Byte Stream Handler, Preferred
.wmv, {41457294-644C-4298-A28A-BD69F2C0CF3B}, ASF Byte Stream Handler, Preferred
.wtv, {65964407-A5D8-4060-85B0-1CCD63F768E2}, WTV Byte Stream Handler, Preferred
audio/3gpp, {271C3902-6095-4C45-A22F-20091816EE9E}, MPEG4 Byte Stream Handler, Preferred
audio/3gpp2, {271C3902-6095-4C45-A22F-20091816EE9E}, MPEG4 Byte Stream Handler, Preferred
audio/aac, {926F41F7-003E-4382-9E84-9E953BE10562}, ADTS Byte Stream Handler, Preferred
audio/aacp, {926F41F7-003E-4382-9E84-9E953BE10562}, ADTS Byte Stream Handler, Preferred
audio/eac3, {46031BA1-083F-47D9-8369-23C92BDAB2FF}, AC-3 Byte Stream Handler, Preferred
audio/L16, {3FFB3B8C-EB99-472B-8902-E1C1B05F07CF}, LPCM Byte Stream Handler, Preferred
audio/mp3, {A82E50BA-8E92-41EB-9DF2-433F50EC2993}, MP3 Byte Stream Handler, Preferred
audio/mp4, {271C3902-6095-4C45-A22F-20091816EE9E}, MPEG4 Byte Stream Handler, Preferred
audio/MP4A-LATM, {271C3902-6095-4C45-A22F-20091816EE9E}, MPEG4 Byte Stream Handler, Preferred
audio/mpa, {A82E50BA-8E92-41EB-9DF2-433F50EC2993}, MP3 Byte Stream Handler, Preferred
audio/mpeg, {A82E50BA-8E92-41EB-9DF2-433F50EC2993}, MP3 Byte Stream Handler, Preferred
audio/mpeg3, {A82E50BA-8E92-41EB-9DF2-433F50EC2993}, MP3 Byte Stream Handler, Preferred
audio/vnd.dlna.adts, {926F41F7-003E-4382-9E84-9E953BE10562}, ADTS Byte Stream Handler, Preferred
audio/vnd.dolby.dd-raw, {46031BA1-083F-47D9-8369-23C92BDAB2FF}, AC-3 Byte Stream Handler, Preferred
audio/wav, {42C9B9F5-16FC-47EF-AF22-DA05F7C842E3}, WAV Byte Stream Handler, Preferred
audio/x-aac, {926F41F7-003E-4382-9E84-9E953BE10562}, ADTS Byte Stream Handler, Preferred
audio/x-m4a, {271C3902-6095-4C45-A22F-20091816EE9E}, MPEG4 Byte Stream Handler, Preferred
audio/x-matroska, {1F9A2C18-D89E-463E-B4F4-BB90152ACC64}, MKV Byte Stream Handler, Preferred
audio/x-mp3, {A82E50BA-8E92-41EB-9DF2-433F50EC2993}, MP3 Byte Stream Handler, Preferred
audio/x-mpeg, {A82E50BA-8E92-41EB-9DF2-433F50EC2993}, MP3 Byte Stream Handler, Preferred
audio/x-ms-wma, {41457294-644C-4298-A28A-BD69F2C0CF3B}, ASF Byte Stream Handler, Preferred
audio/x-wav, {42C9B9F5-16FC-47EF-AF22-DA05F7C842E3}, WAV Byte Stream Handler, Preferred
video/3gpp, {271C3902-6095-4C45-A22F-20091816EE9E}, MPEG4 Byte Stream Handler, Preferred
video/3gpp2, {271C3902-6095-4C45-A22F-20091816EE9E}, MPEG4 Byte Stream Handler, Preferred
video/avi, {7AFA253E-F823-42F6-A5D9-714BDE467412}, AVI Byte Stream Handler, Preferred
video/mp4, {271C3902-6095-4C45-A22F-20091816EE9E}, MPEG4 Byte Stream Handler, Preferred
video/mpeg, {40871C59-AB40-471F-8DC3-1F259D862479}, MPEG2 Byte Stream Handler, Preferred
video/msvideo, {7AFA253E-F823-42F6-A5D9-714BDE467412}, AVI Byte Stream Handler, Preferred
video/vnd.dece.mp4, {271C3902-6095-4C45-A22F-20091816EE9E}, MPEG4 Byte Stream Handler, Preferred
video/vnd.dlna.mpeg-tts, {40871C59-AB40-471F-8DC3-1F259D862479}, MPEG2 Byte Stream Handler, Preferred
video/x-m4v, {271C3902-6095-4C45-A22F-20091816EE9E}, MPEG4 Byte Stream Handler, Preferred
video/x-matroska, {1F9A2C18-D89E-463E-B4F4-BB90152ACC64}, MKV Byte Stream Handler, Preferred
video/x-ms-asf, {41457294-644C-4298-A28A-BD69F2C0CF3B}, ASF Byte Stream Handler, Preferred
video/x-ms-wm, {41457294-644C-4298-A28A-BD69F2C0CF3B}, ASF Byte Stream Handler, Preferred
video/x-ms-wmv, {41457294-644C-4298-A28A-BD69F2C0CF3B}, ASF Byte Stream Handler, Preferred
video/x-msvideo, {7AFA253E-F823-42F6-A5D9-714BDE467412}, AVI Byte Stream Handler, Preferred


--------------------------------
Media Foundation Scheme Handlers
--------------------------------

[HKEY_LOCAL_MACHINE\Software\Microsoft\Windows Media Foundation\SchemeHandlers]
[HKEY_LOCAL_MACHINE\Software\Classes\MediaFoundation\MediaSources\Preferred]

<URL type>, <handler CLSID>, <brief description>[, Preferred]

file:, {477EC299-1421-4BDD-971F-7CCB933F21AD}, File Scheme Handler, Preferred
http:, {44CB442B-9DA9-49DF-B3FD-023777B16E50}, Http Scheme Handler
http:, {9EC4B4F9-3029-45AD-947B-344DE2A249E2}, Urlmon Scheme Handler
http:, {E9F4EBAB-D97B-463E-A2B1-C54EE3F9414D}, Net Scheme Handler, Preferred
httpd:, {44CB442B-9DA9-49DF-B3FD-023777B16E50}, Http Scheme Handler, Preferred
httpnd:, {2EEEED04-0908-4CDB-AF8F-AC5B768A34C9}, Drm Scheme Handler, Preferred
https:, {37A61C8B-7F8E-4D08-B12B-248D73E9AB4F}, Secure Http Scheme Handler, Preferred
httpsd:, {37A61C8B-7F8E-4D08-B12B-248D73E9AB4F}, Secure Http Scheme Handler, Preferred
httpt:, {E9F4EBAB-D97B-463E-A2B1-C54EE3F9414D}, Net Scheme Handler, Preferred
httpu:, {E9F4EBAB-D97B-463E-A2B1-C54EE3F9414D}, Net Scheme Handler, Preferred
mcast:, {E9F4EBAB-D97B-463E-A2B1-C54EE3F9414D}, Net Scheme Handler, Preferred
mcrecv:, {FA6D33D4-9405-4BA5-9983-12604AC8E77A}, Miracast Sink Scheme Handler, Preferred
mms:, {E9F4EBAB-D97B-463E-A2B1-C54EE3F9414D}, Net Scheme Handler, Preferred
ms-appdata:, {CFC81939-3886-4ACF-9692-DA58037AE716}, MsAppData Scheme Handler, Preferred
ms-appx-web:, {8DB0224B-3D65-4F6F-8E12-BEB4B78B8974}, MsAppxWeb Scheme Handler, Preferred
ms-appx:, {8DB0224B-3D65-4F6F-8E12-BEB4B78B8974}, MsAppx Scheme Handler, Preferred
ms-winsoundevent:, {F79A6BF9-7415-4CF3-AE10-4559509ABC3C}, Sound Event Scheme Handler, Preferred
rtsp:, {E9F4EBAB-D97B-463E-A2B1-C54EE3F9414D}, Net Scheme Handler, Preferred
rtspt:, {E9F4EBAB-D97B-463E-A2B1-C54EE3F9414D}, Net Scheme Handler, Preferred
rtspu:, {E9F4EBAB-D97B-463E-A2B1-C54EE3F9414D}, Net Scheme Handler, Preferred
sdp:, {E9F4EBAB-D97B-463E-A2B1-C54EE3F9414D}, Net Scheme Handler, Preferred


-------------------------------------
Preferred Media Foundation Transforms
-------------------------------------

[HKEY_LOCAL_MACHINE\Software\Classes\MediaFoundation\Transforms\Preferred]

<media subtype GUID>, [<transform friendly name>, ]<transform CLSID>

{EB27CEC4-163E-4CA3-8B74-8E25F91B517E}, Dolby TrueHD IEC-61937 converter MFT, {CF5EEEDF-0E92-4B3B-A161-BD0FFE545E4B}
{E06D802C-DB46-11CF-B4D1-00805F6CBBEA}, Microsoft Dolby Digital Plus Decoder MFT, {177C0AFE-900B-48D4-9E4C-57ADD250B3D4}
MFVideoFormat_MPEG2, Microsoft MPEG Video Decoder MFT, {2D709E52-123F-49B5-9CBC-9AF5CDE28FB9}
MEDIASUBTYPE_DOLBY_DDPLUS, Microsoft Dolby Digital Plus Decoder MFT, {177C0AFE-900B-48D4-9E4C-57ADD250B3D4}
{A2E58EB7-0FA9-48BB-A40C-FA0E156D0645}, DTS IEC-61937 converter MFT, {D035E24C-C877-42D7-A795-2A8A339B472F}
{7634706D-0000-0010-8000-00AA00389B71}, Mpeg4s Decoder MFT, CLSID_CMpeg4sDecMFT
{73616D72-767A-494D-B478-F29D25DC9037}, MS AMRNB Decoder MFT, {265011AE-5481-4F77-A295-ABB6FFE8D63E}
MEDIASUBTYPE_mp4s, Mpeg4s Decoder MFT, CLSID_CMpeg4sDecMFT
MFVideoFormat_DVSL, DV Decoder MFT, {404A6DE5-D4D6-4260-9BC7-5A6CBD882432}
MFVideoFormat_DVSD, DV Decoder MFT, {404A6DE5-D4D6-4260-9BC7-5A6CBD882432}
MFVideoFormat_DVHD, DV Decoder MFT, {404A6DE5-D4D6-4260-9BC7-5A6CBD882432}
MFVideoFormat_MP4V, Mpeg4s Decoder MFT, CLSID_CMpeg4sDecMFT
{53564548-0000-0010-8000-00AA00389B71}, Microsoft H265 Video Decoder MFT, {420A51A3-D605-430C-B4FC-45274FA6C562}
MFVideoFormat_MP4S, Mpeg4s Decoder MFT, CLSID_CMpeg4sDecMFT
{53314356-0000-0010-8000-00AA00389B71}, WMVideo Decoder MFT, CLSID_CWMVDecMediaObject
MEDIASUBTYPE_WMVR, WMVideo Decoder MFT, CLSID_CWMVDecMediaObject
MEDIASUBTYPE_WMVP, WMVideo Decoder MFT, CLSID_CWMVDecMediaObject
MFVideoFormat_MJPG, MJPEG Decoder MFT, {CB17E772-E1CC-4633-8450-5617AF577905}
{43564548-0000-0010-8000-00AA00389B71}, Microsoft H265 Video Decoder MFT, {420A51A3-D605-430C-B4FC-45274FA6C562}
MEDIASUBTYPE_WMVA, WMVideo Decoder MFT, CLSID_CWMVDecMediaObject
{3F40F4F0-5622-4FF8-B6D8-A17A584BEE5E}, Microsoft H264 Video Decoder MFT, CLSID_CMSH264DecoderMFT
MEDIASUBTYPE_mpg4, Mpeg4 Decoder MFT, CLSID_CMpeg4DecMediaObject
MEDIASUBTYPE_MPG4, Mpeg4 Decoder MFT, CLSID_CMpeg4DecMediaObject
MFVideoFormat_H264, Microsoft H264 Video Decoder MFT, CLSID_CMSH264DecoderMFT
MFVideoFormat_WMV3, WMVideo Decoder MFT, CLSID_CWMVDecMediaObject
{33363248-0000-0010-8000-00AA00389B71}, Mpeg4s Decoder MFT, CLSID_CMpeg4sDecMFT
MEDIASUBTYPE_mp43, Mpeg43 Decoder MFT, CLSID_CMpeg43DecMediaObject
MFVideoFormat_MP43, Mpeg43 Decoder MFT, CLSID_CMpeg43DecMediaObject
MEDIASUBTYPE_m4s2, Mpeg4s Decoder MFT, CLSID_CMpeg4sDecMFT
MFVideoFormat_WMV2, WMVideo Decoder MFT, CLSID_CWMVDecMediaObject
MFVideoFormat_MSS2, WMV Screen decoder MFT, CLSID_CMSSCDecMediaObject
MFVideoFormat_M4S2, Mpeg4s Decoder MFT, CLSID_CMpeg4sDecMFT
MEDIASUBTYPE_WVP2, WMVideo Decoder MFT, CLSID_CWMVDecMediaObject
MEDIASUBTYPE_mp42, Mpeg4 Decoder MFT, CLSID_CMpeg4DecMediaObject
MEDIASUBTYPE_MP42, Mpeg4 Decoder MFT, CLSID_CMpeg4DecMediaObject
MFVideoFormat_WMV1, WMVideo Decoder MFT, CLSID_CWMVDecMediaObject
MFVideoFormat_MSS1, WMV Screen decoder MFT, CLSID_CMSSCDecMediaObject
MFVideoFormat_MPG1, Microsoft MPEG Video Decoder MFT, {2D709E52-123F-49B5-9CBC-9AF5CDE28FB9}
MFVideoFormat_WVC1, WMVideo Decoder MFT, CLSID_CWMVDecMediaObject
{30395056-0000-0010-8000-00AA00389B71}, Microsoft WebM MF VP8 Decoder Transform, {E3AAF548-C9A4-4C6E-234D-5ADA374B0000}
{30385056-0000-0010-8000-00AA00389B71}, Microsoft WebM MF VP8 Decoder Transform, {E3AAF548-C9A4-4C6E-234D-5ADA374B0000}
MFVideoFormat_DVC, DV Decoder MFT, {404A6DE5-D4D6-4260-9BC7-5A6CBD882432}
{0000F1AC-0000-0010-8000-00AA00389B71}, Microsoft FLAC Audio Decoder MFT, {6B0B3E6B-A2C5-4514-8055-AFE8A95242D9}
{00007361-0000-0010-8000-00AA00389B71}, MS AMRNB Decoder MFT, {265011AE-5481-4F77-A295-ABB6FFE8D63E}
{0000704F-0000-0010-8000-00AA00389B71}, Microsoft Opus Audio Decoder MFT, {63E17C10-2D43-4C42-8FE3-8D8B63E46A6A}
{00006C61-0000-0010-8000-00AA00389B71}, Microsoft ALAC Audio Decoder MFT, {C0CD7D12-31FC-4BBC-B363-7322EE3E1879}
{00002001-0000-0010-8000-00AA00389B71}, DTS IEC-61937 converter MFT, {D035E24C-C877-42D7-A795-2A8A339B472F}
{00002000-0000-0010-8000-00AA00389B71}, Microsoft Dolby Digital Plus Decoder MFT, {177C0AFE-900B-48D4-9E4C-57ADD250B3D4}
MFAudioFormat_AAC, Microsoft AAC Audio Decoder MFT, CLSID_CMSAACDecMFT
{00001600-0000-0100-0800-000aa00389b71}, Microsoft AAC Audio Decoder MFT, CLSID_CMSAACDecMFT
MFAudioFormat_WMAudio_Lossless, WMAudio Decoder MFT, CLSID_CWMADecMediaObject
MFAudioFormat_WMAudioV9, WMAudio Decoder MFT, CLSID_CWMADecMediaObject
MFAudioFormat_WMAudioV8, WMAudio Decoder MFT, CLSID_CWMADecMediaObject
MEDIASUBTYPE_MSAUDIO1, WMAudio Decoder MFT, CLSID_CWMADecMediaObject
MEDIASUBTYPE_RAW_AAC1, Microsoft AAC Audio Decoder MFT, CLSID_CMSAACDecMFT
MFAudioFormat_MP3, MP3 Decoder MFT, CLSID_CMP3DecMediaObject
MFAudioFormat_MPEG, Microsoft MPEG Audio Decoder MFT, {70707B39-B2CA-4015-ABEA-F8447D22D88B}
{00000031-0000-0010-8000-00AA00389B71}, GSM ACM Wrapper MFT, {4A76B469-7B66-4DD4-BA2D-DDF244C766DC}
{00000011-0000-0010-8000-00AA00389B71}, IMA ADPCM ACM Wrapper MFT, {A16E1BFF-A80D-48AD-AECD-A35C005685FE}
WMMEDIASUBTYPE_WMSP2, WMSpeech Decoder DMO, CLSID_CWMSPDecMediaObject
MFAudioFormat_MSP1, WMSpeech Decoder DMO, CLSID_CWMSPDecMediaObject
KSDATAFORMAT_SUBTYPE_MULAW, G711 Wrapper MFT, {92B66080-5E2D-449E-90C4-C41F268E5514}
{00000006-0000-0010-8000-00AA00389B71}, A-law Wrapper MFT, {36CB6E0C-78C1-42B2-9943-846262F31786}
KSDATAFORMAT_SUBTYPE_ADPCM, ADPCM ACM Wrapper MFT, {CA34FE0A-5722-43AD-AF23-05F7650257DD}


-------------------------------------
Disabled Media Foundation Transforms
-------------------------------------

[HKEY_LOCAL_MACHINE\Software\Classes\MediaFoundation\Transforms\DoNotUse]

<transform CLSID>



------------------------
Disabled Media Sources
------------------------

[HKEY_LOCAL_MACHINE\Software\Classes\MediaFoundation\MediaSources\DoNotUse]

<media source CLSID>


---------------
EVR Power Information
---------------
Current Setting: {5C67A112-A4C9-483F-B4A7-1D473BECAFDC} (Quality) 
  Quality Flags: 2576
    Enabled:
    Force throttling
    Allow half deinterlace
    Allow scaling
    Decode Power Usage: 100
  Balanced Flags: 1424
    Enabled:
    Force throttling
    Allow batching
    Force half deinterlace
    Force scaling
    Decode Power Usage: 50
  PowerFlags: 1424
    Enabled:
    Force throttling
    Allow batching
    Force half deinterlace
    Force scaling
    Decode Power Usage: 0

---------------
Diagnostics
---------------

Windows Error Reporting:
+++ WER0 +++:
障害バケット 120515602433、種類 4
イベント名: APPCRASH
応答: 使用不可
Cab ID: 0

問題の署名:
P1: svchost.exe_SysMain
P2: 10.0.14393.0
P3: 57899b1c
P4: sysmain.dll
P5: 10.0.14393.0
P6: 5789984b
P7: c0000305
P8: 00000000000b5e5a
P9: 
P10: 

添付ファイル:
\\?\C:\Windows\Temp\WER84A2.tmp.appcompat.txt
\\?\C:\ProgramData\Microsoft\Windows\WER\Temp\WER9CF8.tmp.WERInternalMetadata.xml
C:\ProgramData\Microsoft\Windows\WER\ReportQueue\AppCrash_svchost.exe_SysM_333c8fe1766eab452f6c68ff742dba959d6b4a7_14c00ca7_cab_31979d83\memory.hdmp
C:\ProgramData\Microsoft\Windows\WER\ReportQueue\AppCrash_svchost.exe_SysM_333c8fe1766eab452f6c68ff742dba959d6b4a7_14c00ca7_cab_31979d83\triagedump.dmp

これらのファイルは次の場所にある可能性があります:
C:\ProgramData\Microsoft\Windows\WER\ReportArchive\AppCrash_svchost.exe_SysM_333c8fe1766eab452f6c68ff742dba959d6b4a7_14c00ca7_37c7c068

分析記号: 
解決策を再確認中: 0
レポート ID: 3a07568d-30f1-4c96-9807-3b49a4392b70
レポートの状態: 0
ハッシュされたバケット: bb67b51ec57d3a6ac2f0b946e354f47d
+++ WER1 +++:
障害バケット 、種類 0
イベント名: APPCRASH
応答: 使用不可
Cab ID: 0

問題の署名:
P1: svchost.exe_SysMain
P2: 10.0.14393.0
P3: 57899b1c
P4: sysmain.dll
P5: 10.0.14393.0
P6: 5789984b
P7: c0000305
P8: 00000000000b5e5a
P9: 
P10: 

添付ファイル:
\\?\C:\Windows\Temp\WER84A2.tmp.appcompat.txt
\\?\C:\ProgramData\Microsoft\Windows\WER\Temp\WER9CF8.tmp.WERInternalMetadata.xml
C:\ProgramData\Microsoft\Windows\WER\ReportQueue\AppCrash_svchost.exe_SysM_333c8fe1766eab452f6c68ff742dba959d6b4a7_14c00ca7_cab_31979d83\memory.hdmp
C:\ProgramData\Microsoft\Windows\WER\ReportQueue\AppCrash_svchost.exe_SysM_333c8fe1766eab452f6c68ff742dba959d6b4a7_14c00ca7_cab_31979d83\triagedump.dmp

これらのファイルは次の場所にある可能性があります:
C:\ProgramData\Microsoft\Windows\WER\ReportQueue\AppCrash_svchost.exe_SysM_333c8fe1766eab452f6c68ff742dba959d6b4a7_14c00ca7_cab_31979d83

分析記号: 
解決策を再確認中: 0
レポート ID: 3a07568d-30f1-4c96-9807-3b49a4392b70
レポートの状態: 4
ハッシュされたバケット: 
+++ WER2 +++:
障害バケット 126895850087、種類 5
イベント名: MpTelemetry
応答: 使用不可
Cab ID: 0

問題の署名:
P1: Windows Defender (77BDAF73-B396-481F-9042-AD358843EC24)
P2: 4.10.14393.0
P3: TimeOut
P4: 1.1.13000.0
P5: fixed
P6: 4 / 2049+
P7: 5 / not boot
P8: 
P9: 
P10: 

添付ファイル:
\\?\C:\WINDOWS\TEMP\MPInstrumentation\client_manifest.xml
\\?\C:\ProgramData\Microsoft\Windows\WER\Temp\WERABBC.tmp.WERInternalMetadata.xml

これらのファイルは次の場所にある可能性があります:
C:\ProgramData\Microsoft\Windows\WER\ReportQueue\NonCritical_Windows Defender_de59dd1fff15e63abe6561c1144d61ae84c534_00000000_cab_1f3daddf

分析記号: 
解決策を再確認中: 0
レポート ID: e4f71b45-6dd3-11e6-bf9d-c0d9623e576d
レポートの状態: 0
ハッシュされたバケット: d24a57609f878d960eb55047a818d812
+++ WER3 +++:
障害バケット 、種類 0
イベント名: MpTelemetry
応答: 使用不可
Cab ID: 0

問題の署名:
P1: Windows Defender (77BDAF73-B396-481F-9042-AD358843EC24)
P2: 4.10.14393.0
P3: TimeOut
P4: 1.1.13000.0
P5: fixed
P6: 4 / 2049+
P7: 5 / not boot
P8: 
P9: 
P10: 

添付ファイル:
\\?\C:\WINDOWS\TEMP\MPInstrumentation\client_manifest.xml
\\?\C:\ProgramData\Microsoft\Windows\WER\Temp\WERABBC.tmp.WERInternalMetadata.xml

これらのファイルは次の場所にある可能性があります:
C:\ProgramData\Microsoft\Windows\WER\ReportQueue\NonCritical_Windows Defender_de59dd1fff15e63abe6561c1144d61ae84c534_00000000_cab_1f3daddf

分析記号: 
解決策を再確認中: 0
レポート ID: e4f71b45-6dd3-11e6-bf9d-c0d9623e576d
レポートの状態: 4
ハッシュされたバケット: 
+++ WER4 +++:
障害バケット 129202640201、種類 5
イベント名: RADAR_PRE_LEAK_64
応答: 使用不可
Cab ID: 0

問題の署名:
P1: Warframe.x64.exe
P2: 2016.8.26.11
P3: 10.0.14393.2.0.0
P4: 
P5: 
P6: 
P7: 
P8: 
P9: 
P10: 

添付ファイル:
\\?\C:\Users\tomokazu\AppData\Local\Temp\RDRF844.tmp\empty.txt
\\?\C:\ProgramData\Microsoft\Windows\WER\Temp\WERF900.tmp.WERInternalMetadata.xml

これらのファイルは次の場所にある可能性があります:


分析記号: 
解決策を再確認中: 0
レポート ID: cb15c069-6d9b-11e6-bf9d-c0d9623e576d
レポートの状態: 0
ハッシュされたバケット: a7d0b5c1d737b8bc15d7f0467e35844b
+++ WER5 +++:
障害バケット 108110732233、種類 1
イベント名: APPCRASH
応答: 使用不可
Cab ID: 0

問題の署名:
P1: tos.exe
P2: 1.0.0.1
P3: 57186ecc
P4: tos.exe
P5: 1.0.0.1
P6: 57186ecc
P7: c0000005
P8: 00040789
P9: 
P10: 

添付ファイル:
\\?\C:\ProgramData\Microsoft\Windows\WER\Temp\WERD440.tmp.WERInternalMetadata.xml

これらのファイルは次の場所にある可能性があります:
C:\ProgramData\Microsoft\Windows\WER\ReportArchive\AppCrash_tos.exe_e8e480644c0183ea5a329d413828a518b317b5c_e7bb470b_297fdc4e

分析記号: 
解決策を再確認中: 0
レポート ID: c03e58fc-52ae-4315-8136-52620835bf2a
レポートの状態: 1
ハッシュされたバケット: 58b9903b3d86c935c9bbf2b88d4e2583
+++ WER6 +++:
障害バケット 108110732233、種類 1
イベント名: APPCRASH
応答: 使用不可
Cab ID: 0

問題の署名:
P1: tos.exe
P2: 1.0.0.1
P3: 57186ecc
P4: tos.exe
P5: 1.0.0.1
P6: 57186ecc
P7: c0000005
P8: 00040789
P9: 
P10: 

添付ファイル:
\\?\C:\ProgramData\Microsoft\Windows\WER\Temp\WERB658.tmp.WERInternalMetadata.xml

これらのファイルは次の場所にある可能性があります:
C:\ProgramData\Microsoft\Windows\WER\ReportArchive\AppCrash_tos.exe_e8e480644c0183ea5a329d413828a518b317b5c_e7bb470b_34cbc22f

分析記号: 
解決策を再確認中: 0
レポート ID: 6f9a6009-4253-47eb-a8d8-480a6ad5746f
レポートの状態: 1
ハッシュされたバケット: 58b9903b3d86c935c9bbf2b88d4e2583
+++ WER7 +++:
障害バケット 129166460868、種類 5
イベント名: RADAR_PRE_LEAK_WOW64
応答: 使用不可
Cab ID: 0

問題の署名:
P1: Client_tos.exe
P2: 0.0.0.0
P3: 10.0.14393.2.0.0
P4: 
P5: 
P6: 
P7: 
P8: 
P9: 
P10: 

添付ファイル:
\\?\C:\Users\tomokazu\AppData\Local\Temp\RDRC8F9.tmp\empty.txt
\\?\C:\ProgramData\Microsoft\Windows\WER\Temp\WERCB2C.tmp.WERInternalMetadata.xml

これらのファイルは次の場所にある可能性があります:


分析記号: 
解決策を再確認中: 0
レポート ID: c38e440b-6d2b-11e6-bf9d-c0d9623e576d
レポートの状態: 0
ハッシュされたバケット: 1da9ad55c7f644a88326215143a6cb86
+++ WER8 +++:
障害バケット 133364347276、種類 5
イベント名: MoAppHang
応答: 使用不可
Cab ID: 0

問題の署名:
P1: Microsoft.Windows.Photos_16.722.10060.0_x64__8wekyb3d8bbwe
P2: praid:App
P3: 1.0.1607.22006
P4: 57929979
P5: 2264
P6: 4194304
P7: 
P8: 
P9: 
P10: 

添付ファイル:
\\?\C:\ProgramData\Microsoft\Windows\WER\Temp\WER2007.tmp.WERInternalMetadata.xml

これらのファイルは次の場所にある可能性があります:
C:\ProgramData\Microsoft\Windows\WER\ReportArchive\AppHang_Microsoft.Window_811fbc68872aaa60166937f9ded762246c8b6f23_39091f66_267c22d6

分析記号: 
解決策を再確認中: 0
レポート ID: 776f0399-6b7a-11e6-bf9d-c0d9623e576d
レポートの状態: 0
ハッシュされたバケット: 69ad1f0aea7fdbdcab21a60d4557f687
+++ WER9 +++:
障害バケット 129166068919、種類 5
イベント名: RADAR_PRE_LEAK_WOW64
応答: 使用不可
Cab ID: 0

問題の署名:
P1: pso2.exe
P2: 0.0.0.0
P3: 10.0.14393.2.0.0
P4: 
P5: 
P6: 
P7: 
P8: 
P9: 
P10: 

添付ファイル:
\\?\C:\Users\tomokazu\AppData\Local\Temp\RDRA153.tmp\empty.txt
\\?\C:\ProgramData\Microsoft\Windows\WER\Temp\WERA24E.tmp.WERInternalMetadata.xml

これらのファイルは次の場所にある可能性があります:


分析記号: 
解決策を再確認中: 0
レポート ID: 962c70c0-6ab1-11e6-bf9d-c0d9623e576d
レポートの状態: 0
ハッシュされたバケット: 6d2bbd383a979e2267ad8f85b76330d4
