Engine\Binaries\Win64\CrashReportClient.exe	2016-05-16T10:12:18.177Z
Engine\Binaries\Win64\UE4Game.exe	2016-05-16T10:10:48.483Z
tokkan.exe	2016-09-15T12:54:38.286Z
Engine\Extras\Redist\en-us\UE4PrereqSetup_x64.exe	2016-05-16T10:08:09.685Z
Engine\Binaries\ThirdParty\PhysX\PhysX-3.3\Win64\VS2015\PhysX3PROFILE_x64.dll	2016-05-16T10:13:49.947Z
Engine\Binaries\ThirdParty\PhysX\PhysX-3.3\Win64\VS2015\PhysX3CommonPROFILE_x64.dll	2016-05-16T10:13:50.090Z
Engine\Binaries\ThirdParty\PhysX\PhysX-3.3\Win64\VS2015\PhysX3CookingPROFILE_x64.dll	2016-05-16T10:13:50.011Z
Engine\Binaries\ThirdParty\PhysX\PhysX-3.3\Win64\VS2015\nvToolsExt64_1.dll	2016-05-16T10:13:50.426Z
Engine\Binaries\ThirdParty\PhysX\APEX-1.3\Win64\VS2015\APEX_ClothingPROFILE_x64.dll	2016-05-16T10:13:51.448Z
Engine\Binaries\ThirdParty\PhysX\APEX-1.3\Win64\VS2015\APEX_DestructiblePROFILE_x64.dll	2016-05-16T10:13:51.392Z
Engine\Binaries\ThirdParty\PhysX\APEX-1.3\Win64\VS2015\APEX_LegacyPROFILE_x64.dll	2016-05-16T10:13:51.268Z
Engine\Binaries\ThirdParty\PhysX\APEX-1.3\Win64\VS2015\ApexFrameworkPROFILE_x64.dll	2016-05-16T10:13:51.187Z
Engine\Binaries\ThirdParty\Ogg\Win64\VS2015\libogg_64.dll	2016-05-16T10:13:53.943Z
Engine\Binaries\ThirdParty\Vorbis\Win64\VS2015\libvorbis_64.dll	2016-05-16T10:13:20.315Z
Engine\Binaries\ThirdParty\Vorbis\Win64\VS2015\libvorbisfile_64.dll	2016-05-16T10:13:20.037Z
Engine\Binaries\ThirdParty\OpenVR\OpenVRv0_9_12\Win64\openvr_api.dll	2016-05-16T10:13:52.055Z
Engine\Binaries\ThirdParty\Steamworks\Steamv132\Win64\steam_api64.dll	2016-05-16T10:13:49.332Z
Engine\Build\Build.version	2016-05-16T10:10:40.011Z
Engine\Content\Slate\Checkerboard.png	2016-05-16T10:09:12.908Z
Engine\Content\Slate\Common\BoxShadow.png	2016-05-16T10:09:12.906Z
Engine\Content\Slate\Common\Button.png	2016-05-16T10:09:12.905Z
Engine\Content\Slate\Common\Button_Disabled.png	2016-05-16T10:09:12.903Z
Engine\Content\Slate\Common\Button_Hovered.png	2016-05-16T10:09:12.899Z
Engine\Content\Slate\Common\Button_Pressed.png	2016-05-16T10:09:12.898Z
Engine\Content\Slate\Common\Check.png	2016-05-16T10:09:12.897Z
Engine\Content\Slate\Common\CheckBox.png	2016-05-16T10:09:12.896Z
Engine\Content\Slate\Common\CheckBox_Checked.png	2016-05-16T10:09:12.845Z
Engine\Content\Slate\Common\CheckBox_Checked_Hovered.png	2016-05-16T10:09:12.843Z
Engine\Content\Slate\Common\CheckBox_Hovered.png	2016-05-16T10:09:12.840Z
Engine\Content\Slate\Common\CheckBox_Undetermined.png	2016-05-16T10:09:12.838Z
Engine\Content\Slate\Common\CheckBox_Undetermined_Hovered.png	2016-05-16T10:09:12.776Z
Engine\Content\Slate\Common\Checker.png	2016-05-16T10:09:12.774Z
Engine\Content\Slate\Common\Circle.png	2016-05-16T10:09:12.615Z
Engine\Content\Slate\Common\ColorPicker_Mode_16x.png	2016-05-16T10:09:12.613Z
Engine\Content\Slate\Common\ColorPicker_Separator.png	2016-05-16T10:09:12.567Z
Engine\Content\Slate\Common\ColorPicker_SliderHandle.png	2016-05-16T10:09:12.566Z
Engine\Content\Slate\Common\ColorSpectrum.png	2016-05-16T10:09:12.565Z
Engine\Content\Slate\Common\ColorWheel.png	2016-05-16T10:09:12.563Z
Engine\Content\Slate\Common\ColumnHeader.png	2016-05-16T10:09:12.445Z
Engine\Content\Slate\Common\ColumnHeaderMenuButton_Hovered.png	2016-05-16T10:09:12.440Z
Engine\Content\Slate\Common\ColumnHeaderMenuButton_Normal.png	2016-05-16T10:09:12.410Z
Engine\Content\Slate\Common\ColumnHeader_Arrow.png	2016-05-16T10:09:12.442Z
Engine\Content\Slate\Common\ColumnHeader_Hovered.png	2016-05-16T10:09:12.441Z
Engine\Content\Slate\Common\ComboArrow.png	2016-05-16T10:09:12.409Z
Engine\Content\Slate\Common\CursorPing.png	2016-05-16T10:09:12.408Z
Engine\Content\Slate\Common\DebugBorder.PNG	2016-05-16T10:09:12.406Z
Engine\Content\Slate\Common\Delimiter.png	2016-05-16T10:09:12.372Z
Engine\Content\Slate\Common\DownArrow.png	2016-05-16T10:09:12.371Z
Engine\Content\Slate\Common\DropZoneIndicator_Above.png	2016-05-16T10:09:12.370Z
Engine\Content\Slate\Common\DropZoneIndicator_Below.png	2016-05-16T10:09:12.234Z
Engine\Content\Slate\Common\DropZoneIndicator_Onto.png	2016-05-16T10:09:12.177Z
Engine\Content\Slate\Common\EditableTextSelectionBackground.png	2016-05-16T10:09:12.176Z
Engine\Content\Slate\Common\EventMessage_Default.png	2016-05-16T10:09:12.174Z
Engine\Content\Slate\Common\ExpansionButton_CloseOverlay.png	2016-05-16T10:09:12.173Z
Engine\Content\Slate\Common\GroupBorder.png	2016-05-16T10:09:12.078Z
Engine\Content\Slate\Common\HeaderSplitterGrip.PNG	2016-05-16T10:09:12.077Z
Engine\Content\Slate\Common\LastColumnHeader_Hovered.png	2016-05-16T10:09:12.075Z
Engine\Content\Slate\Common\NoiseBackground.png	2016-05-16T10:09:11.772Z
Engine\Content\Slate\Common\ProgressBar_Background.png	2016-05-16T10:09:11.665Z
Engine\Content\Slate\Common\ProgressBar_Fill.png	2016-05-16T10:09:11.664Z
Engine\Content\Slate\Common\ProgressBar_Marquee.PNG	2016-05-16T10:09:11.663Z
Engine\Content\Slate\Common\RadioButton_SelectedBack_16x.png	2016-05-16T10:09:11.497Z
Engine\Content\Slate\Common\RadioButton_Selected_16x.png	2016-05-16T10:09:11.662Z
Engine\Content\Slate\Common\RadioButton_Unselected_16x.png	2016-05-16T10:09:11.496Z
Engine\Content\Slate\Common\RoundedSelection_16x.PNG	2016-05-16T10:09:11.494Z
Engine\Content\Slate\Common\Scrollbar_Background_Horizontal.png	2016-05-16T10:09:11.229Z
Engine\Content\Slate\Common\Scrollbar_Background_Vertical.png	2016-05-16T10:09:11.091Z
Engine\Content\Slate\Common\Scrollbar_Thumb.png	2016-05-16T10:09:11.087Z
Engine\Content\Slate\Common\ScrollBorderShadowBottom.png	2016-05-16T10:09:11.085Z
Engine\Content\Slate\Common\ScrollBorderShadowTop.png	2016-05-16T10:09:11.084Z
Engine\Content\Slate\Common\ScrollBoxShadowBottom.png	2016-05-16T10:09:10.955Z
Engine\Content\Slate\Common\ScrollBoxShadowLeft.png	2016-05-16T10:09:10.953Z
Engine\Content\Slate\Common\ScrollBoxShadowRight.png	2016-05-16T10:09:10.745Z
Engine\Content\Slate\Common\ScrollBoxShadowTop.png	2016-05-16T10:09:10.506Z
Engine\Content\Slate\Common\SearchGlass.PNG	2016-05-16T10:09:10.340Z
Engine\Content\Slate\Common\Selection.png	2016-05-16T10:09:10.339Z
Engine\Content\Slate\Common\Selector.png	2016-05-16T10:09:10.337Z
Engine\Content\Slate\Common\Separator.png	2016-05-16T10:09:10.336Z
Engine\Content\Slate\Common\SmallCheck.png	2016-05-16T10:09:10.243Z
Engine\Content\Slate\Common\SmallCheckBox.png	2016-05-16T10:09:10.242Z
Engine\Content\Slate\Common\SmallCheckBox_Checked.png	2016-05-16T10:09:10.241Z
Engine\Content\Slate\Common\SmallCheckBox_Checked_Hovered.png	2016-05-16T10:09:10.240Z
Engine\Content\Slate\Common\SmallCheckBox_Hovered.png	2016-05-16T10:09:10.200Z
Engine\Content\Slate\Common\SmallCheckBox_Undetermined.png	2016-05-16T10:09:10.122Z
Engine\Content\Slate\Common\SmallCheckBox_Undetermined_Hovered.png	2016-05-16T10:09:10.121Z
Engine\Content\Slate\Common\SortDownArrow.png	2016-05-16T10:09:10.120Z
Engine\Content\Slate\Common\SortDownArrows.png	2016-05-16T10:09:10.025Z
Engine\Content\Slate\Common\SortUpArrow.png	2016-05-16T10:09:10.021Z
Engine\Content\Slate\Common\SortUpArrows.png	2016-05-16T10:09:10.019Z
Engine\Content\Slate\Common\SpinArrows.png	2016-05-16T10:09:10.017Z
Engine\Content\Slate\Common\Spinbox.PNG	2016-05-16T10:09:09.907Z
Engine\Content\Slate\Common\Spinbox_Fill.png	2016-05-16T10:09:09.906Z
Engine\Content\Slate\Common\Spinbox_Fill_Hovered.png	2016-05-16T10:09:09.903Z
Engine\Content\Slate\Common\Spinbox_Hovered.png	2016-05-16T10:09:09.902Z
Engine\Content\Slate\Common\SplitterHandleHighlight.png	2016-05-16T10:09:09.846Z
Engine\Content\Slate\Common\SubmenuArrow.png	2016-05-16T10:09:09.844Z
Engine\Content\Slate\Common\TableViewHeader.png	2016-05-16T10:09:09.828Z
Engine\Content\Slate\Common\TableViewMajorColumn.png	2016-05-16T10:09:09.739Z
Engine\Content\Slate\Common\TextBlockHighlightShape.png	2016-05-16T10:09:09.623Z
Engine\Content\Slate\Common\TextBlockHighlightShape_Empty.png	2016-05-16T10:09:09.622Z
Engine\Content\Slate\Common\TextBox.png	2016-05-16T10:09:09.522Z
Engine\Content\Slate\Common\TextBoxLabelBorder.PNG	2016-05-16T10:09:09.458Z
Engine\Content\Slate\Common\TextBox_Hovered.png	2016-05-16T10:09:09.521Z
Engine\Content\Slate\Common\TextBox_ReadOnly.png	2016-05-16T10:09:09.463Z
Engine\Content\Slate\Common\TextBox_Special.png	2016-05-16T10:09:09.462Z
Engine\Content\Slate\Common\TextBox_Special_Hovered.png	2016-05-16T10:09:09.460Z
Engine\Content\Slate\Common\Throbber_Piece.png	2016-05-16T10:09:09.448Z
Engine\Content\Slate\Common\TreeArrow_Collapsed.png	2016-05-16T10:09:09.447Z
Engine\Content\Slate\Common\TreeArrow_Collapsed_Hovered.png	2016-05-16T10:09:09.445Z
Engine\Content\Slate\Common\TreeArrow_Expanded.png	2016-05-16T10:09:09.444Z
Engine\Content\Slate\Common\TreeArrow_Expanded_Hovered.png	2016-05-16T10:09:09.418Z
Engine\Content\Slate\Common\UpArrow.png	2016-05-16T10:09:09.417Z
Engine\Content\Slate\Common\VolumeControl_High.png	2016-05-16T10:09:09.416Z
Engine\Content\Slate\Common\VolumeControl_Low.png	2016-05-16T10:09:09.414Z
Engine\Content\Slate\Common\VolumeControl_Mid.png	2016-05-16T10:09:09.352Z
Engine\Content\Slate\Common\VolumeControl_Muted.png	2016-05-16T10:09:09.275Z
Engine\Content\Slate\Common\VolumeControl_Off.png	2016-05-16T10:09:09.273Z
Engine\Content\Slate\Common\X.PNG	2016-05-16T10:09:08.576Z
Engine\Content\Slate\Common\Window\WindowBackground.png	2016-05-16T10:09:09.272Z
Engine\Content\Slate\Common\Window\WindowBorder.png	2016-05-16T10:09:09.151Z
Engine\Content\Slate\Common\Window\WindowButton_Close_Hovered.png	2016-05-16T10:09:09.149Z
Engine\Content\Slate\Common\Window\WindowButton_Close_Normal.png	2016-05-16T10:09:09.147Z
Engine\Content\Slate\Common\Window\WindowButton_Close_Pressed.png	2016-05-16T10:09:09.146Z
Engine\Content\Slate\Common\Window\WindowButton_Maximize_Disabled.png	2016-05-16T10:09:08.911Z
Engine\Content\Slate\Common\Window\WindowButton_Maximize_Hovered.png	2016-05-16T10:09:08.909Z
Engine\Content\Slate\Common\Window\WindowButton_Maximize_Normal.png	2016-05-16T10:09:08.907Z
Engine\Content\Slate\Common\Window\WindowButton_Maximize_Pressed.png	2016-05-16T10:09:08.898Z
Engine\Content\Slate\Common\Window\WindowButton_Minimize_Disabled.png	2016-05-16T10:09:08.897Z
Engine\Content\Slate\Common\Window\WindowButton_Minimize_Hovered.png	2016-05-16T10:09:08.895Z
Engine\Content\Slate\Common\Window\WindowButton_Minimize_Normal.png	2016-05-16T10:09:08.894Z
Engine\Content\Slate\Common\Window\WindowButton_Minimize_Pressed.png	2016-05-16T10:09:08.829Z
Engine\Content\Slate\Common\Window\WindowButton_Restore_Hovered.png	2016-05-16T10:09:08.827Z
Engine\Content\Slate\Common\Window\WindowButton_Restore_Normal.png	2016-05-16T10:09:08.826Z
Engine\Content\Slate\Common\Window\WindowButton_Restore_Pressed.png	2016-05-16T10:09:08.825Z
Engine\Content\Slate\Common\Window\WindowOutline.png	2016-05-16T10:09:08.725Z
Engine\Content\Slate\Common\Window\WindowTitle.png	2016-05-16T10:09:08.724Z
Engine\Content\Slate\Common\Window\WindowTitle_Flashing.png	2016-05-16T10:09:08.703Z
Engine\Content\Slate\Common\Window\WindowTitle_Inactive.png	2016-05-16T10:09:08.577Z
Engine\Content\Slate\CrashTracker\MouseCursor.png	2016-05-16T10:09:08.535Z
Engine\Content\Slate\CrashTracker\Record.png	2016-05-16T10:09:08.534Z
Engine\Content\Slate\Docking\AppTabContentArea.png	2016-05-16T10:09:08.365Z
Engine\Content\Slate\Docking\AppTabWellSeparator.png	2016-05-16T10:09:08.352Z
Engine\Content\Slate\Docking\AppTab_Active.png	2016-05-16T10:09:08.532Z
Engine\Content\Slate\Docking\AppTab_ColorOverlay.png	2016-05-16T10:09:08.491Z
Engine\Content\Slate\Docking\AppTab_Foreground.png	2016-05-16T10:09:08.490Z
Engine\Content\Slate\Docking\AppTab_Hovered.png	2016-05-16T10:09:08.489Z
Engine\Content\Slate\Docking\AppTab_Inactive.png	2016-05-16T10:09:08.487Z
Engine\Content\Slate\Docking\CloseApp_Hovered.png	2016-05-16T10:09:08.351Z
Engine\Content\Slate\Docking\CloseApp_Normal.png	2016-05-16T10:09:08.350Z
Engine\Content\Slate\Docking\CloseApp_Pressed.png	2016-05-16T10:09:08.236Z
Engine\Content\Slate\Docking\DockingIndicator_Center.png	2016-05-16T10:09:08.235Z
Engine\Content\Slate\Docking\OuterDockingIndicator.png	2016-05-16T10:09:08.232Z
Engine\Content\Slate\Docking\ShowTabwellButton_Hovered.png	2016-05-16T10:09:08.230Z
Engine\Content\Slate\Docking\ShowTabwellButton_Normal.png	2016-05-16T10:09:08.177Z
Engine\Content\Slate\Docking\ShowTabwellButton_Pressed.png	2016-05-16T10:09:08.176Z
Engine\Content\Slate\Docking\TabContentArea.png	2016-05-16T10:09:07.926Z
Engine\Content\Slate\Docking\TabWellSeparator.png	2016-05-16T10:09:07.925Z
Engine\Content\Slate\Docking\Tab_Active.png	2016-05-16T10:09:08.174Z
Engine\Content\Slate\Docking\Tab_ColorOverlay.png	2016-05-16T10:09:08.172Z
Engine\Content\Slate\Docking\Tab_Foreground.png	2016-05-16T10:09:08.066Z
Engine\Content\Slate\Docking\Tab_Hovered.png	2016-05-16T10:09:08.065Z
Engine\Content\Slate\Docking\Tab_Inactive.png	2016-05-16T10:09:08.064Z
Engine\Content\Slate\Fonts\DroidSansFallback.ttf	2016-05-16T10:09:07.924Z
Engine\Content\Slate\Fonts\DroidSansMono.ttf	2016-05-16T10:09:07.842Z
Engine\Content\Slate\Fonts\Google_Android_License.txt	2016-05-16T10:09:07.836Z
Engine\Content\Slate\Fonts\Last Resort Font.tps	2016-05-16T10:09:07.832Z
Engine\Content\Slate\Fonts\LastResort.ttf	2016-05-16T10:09:07.824Z
Engine\Content\Slate\Fonts\Nanum Fonts License.rtf	2016-05-16T10:09:07.762Z
Engine\Content\Slate\Fonts\NanumGothic TTF.tps	2016-05-16T10:09:07.734Z
Engine\Content\Slate\Fonts\NanumGothic.ttf	2016-05-16T10:09:07.721Z
Engine\Content\Slate\Fonts\Noto.tps	2016-05-16T10:09:07.693Z
Engine\Content\Slate\Fonts\NotoNaskhArabicUI-Regular.ttf	2016-05-16T10:09:07.535Z
Engine\Content\Slate\Fonts\Roboto-Bold.ttf	2016-05-16T10:09:07.527Z
Engine\Content\Slate\Fonts\Roboto-Light.ttf	2016-05-16T10:09:07.334Z
Engine\Content\Slate\Fonts\Roboto-Regular.ttf	2016-05-16T10:09:07.307Z
Engine\Content\Slate\Fonts\Roboto.tps	2016-05-16T10:09:07.303Z
Engine\Content\Slate\Icons\BackIcon.png	2016-05-16T10:09:07.295Z
Engine\Content\Slate\Icons\Cross_12x.png	2016-05-16T10:09:07.255Z
Engine\Content\Slate\Icons\cursor_cardinal_cross.png	2016-05-16T10:09:07.232Z
Engine\Content\Slate\Icons\cursor_grab.png	2016-05-16T10:09:07.231Z
Engine\Content\Slate\Icons\DefaultAppIcon.png	2016-05-16T10:09:07.229Z
Engine\Content\Slate\Icons\denied_16x.png	2016-05-16T10:09:07.189Z
Engine\Content\Slate\Icons\ellipsis_12x.png	2016-05-16T10:09:07.183Z
Engine\Content\Slate\Icons\Empty_14x.png	2016-05-16T10:09:07.176Z
Engine\Content\Slate\Icons\eyedropper_16px.png	2016-05-16T10:09:07.172Z
Engine\Content\Slate\Icons\icon_Downloads_16x.png	2016-05-16T10:09:07.132Z
Engine\Content\Slate\Icons\icon_error_16x.png	2016-05-16T10:09:07.131Z
Engine\Content\Slate\Icons\icon_generic_toolbar.png	2016-05-16T10:09:07.085Z
Engine\Content\Slate\Icons\icon_help_16x.png	2016-05-16T10:09:06.932Z
Engine\Content\Slate\Icons\icon_info_16x.png	2016-05-16T10:09:06.885Z
Engine\Content\Slate\Icons\icon_redo_16px.png	2016-05-16T10:09:06.885Z
Engine\Content\Slate\Icons\icon_rename_12x.png	2016-05-16T10:09:06.884Z
Engine\Content\Slate\Icons\icon_tab_toolbar_16px.png	2016-05-16T10:09:06.882Z
Engine\Content\Slate\Icons\icon_tab_WidgetReflector_16x.png	2016-05-16T10:09:06.735Z
Engine\Content\Slate\Icons\icon_tab_WidgetReflector_40x.png	2016-05-16T10:09:06.734Z
Engine\Content\Slate\Icons\icon_undo_16px.png	2016-05-16T10:09:06.733Z
Engine\Content\Slate\Icons\icon_warning_16x.png	2016-05-16T10:09:06.731Z
Engine\Content\Slate\Icons\NextIcon.png	2016-05-16T10:09:06.668Z
Engine\Content\Slate\Icons\notificationlist_fail.png	2016-05-16T10:09:06.666Z
Engine\Content\Slate\Icons\notificationlist_success.png	2016-05-16T10:09:06.661Z
Engine\Content\Slate\Icons\PlusSymbol_12x.png	2016-05-16T10:09:06.567Z
Engine\Content\Slate\Icons\toolbar_expand_16x.png	2016-05-16T10:09:06.446Z
Engine\Content\Slate\Icons\TrashCan.png	2016-05-16T10:09:06.445Z
Engine\Content\Slate\Icons\TrashCan_Small.png	2016-05-16T10:09:06.264Z
Engine\Content\Slate\MessageLog\Log_Error.png	2016-05-16T10:09:06.192Z
Engine\Content\Slate\MessageLog\Log_Note.png	2016-05-16T10:09:06.191Z
Engine\Content\Slate\MessageLog\Log_Warning.png	2016-05-16T10:09:06.134Z
Engine\Content\Slate\Old\Border.PNG	2016-05-16T10:09:06.133Z
Engine\Content\Slate\Old\Button.png	2016-05-16T10:09:06.131Z
Engine\Content\Slate\Old\DashedBorder.png	2016-05-16T10:09:06.115Z
Engine\Content\Slate\Old\HyperlinkDotted.png	2016-05-16T10:09:06.106Z
Engine\Content\Slate\Old\HyperlinkUnderline.png	2016-05-16T10:09:06.088Z
Engine\Content\Slate\Old\Menu_Background.png	2016-05-16T10:09:06.071Z
Engine\Content\Slate\Old\Menu_Background_Inverted_Border_Bold.png	2016-05-16T10:09:06.014Z
Engine\Content\Slate\Old\Notification_Border_Flash.png	2016-05-16T10:09:06.013Z
Engine\Content\Slate\Old\ToolBar_Background.png	2016-05-16T10:09:06.012Z
Engine\Content\Slate\Old\ToolTip_Background.png	2016-05-16T10:09:05.859Z
Engine\Content\Slate\Old\ToolTip_BrightBackground.png	2016-05-16T10:09:05.852Z
Engine\Content\Slate\Old\White.png	2016-05-16T10:09:05.851Z
Engine\Content\Slate\Testing\BrushWireframe.png	2016-05-16T10:09:05.849Z
Engine\Content\Slate\Testing\DefaultPawn_16px.png	2016-05-16T10:09:05.751Z
Engine\Content\Slate\Testing\FlatColorSquare.png	2016-05-16T10:09:05.750Z
Engine\Content\Slate\Testing\GammaReference.png	2016-05-16T10:09:05.507Z
Engine\Content\Slate\Testing\Hyperlink.png	2016-05-16T10:09:05.506Z
Engine\Content\Slate\Testing\Lit.png	2016-05-16T10:09:05.473Z
Engine\Content\Slate\Testing\NewLevelBlank.png	2016-05-16T10:09:05.471Z
Engine\Content\Slate\Testing\TestRotation.png	2016-05-16T10:09:05.428Z
Engine\Content\Slate\Testing\UE4Icon.png	2016-05-16T10:09:05.427Z
Engine\Content\Slate\Testing\Unlit.png	2016-05-16T10:09:05.309Z
Engine\Content\Slate\Testing\Wireframe.png	2016-05-16T10:09:05.308Z
Engine\Content\Slate\Testing\Fonts\Roboto-BlackItalic.ttf	2016-05-16T10:09:05.748Z
Engine\Content\Slate\Testing\Fonts\Roboto-BoldItalic.ttf	2016-05-16T10:09:05.553Z
Engine\Content\Slate\Testing\Fonts\Roboto-Italic.ttf	2016-05-16T10:09:05.511Z
Engine\Content\Slate\Tutorials\TutorialBorder.png	2016-05-16T10:09:05.273Z
Engine\Content\Slate\Tutorials\TutorialShadow.png	2016-05-16T10:09:05.195Z
Engine\Shaders\StandaloneRenderer\D3D\GammaCorrectionCommon.hlsl	2016-05-16T10:06:00.996Z
Engine\Shaders\StandaloneRenderer\D3D\SlateDefaultVertexShader.hlsl	2016-05-16T10:06:00.991Z
Engine\Shaders\StandaloneRenderer\D3D\SlateElementPixelShader.hlsl	2016-05-16T10:06:00.988Z
Engine\Shaders\StandaloneRenderer\OpenGL\SlateElementPixelShader.glsl	2016-05-16T10:06:00.984Z
Engine\Shaders\StandaloneRenderer\OpenGL\SlateVertexShader.glsl	2016-05-16T10:06:00.976Z
Engine\Shaders\StandaloneRenderer\OpenGL\SplashFragmentShader.glsl	2016-05-16T10:06:00.964Z
Engine\Shaders\StandaloneRenderer\OpenGL\SplashVertexShader.glsl	2016-05-16T10:06:00.959Z
Engine\Content\Internationalization\icudt53l\cnvalias.icu	2016-05-16T10:09:45.271Z
Engine\Content\Internationalization\icudt53l\confusables.cfu	2016-05-16T10:09:45.241Z
Engine\Content\Internationalization\icudt53l\en.res	2016-05-16T10:09:45.040Z
Engine\Content\Internationalization\icudt53l\en_001.res	2016-05-16T10:09:45.035Z
Engine\Content\Internationalization\icudt53l\en_150.res	2016-05-16T10:09:45.034Z
Engine\Content\Internationalization\icudt53l\en_AG.res	2016-05-16T10:09:45.033Z
Engine\Content\Internationalization\icudt53l\en_AI.res	2016-05-16T10:09:45.032Z
Engine\Content\Internationalization\icudt53l\en_AS.res	2016-05-16T10:09:45.031Z
Engine\Content\Internationalization\icudt53l\en_AU.res	2016-05-16T10:09:45.030Z
Engine\Content\Internationalization\icudt53l\en_BB.res	2016-05-16T10:09:45.025Z
Engine\Content\Internationalization\icudt53l\en_BE.res	2016-05-16T10:09:45.024Z
Engine\Content\Internationalization\icudt53l\en_BM.res	2016-05-16T10:09:45.023Z
Engine\Content\Internationalization\icudt53l\en_BS.res	2016-05-16T10:09:45.022Z
Engine\Content\Internationalization\icudt53l\en_BW.res	2016-05-16T10:09:45.020Z
Engine\Content\Internationalization\icudt53l\en_BZ.res	2016-05-16T10:09:45.017Z
Engine\Content\Internationalization\icudt53l\en_CA.res	2016-05-16T10:09:45.015Z
Engine\Content\Internationalization\icudt53l\en_CC.res	2016-05-16T10:09:45.010Z
Engine\Content\Internationalization\icudt53l\en_CK.res	2016-05-16T10:09:45.009Z
Engine\Content\Internationalization\icudt53l\en_CM.res	2016-05-16T10:09:45.008Z
Engine\Content\Internationalization\icudt53l\en_CX.res	2016-05-16T10:09:45.007Z
Engine\Content\Internationalization\icudt53l\en_DG.res	2016-05-16T10:09:45.006Z
Engine\Content\Internationalization\icudt53l\en_DM.res	2016-05-16T10:09:45.005Z
Engine\Content\Internationalization\icudt53l\en_ER.res	2016-05-16T10:09:45.004Z
Engine\Content\Internationalization\icudt53l\en_FJ.res	2016-05-16T10:09:45.003Z
Engine\Content\Internationalization\icudt53l\en_FK.res	2016-05-16T10:09:45.002Z
Engine\Content\Internationalization\icudt53l\en_FM.res	2016-05-16T10:09:45.001Z
Engine\Content\Internationalization\icudt53l\en_GB.res	2016-05-16T10:09:45.000Z
Engine\Content\Internationalization\icudt53l\en_GD.res	2016-05-16T10:09:44.999Z
Engine\Content\Internationalization\icudt53l\en_GG.res	2016-05-16T10:09:44.998Z
Engine\Content\Internationalization\icudt53l\en_GH.res	2016-05-16T10:09:44.997Z
Engine\Content\Internationalization\icudt53l\en_GI.res	2016-05-16T10:09:44.996Z
Engine\Content\Internationalization\icudt53l\en_GM.res	2016-05-16T10:09:44.994Z
Engine\Content\Internationalization\icudt53l\en_GU.res	2016-05-16T10:09:44.994Z
Engine\Content\Internationalization\icudt53l\en_GY.res	2016-05-16T10:09:44.992Z
Engine\Content\Internationalization\icudt53l\en_HK.res	2016-05-16T10:09:44.991Z
Engine\Content\Internationalization\icudt53l\en_IE.res	2016-05-16T10:09:44.985Z
Engine\Content\Internationalization\icudt53l\en_IM.res	2016-05-16T10:09:44.980Z
Engine\Content\Internationalization\icudt53l\en_IN.res	2016-05-16T10:09:44.979Z
Engine\Content\Internationalization\icudt53l\en_IO.res	2016-05-16T10:09:44.975Z
Engine\Content\Internationalization\icudt53l\en_JE.res	2016-05-16T10:09:44.972Z
Engine\Content\Internationalization\icudt53l\en_JM.res	2016-05-16T10:09:44.971Z
Engine\Content\Internationalization\icudt53l\en_KE.res	2016-05-16T10:09:44.970Z
Engine\Content\Internationalization\icudt53l\en_KI.res	2016-05-16T10:09:44.969Z
Engine\Content\Internationalization\icudt53l\en_KN.res	2016-05-16T10:09:44.968Z
Engine\Content\Internationalization\icudt53l\en_KY.res	2016-05-16T10:09:44.965Z
Engine\Content\Internationalization\icudt53l\en_LC.res	2016-05-16T10:09:44.962Z
Engine\Content\Internationalization\icudt53l\en_LR.res	2016-05-16T10:09:44.960Z
Engine\Content\Internationalization\icudt53l\en_LS.res	2016-05-16T10:09:44.958Z
Engine\Content\Internationalization\icudt53l\en_MG.res	2016-05-16T10:09:44.957Z
Engine\Content\Internationalization\icudt53l\en_MH.res	2016-05-16T10:09:44.955Z
Engine\Content\Internationalization\icudt53l\en_MO.res	2016-05-16T10:09:44.954Z
Engine\Content\Internationalization\icudt53l\en_MP.res	2016-05-16T10:09:44.952Z
Engine\Content\Internationalization\icudt53l\en_MS.res	2016-05-16T10:09:44.951Z
Engine\Content\Internationalization\icudt53l\en_MT.res	2016-05-16T10:09:44.949Z
Engine\Content\Internationalization\icudt53l\en_MU.res	2016-05-16T10:09:44.945Z
Engine\Content\Internationalization\icudt53l\en_MW.res	2016-05-16T10:09:44.943Z
Engine\Content\Internationalization\icudt53l\en_NA.res	2016-05-16T10:09:44.942Z
Engine\Content\Internationalization\icudt53l\en_NF.res	2016-05-16T10:09:44.938Z
Engine\Content\Internationalization\icudt53l\en_NG.res	2016-05-16T10:09:44.937Z
Engine\Content\Internationalization\icudt53l\en_NH.res	2016-05-16T10:09:44.935Z
Engine\Content\Internationalization\icudt53l\en_NR.res	2016-05-16T10:09:44.934Z
Engine\Content\Internationalization\icudt53l\en_NU.res	2016-05-16T10:09:44.932Z
Engine\Content\Internationalization\icudt53l\en_NZ.res	2016-05-16T10:09:44.931Z
Engine\Content\Internationalization\icudt53l\en_PG.res	2016-05-16T10:09:44.909Z
Engine\Content\Internationalization\icudt53l\en_PH.res	2016-05-16T10:09:44.908Z
Engine\Content\Internationalization\icudt53l\en_PK.res	2016-05-16T10:09:44.907Z
Engine\Content\Internationalization\icudt53l\en_PN.res	2016-05-16T10:09:44.902Z
Engine\Content\Internationalization\icudt53l\en_PR.res	2016-05-16T10:09:44.890Z
Engine\Content\Internationalization\icudt53l\en_PW.res	2016-05-16T10:09:44.889Z
Engine\Content\Internationalization\icudt53l\en_RH.res	2016-05-16T10:09:44.886Z
Engine\Content\Internationalization\icudt53l\en_RW.res	2016-05-16T10:09:44.885Z
Engine\Content\Internationalization\icudt53l\en_SB.res	2016-05-16T10:09:44.883Z
Engine\Content\Internationalization\icudt53l\en_SC.res	2016-05-16T10:09:44.882Z
Engine\Content\Internationalization\icudt53l\en_SD.res	2016-05-16T10:09:44.881Z
Engine\Content\Internationalization\icudt53l\en_SG.res	2016-05-16T10:09:44.879Z
Engine\Content\Internationalization\icudt53l\en_SH.res	2016-05-16T10:09:44.878Z
Engine\Content\Internationalization\icudt53l\en_SL.res	2016-05-16T10:09:44.877Z
Engine\Content\Internationalization\icudt53l\en_SS.res	2016-05-16T10:09:44.876Z
Engine\Content\Internationalization\icudt53l\en_SX.res	2016-05-16T10:09:44.875Z
Engine\Content\Internationalization\icudt53l\en_SZ.res	2016-05-16T10:09:44.874Z
Engine\Content\Internationalization\icudt53l\en_TC.res	2016-05-16T10:09:44.873Z
Engine\Content\Internationalization\icudt53l\en_TK.res	2016-05-16T10:09:44.872Z
Engine\Content\Internationalization\icudt53l\en_TO.res	2016-05-16T10:09:44.871Z
Engine\Content\Internationalization\icudt53l\en_TT.res	2016-05-16T10:09:44.870Z
Engine\Content\Internationalization\icudt53l\en_TV.res	2016-05-16T10:09:44.867Z
Engine\Content\Internationalization\icudt53l\en_TZ.res	2016-05-16T10:09:44.866Z
Engine\Content\Internationalization\icudt53l\en_UG.res	2016-05-16T10:09:44.865Z
Engine\Content\Internationalization\icudt53l\en_UM.res	2016-05-16T10:09:44.864Z
Engine\Content\Internationalization\icudt53l\en_US.res	2016-05-16T10:09:44.862Z
Engine\Content\Internationalization\icudt53l\en_US_POSIX.res	2016-05-16T10:09:44.861Z
Engine\Content\Internationalization\icudt53l\en_VC.res	2016-05-16T10:09:44.860Z
Engine\Content\Internationalization\icudt53l\en_VG.res	2016-05-16T10:09:44.859Z
Engine\Content\Internationalization\icudt53l\en_VI.res	2016-05-16T10:09:44.858Z
Engine\Content\Internationalization\icudt53l\en_VU.res	2016-05-16T10:09:44.857Z
Engine\Content\Internationalization\icudt53l\en_WS.res	2016-05-16T10:09:44.856Z
Engine\Content\Internationalization\icudt53l\en_ZA.res	2016-05-16T10:09:44.855Z
Engine\Content\Internationalization\icudt53l\en_ZM.res	2016-05-16T10:09:44.851Z
Engine\Content\Internationalization\icudt53l\en_ZW.res	2016-05-16T10:09:44.849Z
Engine\Content\Internationalization\icudt53l\ibm-1047_P100-1995.cnv	2016-05-16T10:09:44.845Z
Engine\Content\Internationalization\icudt53l\ibm-37_P100-1995.cnv	2016-05-16T10:09:44.841Z
Engine\Content\Internationalization\icudt53l\keyTypeData.res	2016-05-16T10:09:44.840Z
Engine\Content\Internationalization\icudt53l\leet.res	2016-05-16T10:09:44.419Z
Engine\Content\Internationalization\icudt53l\nfc.nrm	2016-05-16T10:09:44.414Z
Engine\Content\Internationalization\icudt53l\nfkc.nrm	2016-05-16T10:09:44.410Z
Engine\Content\Internationalization\icudt53l\nfkc_cf.nrm	2016-05-16T10:09:44.405Z
Engine\Content\Internationalization\icudt53l\numberingSystems.res	2016-05-16T10:09:44.401Z
Engine\Content\Internationalization\icudt53l\pool.res	2016-05-16T10:09:44.398Z
Engine\Content\Internationalization\icudt53l\res_index.res	2016-05-16T10:09:44.196Z
Engine\Content\Internationalization\icudt53l\root.res	2016-05-16T10:09:44.192Z
Engine\Content\Internationalization\icudt53l\unames.icu	2016-05-16T10:09:44.186Z
Engine\Content\Internationalization\icudt53l\uts46.nrm	2016-05-16T10:09:44.180Z
Engine\Content\Internationalization\icudt53l\zoneinfo64.res	2016-05-16T10:09:43.954Z
Engine\Content\Internationalization\icudt53l\brkitr\char.brk	2016-05-16T10:09:45.327Z
Engine\Content\Internationalization\icudt53l\brkitr\en.res	2016-05-16T10:09:45.322Z
Engine\Content\Internationalization\icudt53l\brkitr\en_US.res	2016-05-16T10:09:45.316Z
Engine\Content\Internationalization\icudt53l\brkitr\en_US_POSIX.res	2016-05-16T10:09:45.310Z
Engine\Content\Internationalization\icudt53l\brkitr\leet.res	2016-05-16T10:09:45.308Z
Engine\Content\Internationalization\icudt53l\brkitr\line.brk	2016-05-16T10:09:45.304Z
Engine\Content\Internationalization\icudt53l\brkitr\res_index.res	2016-05-16T10:09:45.298Z
Engine\Content\Internationalization\icudt53l\brkitr\root.res	2016-05-16T10:09:45.297Z
Engine\Content\Internationalization\icudt53l\brkitr\sent.brk	2016-05-16T10:09:45.293Z
Engine\Content\Internationalization\icudt53l\brkitr\title.brk	2016-05-16T10:09:45.289Z
Engine\Content\Internationalization\icudt53l\brkitr\word.brk	2016-05-16T10:09:45.284Z
Engine\Content\Internationalization\icudt53l\brkitr\word_POSIX.brk	2016-05-16T10:09:45.276Z
Engine\Content\Internationalization\icudt53l\coll\en.res	2016-05-16T10:09:45.266Z
Engine\Content\Internationalization\icudt53l\coll\en_US.res	2016-05-16T10:09:45.265Z
Engine\Content\Internationalization\icudt53l\coll\en_US_POSIX.res	2016-05-16T10:09:45.264Z
Engine\Content\Internationalization\icudt53l\coll\leet.res	2016-05-16T10:09:45.260Z
Engine\Content\Internationalization\icudt53l\coll\res_index.res	2016-05-16T10:09:45.255Z
Engine\Content\Internationalization\icudt53l\coll\root.res	2016-05-16T10:09:45.251Z
Engine\Content\Internationalization\icudt53l\coll\ucadata.icu	2016-05-16T10:09:45.246Z
Engine\Content\Internationalization\icudt53l\curr\en.res	2016-05-16T10:09:45.237Z
Engine\Content\Internationalization\icudt53l\curr\en_001.res	2016-05-16T10:09:45.233Z
Engine\Content\Internationalization\icudt53l\curr\en_150.res	2016-05-16T10:09:45.232Z
Engine\Content\Internationalization\icudt53l\curr\en_AG.res	2016-05-16T10:09:45.230Z
Engine\Content\Internationalization\icudt53l\curr\en_AI.res	2016-05-16T10:09:45.230Z
Engine\Content\Internationalization\icudt53l\curr\en_AU.res	2016-05-16T10:09:45.229Z
Engine\Content\Internationalization\icudt53l\curr\en_BB.res	2016-05-16T10:09:45.228Z
Engine\Content\Internationalization\icudt53l\curr\en_BE.res	2016-05-16T10:09:45.226Z
Engine\Content\Internationalization\icudt53l\curr\en_BM.res	2016-05-16T10:09:45.225Z
Engine\Content\Internationalization\icudt53l\curr\en_BS.res	2016-05-16T10:09:45.225Z
Engine\Content\Internationalization\icudt53l\curr\en_BW.res	2016-05-16T10:09:45.224Z
Engine\Content\Internationalization\icudt53l\curr\en_BZ.res	2016-05-16T10:09:45.222Z
Engine\Content\Internationalization\icudt53l\curr\en_CA.res	2016-05-16T10:09:45.221Z
Engine\Content\Internationalization\icudt53l\curr\en_CC.res	2016-05-16T10:09:45.221Z
Engine\Content\Internationalization\icudt53l\curr\en_CK.res	2016-05-16T10:09:45.219Z
Engine\Content\Internationalization\icudt53l\curr\en_CM.res	2016-05-16T10:09:45.218Z
Engine\Content\Internationalization\icudt53l\curr\en_CX.res	2016-05-16T10:09:45.217Z
Engine\Content\Internationalization\icudt53l\curr\en_DG.res	2016-05-16T10:09:45.215Z
Engine\Content\Internationalization\icudt53l\curr\en_DM.res	2016-05-16T10:09:45.214Z
Engine\Content\Internationalization\icudt53l\curr\en_ER.res	2016-05-16T10:09:45.212Z
Engine\Content\Internationalization\icudt53l\curr\en_FJ.res	2016-05-16T10:09:45.211Z
Engine\Content\Internationalization\icudt53l\curr\en_FK.res	2016-05-16T10:09:45.209Z
Engine\Content\Internationalization\icudt53l\curr\en_FM.res	2016-05-16T10:09:45.208Z
Engine\Content\Internationalization\icudt53l\curr\en_GB.res	2016-05-16T10:09:45.207Z
Engine\Content\Internationalization\icudt53l\curr\en_GD.res	2016-05-16T10:09:45.203Z
Engine\Content\Internationalization\icudt53l\curr\en_GG.res	2016-05-16T10:09:45.202Z
Engine\Content\Internationalization\icudt53l\curr\en_GH.res	2016-05-16T10:09:45.201Z
Engine\Content\Internationalization\icudt53l\curr\en_GI.res	2016-05-16T10:09:45.198Z
Engine\Content\Internationalization\icudt53l\curr\en_GM.res	2016-05-16T10:09:45.197Z
Engine\Content\Internationalization\icudt53l\curr\en_GY.res	2016-05-16T10:09:45.196Z
Engine\Content\Internationalization\icudt53l\curr\en_HK.res	2016-05-16T10:09:45.195Z
Engine\Content\Internationalization\icudt53l\curr\en_IE.res	2016-05-16T10:09:45.194Z
Engine\Content\Internationalization\icudt53l\curr\en_IM.res	2016-05-16T10:09:45.193Z
Engine\Content\Internationalization\icudt53l\curr\en_IN.res	2016-05-16T10:09:45.192Z
Engine\Content\Internationalization\icudt53l\curr\en_IO.res	2016-05-16T10:09:45.189Z
Engine\Content\Internationalization\icudt53l\curr\en_JE.res	2016-05-16T10:09:45.188Z
Engine\Content\Internationalization\icudt53l\curr\en_JM.res	2016-05-16T10:09:45.185Z
Engine\Content\Internationalization\icudt53l\curr\en_KE.res	2016-05-16T10:09:45.183Z
Engine\Content\Internationalization\icudt53l\curr\en_KI.res	2016-05-16T10:09:45.182Z
Engine\Content\Internationalization\icudt53l\curr\en_KN.res	2016-05-16T10:09:45.180Z
Engine\Content\Internationalization\icudt53l\curr\en_KY.res	2016-05-16T10:09:45.179Z
Engine\Content\Internationalization\icudt53l\curr\en_LC.res	2016-05-16T10:09:45.178Z
Engine\Content\Internationalization\icudt53l\curr\en_LR.res	2016-05-16T10:09:45.177Z
Engine\Content\Internationalization\icudt53l\curr\en_LS.res	2016-05-16T10:09:45.175Z
Engine\Content\Internationalization\icudt53l\curr\en_MG.res	2016-05-16T10:09:45.175Z
Engine\Content\Internationalization\icudt53l\curr\en_MO.res	2016-05-16T10:09:45.174Z
Engine\Content\Internationalization\icudt53l\curr\en_MS.res	2016-05-16T10:09:45.173Z
Engine\Content\Internationalization\icudt53l\curr\en_MT.res	2016-05-16T10:09:45.171Z
Engine\Content\Internationalization\icudt53l\curr\en_MU.res	2016-05-16T10:09:45.168Z
Engine\Content\Internationalization\icudt53l\curr\en_MW.res	2016-05-16T10:09:45.167Z
Engine\Content\Internationalization\icudt53l\curr\en_NA.res	2016-05-16T10:09:45.164Z
Engine\Content\Internationalization\icudt53l\curr\en_NF.res	2016-05-16T10:09:45.163Z
Engine\Content\Internationalization\icudt53l\curr\en_NG.res	2016-05-16T10:09:45.162Z
Engine\Content\Internationalization\icudt53l\curr\en_NH.res	2016-05-16T10:09:45.160Z
Engine\Content\Internationalization\icudt53l\curr\en_NR.res	2016-05-16T10:09:45.159Z
Engine\Content\Internationalization\icudt53l\curr\en_NU.res	2016-05-16T10:09:45.158Z
Engine\Content\Internationalization\icudt53l\curr\en_NZ.res	2016-05-16T10:09:45.157Z
Engine\Content\Internationalization\icudt53l\curr\en_PG.res	2016-05-16T10:09:45.156Z
Engine\Content\Internationalization\icudt53l\curr\en_PH.res	2016-05-16T10:09:45.152Z
Engine\Content\Internationalization\icudt53l\curr\en_PK.res	2016-05-16T10:09:45.150Z
Engine\Content\Internationalization\icudt53l\curr\en_PN.res	2016-05-16T10:09:45.147Z
Engine\Content\Internationalization\icudt53l\curr\en_PW.res	2016-05-16T10:09:45.145Z
Engine\Content\Internationalization\icudt53l\curr\en_RH.res	2016-05-16T10:09:45.143Z
Engine\Content\Internationalization\icudt53l\curr\en_RW.res	2016-05-16T10:09:45.139Z
Engine\Content\Internationalization\icudt53l\curr\en_SB.res	2016-05-16T10:09:45.137Z
Engine\Content\Internationalization\icudt53l\curr\en_SC.res	2016-05-16T10:09:45.120Z
Engine\Content\Internationalization\icudt53l\curr\en_SD.res	2016-05-16T10:09:45.118Z
Engine\Content\Internationalization\icudt53l\curr\en_SG.res	2016-05-16T10:09:45.116Z
Engine\Content\Internationalization\icudt53l\curr\en_SH.res	2016-05-16T10:09:45.114Z
Engine\Content\Internationalization\icudt53l\curr\en_SL.res	2016-05-16T10:09:45.113Z
Engine\Content\Internationalization\icudt53l\curr\en_SS.res	2016-05-16T10:09:45.105Z
Engine\Content\Internationalization\icudt53l\curr\en_SX.res	2016-05-16T10:09:45.101Z
Engine\Content\Internationalization\icudt53l\curr\en_SZ.res	2016-05-16T10:09:45.099Z
Engine\Content\Internationalization\icudt53l\curr\en_TC.res	2016-05-16T10:09:45.096Z
Engine\Content\Internationalization\icudt53l\curr\en_TK.res	2016-05-16T10:09:45.094Z
Engine\Content\Internationalization\icudt53l\curr\en_TO.res	2016-05-16T10:09:45.082Z
Engine\Content\Internationalization\icudt53l\curr\en_TT.res	2016-05-16T10:09:45.081Z
Engine\Content\Internationalization\icudt53l\curr\en_TV.res	2016-05-16T10:09:45.076Z
Engine\Content\Internationalization\icudt53l\curr\en_TZ.res	2016-05-16T10:09:45.075Z
Engine\Content\Internationalization\icudt53l\curr\en_UG.res	2016-05-16T10:09:45.074Z
Engine\Content\Internationalization\icudt53l\curr\en_VC.res	2016-05-16T10:09:45.073Z
Engine\Content\Internationalization\icudt53l\curr\en_VG.res	2016-05-16T10:09:45.071Z
Engine\Content\Internationalization\icudt53l\curr\en_VU.res	2016-05-16T10:09:45.068Z
Engine\Content\Internationalization\icudt53l\curr\en_WS.res	2016-05-16T10:09:45.066Z
Engine\Content\Internationalization\icudt53l\curr\en_ZA.res	2016-05-16T10:09:45.063Z
Engine\Content\Internationalization\icudt53l\curr\en_ZM.res	2016-05-16T10:09:45.062Z
Engine\Content\Internationalization\icudt53l\curr\en_ZW.res	2016-05-16T10:09:45.061Z
Engine\Content\Internationalization\icudt53l\curr\leet.res	2016-05-16T10:09:45.060Z
Engine\Content\Internationalization\icudt53l\curr\pool.res	2016-05-16T10:09:45.055Z
Engine\Content\Internationalization\icudt53l\curr\res_index.res	2016-05-16T10:09:45.053Z
Engine\Content\Internationalization\icudt53l\curr\root.res	2016-05-16T10:09:45.049Z
Engine\Content\Internationalization\icudt53l\curr\supplementalData.res	2016-05-16T10:09:45.045Z
Engine\Content\Internationalization\icudt53l\lang\en.res	2016-05-16T10:09:44.839Z
Engine\Content\Internationalization\icudt53l\lang\en_150.res	2016-05-16T10:09:44.835Z
Engine\Content\Internationalization\icudt53l\lang\en_AG.res	2016-05-16T10:09:44.834Z
Engine\Content\Internationalization\icudt53l\lang\en_AI.res	2016-05-16T10:09:44.833Z
Engine\Content\Internationalization\icudt53l\lang\en_AU.res	2016-05-16T10:09:44.832Z
Engine\Content\Internationalization\icudt53l\lang\en_BB.res	2016-05-16T10:09:44.831Z
Engine\Content\Internationalization\icudt53l\lang\en_BE.res	2016-05-16T10:09:44.830Z
Engine\Content\Internationalization\icudt53l\lang\en_BM.res	2016-05-16T10:09:44.829Z
Engine\Content\Internationalization\icudt53l\lang\en_BS.res	2016-05-16T10:09:44.828Z
Engine\Content\Internationalization\icudt53l\lang\en_BW.res	2016-05-16T10:09:44.826Z
Engine\Content\Internationalization\icudt53l\lang\en_BZ.res	2016-05-16T10:09:44.823Z
Engine\Content\Internationalization\icudt53l\lang\en_CC.res	2016-05-16T10:09:44.822Z
Engine\Content\Internationalization\icudt53l\lang\en_CK.res	2016-05-16T10:09:44.821Z
Engine\Content\Internationalization\icudt53l\lang\en_CM.res	2016-05-16T10:09:44.820Z
Engine\Content\Internationalization\icudt53l\lang\en_CX.res	2016-05-16T10:09:44.818Z
Engine\Content\Internationalization\icudt53l\lang\en_DG.res	2016-05-16T10:09:44.817Z
Engine\Content\Internationalization\icudt53l\lang\en_DM.res	2016-05-16T10:09:44.815Z
Engine\Content\Internationalization\icudt53l\lang\en_ER.res	2016-05-16T10:09:44.814Z
Engine\Content\Internationalization\icudt53l\lang\en_FJ.res	2016-05-16T10:09:44.813Z
Engine\Content\Internationalization\icudt53l\lang\en_FK.res	2016-05-16T10:09:44.812Z
Engine\Content\Internationalization\icudt53l\lang\en_FM.res	2016-05-16T10:09:44.811Z
Engine\Content\Internationalization\icudt53l\lang\en_GB.res	2016-05-16T10:09:44.810Z
Engine\Content\Internationalization\icudt53l\lang\en_GD.res	2016-05-16T10:09:44.808Z
Engine\Content\Internationalization\icudt53l\lang\en_GG.res	2016-05-16T10:09:44.808Z
Engine\Content\Internationalization\icudt53l\lang\en_GH.res	2016-05-16T10:09:44.807Z
Engine\Content\Internationalization\icudt53l\lang\en_GI.res	2016-05-16T10:09:44.806Z
Engine\Content\Internationalization\icudt53l\lang\en_GM.res	2016-05-16T10:09:44.805Z
Engine\Content\Internationalization\icudt53l\lang\en_GY.res	2016-05-16T10:09:44.804Z
Engine\Content\Internationalization\icudt53l\lang\en_HK.res	2016-05-16T10:09:44.803Z
Engine\Content\Internationalization\icudt53l\lang\en_IE.res	2016-05-16T10:09:44.802Z
Engine\Content\Internationalization\icudt53l\lang\en_IM.res	2016-05-16T10:09:44.800Z
Engine\Content\Internationalization\icudt53l\lang\en_IN.res	2016-05-16T10:09:44.799Z
Engine\Content\Internationalization\icudt53l\lang\en_IO.res	2016-05-16T10:09:44.798Z
Engine\Content\Internationalization\icudt53l\lang\en_JE.res	2016-05-16T10:09:44.795Z
Engine\Content\Internationalization\icudt53l\lang\en_JM.res	2016-05-16T10:09:44.794Z
Engine\Content\Internationalization\icudt53l\lang\en_KE.res	2016-05-16T10:09:44.792Z
Engine\Content\Internationalization\icudt53l\lang\en_KI.res	2016-05-16T10:09:44.792Z
Engine\Content\Internationalization\icudt53l\lang\en_KN.res	2016-05-16T10:09:44.791Z
Engine\Content\Internationalization\icudt53l\lang\en_KY.res	2016-05-16T10:09:44.790Z
Engine\Content\Internationalization\icudt53l\lang\en_LC.res	2016-05-16T10:09:44.789Z
Engine\Content\Internationalization\icudt53l\lang\en_LR.res	2016-05-16T10:09:44.787Z
Engine\Content\Internationalization\icudt53l\lang\en_LS.res	2016-05-16T10:09:44.786Z
Engine\Content\Internationalization\icudt53l\lang\en_MG.res	2016-05-16T10:09:44.784Z
Engine\Content\Internationalization\icudt53l\lang\en_MO.res	2016-05-16T10:09:44.782Z
Engine\Content\Internationalization\icudt53l\lang\en_MS.res	2016-05-16T10:09:44.773Z
Engine\Content\Internationalization\icudt53l\lang\en_MT.res	2016-05-16T10:09:44.772Z
Engine\Content\Internationalization\icudt53l\lang\en_MU.res	2016-05-16T10:09:44.765Z
Engine\Content\Internationalization\icudt53l\lang\en_MW.res	2016-05-16T10:09:44.758Z
Engine\Content\Internationalization\icudt53l\lang\en_NA.res	2016-05-16T10:09:44.756Z
Engine\Content\Internationalization\icudt53l\lang\en_NF.res	2016-05-16T10:09:44.754Z
Engine\Content\Internationalization\icudt53l\lang\en_NG.res	2016-05-16T10:09:44.752Z
Engine\Content\Internationalization\icudt53l\lang\en_NH.res	2016-05-16T10:09:44.751Z
Engine\Content\Internationalization\icudt53l\lang\en_NR.res	2016-05-16T10:09:44.749Z
Engine\Content\Internationalization\icudt53l\lang\en_NU.res	2016-05-16T10:09:44.747Z
Engine\Content\Internationalization\icudt53l\lang\en_NZ.res	2016-05-16T10:09:44.746Z
Engine\Content\Internationalization\icudt53l\lang\en_PG.res	2016-05-16T10:09:44.737Z
Engine\Content\Internationalization\icudt53l\lang\en_PH.res	2016-05-16T10:09:44.734Z
Engine\Content\Internationalization\icudt53l\lang\en_PK.res	2016-05-16T10:09:44.732Z
Engine\Content\Internationalization\icudt53l\lang\en_PN.res	2016-05-16T10:09:44.729Z
Engine\Content\Internationalization\icudt53l\lang\en_PW.res	2016-05-16T10:09:44.728Z
Engine\Content\Internationalization\icudt53l\lang\en_RH.res	2016-05-16T10:09:44.724Z
Engine\Content\Internationalization\icudt53l\lang\en_RW.res	2016-05-16T10:09:44.721Z
Engine\Content\Internationalization\icudt53l\lang\en_SB.res	2016-05-16T10:09:44.719Z
Engine\Content\Internationalization\icudt53l\lang\en_SC.res	2016-05-16T10:09:44.718Z
Engine\Content\Internationalization\icudt53l\lang\en_SD.res	2016-05-16T10:09:44.716Z
Engine\Content\Internationalization\icudt53l\lang\en_SG.res	2016-05-16T10:09:44.715Z
Engine\Content\Internationalization\icudt53l\lang\en_SH.res	2016-05-16T10:09:44.713Z
Engine\Content\Internationalization\icudt53l\lang\en_SL.res	2016-05-16T10:09:44.711Z
Engine\Content\Internationalization\icudt53l\lang\en_SS.res	2016-05-16T10:09:44.710Z
Engine\Content\Internationalization\icudt53l\lang\en_SX.res	2016-05-16T10:09:44.709Z
Engine\Content\Internationalization\icudt53l\lang\en_SZ.res	2016-05-16T10:09:44.707Z
Engine\Content\Internationalization\icudt53l\lang\en_TC.res	2016-05-16T10:09:44.706Z
Engine\Content\Internationalization\icudt53l\lang\en_TK.res	2016-05-16T10:09:44.704Z
Engine\Content\Internationalization\icudt53l\lang\en_TO.res	2016-05-16T10:09:44.702Z
Engine\Content\Internationalization\icudt53l\lang\en_TT.res	2016-05-16T10:09:44.701Z
Engine\Content\Internationalization\icudt53l\lang\en_TV.res	2016-05-16T10:09:44.700Z
Engine\Content\Internationalization\icudt53l\lang\en_TZ.res	2016-05-16T10:09:44.696Z
Engine\Content\Internationalization\icudt53l\lang\en_UG.res	2016-05-16T10:09:44.695Z
Engine\Content\Internationalization\icudt53l\lang\en_VC.res	2016-05-16T10:09:44.694Z
Engine\Content\Internationalization\icudt53l\lang\en_VG.res	2016-05-16T10:09:44.692Z
Engine\Content\Internationalization\icudt53l\lang\en_VU.res	2016-05-16T10:09:44.692Z
Engine\Content\Internationalization\icudt53l\lang\en_WS.res	2016-05-16T10:09:44.691Z
Engine\Content\Internationalization\icudt53l\lang\en_ZA.res	2016-05-16T10:09:44.659Z
Engine\Content\Internationalization\icudt53l\lang\en_ZM.res	2016-05-16T10:09:44.658Z
Engine\Content\Internationalization\icudt53l\lang\en_ZW.res	2016-05-16T10:09:44.482Z
Engine\Content\Internationalization\icudt53l\lang\leet.res	2016-05-16T10:09:44.479Z
Engine\Content\Internationalization\icudt53l\lang\pool.res	2016-05-16T10:09:44.474Z
Engine\Content\Internationalization\icudt53l\lang\res_index.res	2016-05-16T10:09:44.473Z
Engine\Content\Internationalization\icudt53l\lang\root.res	2016-05-16T10:09:44.472Z
Engine\Content\Internationalization\icudt53l\rbnf\en.res	2016-05-16T10:09:44.396Z
Engine\Content\Internationalization\icudt53l\rbnf\leet.res	2016-05-16T10:09:44.391Z
Engine\Content\Internationalization\icudt53l\rbnf\res_index.res	2016-05-16T10:09:44.386Z
Engine\Content\Internationalization\icudt53l\rbnf\root.res	2016-05-16T10:09:44.358Z
Engine\Content\Internationalization\icudt53l\region\en.res	2016-05-16T10:09:44.352Z
Engine\Content\Internationalization\icudt53l\region\en_150.res	2016-05-16T10:09:44.351Z
Engine\Content\Internationalization\icudt53l\region\en_AG.res	2016-05-16T10:09:44.349Z
Engine\Content\Internationalization\icudt53l\region\en_AI.res	2016-05-16T10:09:44.347Z
Engine\Content\Internationalization\icudt53l\region\en_AU.res	2016-05-16T10:09:44.346Z
Engine\Content\Internationalization\icudt53l\region\en_BB.res	2016-05-16T10:09:44.342Z
Engine\Content\Internationalization\icudt53l\region\en_BE.res	2016-05-16T10:09:44.339Z
Engine\Content\Internationalization\icudt53l\region\en_BM.res	2016-05-16T10:09:44.338Z
Engine\Content\Internationalization\icudt53l\region\en_BS.res	2016-05-16T10:09:44.336Z
Engine\Content\Internationalization\icudt53l\region\en_BW.res	2016-05-16T10:09:44.335Z
Engine\Content\Internationalization\icudt53l\region\en_BZ.res	2016-05-16T10:09:44.331Z
Engine\Content\Internationalization\icudt53l\region\en_CC.res	2016-05-16T10:09:44.329Z
Engine\Content\Internationalization\icudt53l\region\en_CK.res	2016-05-16T10:09:44.328Z
Engine\Content\Internationalization\icudt53l\region\en_CM.res	2016-05-16T10:09:44.326Z
Engine\Content\Internationalization\icudt53l\region\en_CX.res	2016-05-16T10:09:44.324Z
Engine\Content\Internationalization\icudt53l\region\en_DG.res	2016-05-16T10:09:44.323Z
Engine\Content\Internationalization\icudt53l\region\en_DM.res	2016-05-16T10:09:44.321Z
Engine\Content\Internationalization\icudt53l\region\en_ER.res	2016-05-16T10:09:44.320Z
Engine\Content\Internationalization\icudt53l\region\en_FJ.res	2016-05-16T10:09:44.318Z
Engine\Content\Internationalization\icudt53l\region\en_FK.res	2016-05-16T10:09:44.317Z
Engine\Content\Internationalization\icudt53l\region\en_FM.res	2016-05-16T10:09:44.316Z
Engine\Content\Internationalization\icudt53l\region\en_GB.res	2016-05-16T10:09:44.314Z
Engine\Content\Internationalization\icudt53l\region\en_GD.res	2016-05-16T10:09:44.310Z
Engine\Content\Internationalization\icudt53l\region\en_GG.res	2016-05-16T10:09:44.309Z
Engine\Content\Internationalization\icudt53l\region\en_GH.res	2016-05-16T10:09:44.307Z
Engine\Content\Internationalization\icudt53l\region\en_GI.res	2016-05-16T10:09:44.306Z
Engine\Content\Internationalization\icudt53l\region\en_GM.res	2016-05-16T10:09:44.305Z
Engine\Content\Internationalization\icudt53l\region\en_GY.res	2016-05-16T10:09:44.303Z
Engine\Content\Internationalization\icudt53l\region\en_HK.res	2016-05-16T10:09:44.302Z
Engine\Content\Internationalization\icudt53l\region\en_IE.res	2016-05-16T10:09:44.301Z
Engine\Content\Internationalization\icudt53l\region\en_IM.res	2016-05-16T10:09:44.299Z
Engine\Content\Internationalization\icudt53l\region\en_IN.res	2016-05-16T10:09:44.298Z
Engine\Content\Internationalization\icudt53l\region\en_IO.res	2016-05-16T10:09:44.297Z
Engine\Content\Internationalization\icudt53l\region\en_JE.res	2016-05-16T10:09:44.296Z
Engine\Content\Internationalization\icudt53l\region\en_JM.res	2016-05-16T10:09:44.295Z
Engine\Content\Internationalization\icudt53l\region\en_KE.res	2016-05-16T10:09:44.293Z
Engine\Content\Internationalization\icudt53l\region\en_KI.res	2016-05-16T10:09:44.292Z
Engine\Content\Internationalization\icudt53l\region\en_KN.res	2016-05-16T10:09:44.291Z
Engine\Content\Internationalization\icudt53l\region\en_KY.res	2016-05-16T10:09:44.289Z
Engine\Content\Internationalization\icudt53l\region\en_LC.res	2016-05-16T10:09:44.288Z
Engine\Content\Internationalization\icudt53l\region\en_LR.res	2016-05-16T10:09:44.287Z
Engine\Content\Internationalization\icudt53l\region\en_LS.res	2016-05-16T10:09:44.285Z
Engine\Content\Internationalization\icudt53l\region\en_MG.res	2016-05-16T10:09:44.284Z
Engine\Content\Internationalization\icudt53l\region\en_MO.res	2016-05-16T10:09:44.283Z
Engine\Content\Internationalization\icudt53l\region\en_MS.res	2016-05-16T10:09:44.281Z
Engine\Content\Internationalization\icudt53l\region\en_MT.res	2016-05-16T10:09:44.280Z
Engine\Content\Internationalization\icudt53l\region\en_MU.res	2016-05-16T10:09:44.279Z
Engine\Content\Internationalization\icudt53l\region\en_MW.res	2016-05-16T10:09:44.278Z
Engine\Content\Internationalization\icudt53l\region\en_NA.res	2016-05-16T10:09:44.277Z
Engine\Content\Internationalization\icudt53l\region\en_NF.res	2016-05-16T10:09:44.275Z
Engine\Content\Internationalization\icudt53l\region\en_NG.res	2016-05-16T10:09:44.274Z
Engine\Content\Internationalization\icudt53l\region\en_NH.res	2016-05-16T10:09:44.273Z
Engine\Content\Internationalization\icudt53l\region\en_NR.res	2016-05-16T10:09:44.270Z
Engine\Content\Internationalization\icudt53l\region\en_NU.res	2016-05-16T10:09:44.269Z
Engine\Content\Internationalization\icudt53l\region\en_NZ.res	2016-05-16T10:09:44.268Z
Engine\Content\Internationalization\icudt53l\region\en_PG.res	2016-05-16T10:09:44.267Z
Engine\Content\Internationalization\icudt53l\region\en_PH.res	2016-05-16T10:09:44.266Z
Engine\Content\Internationalization\icudt53l\region\en_PK.res	2016-05-16T10:09:44.264Z
Engine\Content\Internationalization\icudt53l\region\en_PN.res	2016-05-16T10:09:44.264Z
Engine\Content\Internationalization\icudt53l\region\en_PW.res	2016-05-16T10:09:44.262Z
Engine\Content\Internationalization\icudt53l\region\en_RH.res	2016-05-16T10:09:44.258Z
Engine\Content\Internationalization\icudt53l\region\en_RW.res	2016-05-16T10:09:44.254Z
Engine\Content\Internationalization\icudt53l\region\en_SB.res	2016-05-16T10:09:44.253Z
Engine\Content\Internationalization\icudt53l\region\en_SC.res	2016-05-16T10:09:44.252Z
Engine\Content\Internationalization\icudt53l\region\en_SD.res	2016-05-16T10:09:44.250Z
Engine\Content\Internationalization\icudt53l\region\en_SG.res	2016-05-16T10:09:44.249Z
Engine\Content\Internationalization\icudt53l\region\en_SH.res	2016-05-16T10:09:44.246Z
Engine\Content\Internationalization\icudt53l\region\en_SL.res	2016-05-16T10:09:44.242Z
Engine\Content\Internationalization\icudt53l\region\en_SS.res	2016-05-16T10:09:44.241Z
Engine\Content\Internationalization\icudt53l\region\en_SX.res	2016-05-16T10:09:44.240Z
Engine\Content\Internationalization\icudt53l\region\en_SZ.res	2016-05-16T10:09:44.239Z
Engine\Content\Internationalization\icudt53l\region\en_TC.res	2016-05-16T10:09:44.238Z
Engine\Content\Internationalization\icudt53l\region\en_TK.res	2016-05-16T10:09:44.237Z
Engine\Content\Internationalization\icudt53l\region\en_TO.res	2016-05-16T10:09:44.236Z
Engine\Content\Internationalization\icudt53l\region\en_TT.res	2016-05-16T10:09:44.235Z
Engine\Content\Internationalization\icudt53l\region\en_TV.res	2016-05-16T10:09:44.234Z
Engine\Content\Internationalization\icudt53l\region\en_TZ.res	2016-05-16T10:09:44.231Z
Engine\Content\Internationalization\icudt53l\region\en_UG.res	2016-05-16T10:09:44.229Z
Engine\Content\Internationalization\icudt53l\region\en_VC.res	2016-05-16T10:09:44.228Z
Engine\Content\Internationalization\icudt53l\region\en_VG.res	2016-05-16T10:09:44.227Z
Engine\Content\Internationalization\icudt53l\region\en_VU.res	2016-05-16T10:09:44.226Z
Engine\Content\Internationalization\icudt53l\region\en_WS.res	2016-05-16T10:09:44.224Z
Engine\Content\Internationalization\icudt53l\region\en_ZA.res	2016-05-16T10:09:44.223Z
Engine\Content\Internationalization\icudt53l\region\en_ZM.res	2016-05-16T10:09:44.222Z
Engine\Content\Internationalization\icudt53l\region\en_ZW.res	2016-05-16T10:09:44.218Z
Engine\Content\Internationalization\icudt53l\region\leet.res	2016-05-16T10:09:44.214Z
Engine\Content\Internationalization\icudt53l\region\pool.res	2016-05-16T10:09:44.209Z
Engine\Content\Internationalization\icudt53l\region\res_index.res	2016-05-16T10:09:44.206Z
Engine\Content\Internationalization\icudt53l\region\root.res	2016-05-16T10:09:44.202Z
Engine\Content\Internationalization\icudt53l\zone\en.res	2016-05-16T10:09:44.174Z
Engine\Content\Internationalization\icudt53l\zone\en_001.res	2016-05-16T10:09:44.168Z
Engine\Content\Internationalization\icudt53l\zone\en_150.res	2016-05-16T10:09:44.164Z
Engine\Content\Internationalization\icudt53l\zone\en_AG.res	2016-05-16T10:09:44.160Z
Engine\Content\Internationalization\icudt53l\zone\en_AI.res	2016-05-16T10:09:44.158Z
Engine\Content\Internationalization\icudt53l\zone\en_AU.res	2016-05-16T10:09:44.156Z
Engine\Content\Internationalization\icudt53l\zone\en_BB.res	2016-05-16T10:09:44.150Z
Engine\Content\Internationalization\icudt53l\zone\en_BE.res	2016-05-16T10:09:44.149Z
Engine\Content\Internationalization\icudt53l\zone\en_BM.res	2016-05-16T10:09:44.145Z
Engine\Content\Internationalization\icudt53l\zone\en_BS.res	2016-05-16T10:09:44.144Z
Engine\Content\Internationalization\icudt53l\zone\en_BW.res	2016-05-16T10:09:44.143Z
Engine\Content\Internationalization\icudt53l\zone\en_BZ.res	2016-05-16T10:09:44.139Z
Engine\Content\Internationalization\icudt53l\zone\en_CA.res	2016-05-16T10:09:44.137Z
Engine\Content\Internationalization\icudt53l\zone\en_CC.res	2016-05-16T10:09:44.134Z
Engine\Content\Internationalization\icudt53l\zone\en_CK.res	2016-05-16T10:09:44.132Z
Engine\Content\Internationalization\icudt53l\zone\en_CM.res	2016-05-16T10:09:44.131Z
Engine\Content\Internationalization\icudt53l\zone\en_CX.res	2016-05-16T10:09:44.129Z
Engine\Content\Internationalization\icudt53l\zone\en_DG.res	2016-05-16T10:09:44.128Z
Engine\Content\Internationalization\icudt53l\zone\en_DM.res	2016-05-16T10:09:44.126Z
Engine\Content\Internationalization\icudt53l\zone\en_ER.res	2016-05-16T10:09:44.124Z
Engine\Content\Internationalization\icudt53l\zone\en_FJ.res	2016-05-16T10:09:44.123Z
Engine\Content\Internationalization\icudt53l\zone\en_FK.res	2016-05-16T10:09:44.121Z
Engine\Content\Internationalization\icudt53l\zone\en_FM.res	2016-05-16T10:09:44.120Z
Engine\Content\Internationalization\icudt53l\zone\en_GB.res	2016-05-16T10:09:44.118Z
Engine\Content\Internationalization\icudt53l\zone\en_GD.res	2016-05-16T10:09:44.113Z
Engine\Content\Internationalization\icudt53l\zone\en_GG.res	2016-05-16T10:09:44.111Z
Engine\Content\Internationalization\icudt53l\zone\en_GH.res	2016-05-16T10:09:44.110Z
Engine\Content\Internationalization\icudt53l\zone\en_GI.res	2016-05-16T10:09:44.108Z
Engine\Content\Internationalization\icudt53l\zone\en_GM.res	2016-05-16T10:09:44.106Z
Engine\Content\Internationalization\icudt53l\zone\en_GU.res	2016-05-16T10:09:44.104Z
Engine\Content\Internationalization\icudt53l\zone\en_GY.res	2016-05-16T10:09:44.101Z
Engine\Content\Internationalization\icudt53l\zone\en_HK.res	2016-05-16T10:09:44.099Z
Engine\Content\Internationalization\icudt53l\zone\en_IE.res	2016-05-16T10:09:44.095Z
Engine\Content\Internationalization\icudt53l\zone\en_IM.res	2016-05-16T10:09:44.091Z
Engine\Content\Internationalization\icudt53l\zone\en_IN.res	2016-05-16T10:09:44.089Z
Engine\Content\Internationalization\icudt53l\zone\en_IO.res	2016-05-16T10:09:44.084Z
Engine\Content\Internationalization\icudt53l\zone\en_JE.res	2016-05-16T10:09:44.083Z
Engine\Content\Internationalization\icudt53l\zone\en_JM.res	2016-05-16T10:09:44.082Z
Engine\Content\Internationalization\icudt53l\zone\en_KE.res	2016-05-16T10:09:44.081Z
Engine\Content\Internationalization\icudt53l\zone\en_KI.res	2016-05-16T10:09:44.080Z
Engine\Content\Internationalization\icudt53l\zone\en_KN.res	2016-05-16T10:09:44.079Z
Engine\Content\Internationalization\icudt53l\zone\en_KY.res	2016-05-16T10:09:44.078Z
Engine\Content\Internationalization\icudt53l\zone\en_LC.res	2016-05-16T10:09:44.076Z
Engine\Content\Internationalization\icudt53l\zone\en_LR.res	2016-05-16T10:09:44.074Z
Engine\Content\Internationalization\icudt53l\zone\en_LS.res	2016-05-16T10:09:44.073Z
Engine\Content\Internationalization\icudt53l\zone\en_MG.res	2016-05-16T10:09:44.072Z
Engine\Content\Internationalization\icudt53l\zone\en_MH.res	2016-05-16T10:09:44.071Z
Engine\Content\Internationalization\icudt53l\zone\en_MO.res	2016-05-16T10:09:44.070Z
Engine\Content\Internationalization\icudt53l\zone\en_MP.res	2016-05-16T10:09:44.069Z
Engine\Content\Internationalization\icudt53l\zone\en_MS.res	2016-05-16T10:09:44.065Z
Engine\Content\Internationalization\icudt53l\zone\en_MT.res	2016-05-16T10:09:44.064Z
Engine\Content\Internationalization\icudt53l\zone\en_MU.res	2016-05-16T10:09:44.060Z
Engine\Content\Internationalization\icudt53l\zone\en_MW.res	2016-05-16T10:09:44.059Z
Engine\Content\Internationalization\icudt53l\zone\en_NA.res	2016-05-16T10:09:44.058Z
Engine\Content\Internationalization\icudt53l\zone\en_NF.res	2016-05-16T10:09:44.057Z
Engine\Content\Internationalization\icudt53l\zone\en_NG.res	2016-05-16T10:09:44.055Z
Engine\Content\Internationalization\icudt53l\zone\en_NH.res	2016-05-16T10:09:44.054Z
Engine\Content\Internationalization\icudt53l\zone\en_NR.res	2016-05-16T10:09:44.050Z
Engine\Content\Internationalization\icudt53l\zone\en_NU.res	2016-05-16T10:09:44.049Z
Engine\Content\Internationalization\icudt53l\zone\en_NZ.res	2016-05-16T10:09:44.047Z
Engine\Content\Internationalization\icudt53l\zone\en_PG.res	2016-05-16T10:09:44.044Z
Engine\Content\Internationalization\icudt53l\zone\en_PH.res	2016-05-16T10:09:44.043Z
Engine\Content\Internationalization\icudt53l\zone\en_PK.res	2016-05-16T10:09:44.042Z
Engine\Content\Internationalization\icudt53l\zone\en_PN.res	2016-05-16T10:09:44.039Z
Engine\Content\Internationalization\icudt53l\zone\en_PW.res	2016-05-16T10:09:44.037Z
Engine\Content\Internationalization\icudt53l\zone\en_RH.res	2016-05-16T10:09:44.036Z
Engine\Content\Internationalization\icudt53l\zone\en_RW.res	2016-05-16T10:09:44.033Z
Engine\Content\Internationalization\icudt53l\zone\en_SB.res	2016-05-16T10:09:44.032Z
Engine\Content\Internationalization\icudt53l\zone\en_SC.res	2016-05-16T10:09:44.031Z
Engine\Content\Internationalization\icudt53l\zone\en_SD.res	2016-05-16T10:09:44.029Z
Engine\Content\Internationalization\icudt53l\zone\en_SG.res	2016-05-16T10:09:44.026Z
Engine\Content\Internationalization\icudt53l\zone\en_SH.res	2016-05-16T10:09:44.022Z
Engine\Content\Internationalization\icudt53l\zone\en_SL.res	2016-05-16T10:09:44.019Z
Engine\Content\Internationalization\icudt53l\zone\en_SS.res	2016-05-16T10:09:44.018Z
Engine\Content\Internationalization\icudt53l\zone\en_SX.res	2016-05-16T10:09:44.016Z
Engine\Content\Internationalization\icudt53l\zone\en_SZ.res	2016-05-16T10:09:44.015Z
Engine\Content\Internationalization\icudt53l\zone\en_TC.res	2016-05-16T10:09:44.014Z
Engine\Content\Internationalization\icudt53l\zone\en_TK.res	2016-05-16T10:09:44.013Z
Engine\Content\Internationalization\icudt53l\zone\en_TO.res	2016-05-16T10:09:44.011Z
Engine\Content\Internationalization\icudt53l\zone\en_TT.res	2016-05-16T10:09:43.993Z
Engine\Content\Internationalization\icudt53l\zone\en_TV.res	2016-05-16T10:09:43.990Z
Engine\Content\Internationalization\icudt53l\zone\en_TZ.res	2016-05-16T10:09:43.989Z
Engine\Content\Internationalization\icudt53l\zone\en_UG.res	2016-05-16T10:09:43.987Z
Engine\Content\Internationalization\icudt53l\zone\en_VC.res	2016-05-16T10:09:43.986Z
Engine\Content\Internationalization\icudt53l\zone\en_VG.res	2016-05-16T10:09:43.984Z
Engine\Content\Internationalization\icudt53l\zone\en_VU.res	2016-05-16T10:09:43.980Z
Engine\Content\Internationalization\icudt53l\zone\en_WS.res	2016-05-16T10:09:43.979Z
Engine\Content\Internationalization\icudt53l\zone\en_ZA.res	2016-05-16T10:09:43.978Z
Engine\Content\Internationalization\icudt53l\zone\en_ZM.res	2016-05-16T10:09:43.976Z
Engine\Content\Internationalization\icudt53l\zone\en_ZW.res	2016-05-16T10:09:43.973Z
Engine\Content\Internationalization\icudt53l\zone\leet.res	2016-05-16T10:09:43.971Z
Engine\Content\Internationalization\icudt53l\zone\pool.res	2016-05-16T10:09:43.967Z
Engine\Content\Internationalization\icudt53l\zone\res_index.res	2016-05-16T10:09:43.962Z
Engine\Content\Internationalization\icudt53l\zone\root.res	2016-05-16T10:09:43.958Z
Engine\Binaries\ThirdParty\ICU\icu4c-53_1\Win64\VS2015\icudt53.dll	2016-05-16T10:14:01.848Z
Engine\Binaries\ThirdParty\ICU\icu4c-53_1\Win64\VS2015\icudtd53.dll	2016-05-16T10:14:01.840Z
Engine\Binaries\ThirdParty\ICU\icu4c-53_1\Win64\VS2015\icuin53.dll	2016-05-16T10:14:01.768Z
Engine\Binaries\ThirdParty\ICU\icu4c-53_1\Win64\VS2015\icuind53.dll	2016-05-16T10:14:01.745Z
Engine\Binaries\ThirdParty\ICU\icu4c-53_1\Win64\VS2015\icuio53.dll	2016-05-16T10:14:01.625Z
Engine\Binaries\ThirdParty\ICU\icu4c-53_1\Win64\VS2015\icuiod53.dll	2016-05-16T10:14:01.610Z
Engine\Binaries\ThirdParty\ICU\icu4c-53_1\Win64\VS2015\icule53.dll	2016-05-16T10:14:01.593Z
Engine\Binaries\ThirdParty\ICU\icu4c-53_1\Win64\VS2015\iculed53.dll	2016-05-16T10:14:01.580Z
Engine\Binaries\ThirdParty\ICU\icu4c-53_1\Win64\VS2015\iculx53.dll	2016-05-16T10:14:01.506Z
Engine\Binaries\ThirdParty\ICU\icu4c-53_1\Win64\VS2015\iculxd53.dll	2016-05-16T10:14:01.496Z
Engine\Binaries\ThirdParty\ICU\icu4c-53_1\Win64\VS2015\icutu53.dll	2016-05-16T10:14:01.482Z
Engine\Binaries\ThirdParty\ICU\icu4c-53_1\Win64\VS2015\icutud53.dll	2016-05-16T10:14:01.467Z
Engine\Binaries\ThirdParty\ICU\icu4c-53_1\Win64\VS2015\icuuc53.dll	2016-05-16T10:14:01.436Z
Engine\Binaries\ThirdParty\ICU\icu4c-53_1\Win64\VS2015\icuucd53.dll	2016-05-16T10:14:01.344Z
Engine\Binaries\ThirdParty\OpenSSL\Win64\VS2012\libeay32.dll	2016-05-16T10:13:53.591Z
Engine\Binaries\ThirdParty\OpenSSL\Win64\VS2012\ssleay32.dll	2016-05-16T10:13:53.407Z
Engine\Binaries\ThirdParty\OpenSSL\Win64\VS2013\libeay32.dll	2016-05-16T10:13:52.896Z
Engine\Binaries\ThirdParty\OpenSSL\Win64\VS2013\ssleay32.dll	2016-05-16T10:13:52.724Z
Engine\Binaries\ThirdParty\OpenSSL\Win64\VS2015\libeay32.dll	2016-05-16T10:13:52.708Z
Engine\Binaries\ThirdParty\OpenSSL\Win64\VS2015\ssleay32.dll	2016-05-16T10:13:52.548Z
Engine\Programs\CrashReportClient\Config\DefaultEngine.ini	2016-05-16T10:06:02.420Z
